# bin_7_4
# note = no ell^2 prefactor
4.912683693040096182e-08
4.855000683719193639e-08
4.793319690283283026e-08
4.727738986832416132e-08
4.658370729533498236e-08
4.585347176601738414e-08
4.508815430820987448e-08
4.428941028546642721e-08
4.345904628687855185e-08
4.259904047466463359e-08
4.171152004442331367e-08
4.079874878036338697e-08
3.986312902513609556e-08
3.890718698931454931e-08
3.793354306821332743e-08
3.694489676982565345e-08
3.594402534049250657e-08
3.493374924541857480e-08
3.391691687886760020e-08
3.289641032048284054e-08
3.187513613925859200e-08
3.085595272722792534e-08
2.984161525042680939e-08
2.883472456766453512e-08
2.783771892537682479e-08
2.685286006605857160e-08
2.588221730732300799e-08
2.492762603803112404e-08
2.399065042903980722e-08
2.307261150815844378e-08
2.217464336958707741e-08
2.129766408513246775e-08
2.044237952518860145e-08
1.960924892113580670e-08
1.879847859699314654e-08
1.801005562540136830e-08
1.724377776736489992e-08
1.649930590444626878e-08
1.577620241183779179e-08
1.507396937234984361e-08
1.439208522428752639e-08
1.373004020938569657e-08
1.308738154850697211e-08
1.246375968376716890e-08
1.185895108757230925e-08
1.127290384942743159e-08
1.070572193258063997e-08
1.015765960922502231e-08
9.629098075564094968e-09
9.120500934769899258e-09
8.632374648954779825e-09
8.165204882620910309e-09
7.719400926027335495e-09
7.295235426836017860e-09
6.892777308191968536e-09
6.511841611206772617e-09
6.151949013883832565e-09
5.812324793779293590e-09
5.491927518342852203e-09
5.189533325122057316e-09
4.903819069741919154e-09
4.633477606782423664e-09
4.377275592049192321e-09
4.134177264242185103e-09
3.903413428495105394e-09
3.684490497978728872e-09
3.477151054280589831e-09
3.281282688804807823e-09
3.096782142623848492e-09
2.923444867037334732e-09
2.760875253682230705e-09
2.608481944744685278e-09
2.465510395545990387e-09
2.331123148473627895e-09
2.204530045280411881e-09
2.085103592903212699e-09
1.972426962783411977e-09
1.866243865427170659e-09
1.766349925770111957e-09
1.672502150314393181e-09
1.584352179181846209e-09
1.501466038912080814e-09
1.423397356105965471e-09
1.349757862559021034e-09
1.280273989725805504e-09
1.214738945699734662e-09
1.152945377678504924e-09
1.094655298852534820e-09
1.039606763686669680e-09
9.875559872554089099e-10
9.383048410129879275e-10
8.916916314402063064e-10
8.475559113421491370e-10
8.057307675953326945e-10
7.660583802978071063e-10
7.284008833580106053e-10
6.926351532578045241e-10
6.586439998357349021e-10
6.263158766527806820e-10
5.955492585076509775e-10
5.662512542961468374e-10
5.383360371824240655e-10
5.117237523059177690e-10
4.863404774501846037e-10
4.621188790558351391e-10
4.389961047549245856e-10
4.169144846769362710e-10
3.958211350954655080e-10
3.756668306780527684e-10
3.564064890420852913e-10
3.379981899008758692e-10
3.204031616045804765e-10
3.035849278445772104e-10
2.875099444161163520e-10
2.721468511272217836e-10
2.574665447486545596e-10
2.434412441711014396e-10
2.300454541331221270e-10
2.172549489117752487e-10
2.050469022678873404e-10
1.933996568116754553e-10
1.822927879696926759e-10
1.717062487891189821e-10
1.616213646250914634e-10
1.520200663504492399e-10
1.428849364889045660e-10
1.341991336310683642e-10
1.259463812098159781e-10
1.181108260598245114e-10
1.106770842020244498e-10
1.036299028884213332e-10
9.695508729275416750e-11
9.063808325204063529e-11
8.466485104093243529e-11
7.902168465848660535e-11
7.369516270656412157e-11
6.867186787106187739e-11
6.393948985480385356e-11
5.948516155561930915e-11
5.529657885215174879e-11
5.136142291851346688e-11
4.766849302626897938e-11
4.420572608619165418e-11
4.096252083368784919e-11
3.792735991600410592e-11
3.509027766160373694e-11
3.244033539054257229e-11
2.996821972608328990e-11
2.766361343641194757e-11
2.551787046978419858e-11
