# bin_10_7
# note = no ell^2 prefactor
7.177066079822468411e-08
7.138191128172307054e-08
7.093347084692980931e-08
7.042521430661736959e-08
6.985718204040643610e-08
6.922965524153129708e-08
6.854311075246968185e-08
6.779826712158617818e-08
6.699606183179310013e-08
6.613768256869349131e-08
6.522455562892258917e-08
6.425834384852125584e-08
6.324096266897059240e-08
6.217457451895035470e-08
6.106156835029696279e-08
5.990455543449554909e-08
5.870638691345765514e-08
5.747012882615455676e-08
5.619903696945273719e-08
5.489654524076405527e-08
5.356625909507090971e-08
5.221191722283926869e-08
5.083737990693566546e-08
4.944657919697800898e-08
4.804348638427381921e-08
4.663211430559110432e-08
4.521654425767574803e-08
4.380088230676617542e-08
4.238912189992674562e-08
4.098504257936511579e-08
3.959221595533135767e-08
3.821398014541854443e-08
3.685343648272374498e-08
3.551336624846241704e-08
3.419617624597193620e-08
3.290392684172130714e-08
3.163836772114372400e-08
3.040096825544284117e-08
2.919290356822588613e-08
2.801502942401553390e-08
2.686784297769633775e-08
2.575148615109449103e-08
2.466581691163242276e-08
2.361046033881190377e-08
2.258485409259238078e-08
2.158835372274814156e-08
2.062024720548195892e-08
1.967980450431355209e-08
1.876634173021978189e-08
1.787927795273686528e-08
1.701820467893283277e-08
1.618292710478466907e-08
1.537348917153580044e-08
1.459017552616509587e-08
1.383346955020463503e-08
1.310401202806564586e-08
1.240253471849522334e-08
1.172980474628869167e-08
1.108652091992711159e-08
1.047323460114636236e-08
9.890260664245652322e-09
9.337623458822343342e-09
8.814909726057730354e-09
8.321286413869280261e-09
7.855513873356098776e-09
7.416003574700919547e-09
7.000953331438233459e-09
6.608475368743727061e-09
6.236745807532707738e-09
5.884140081357127371e-09
5.549346785148543978e-09
5.231459963165180014e-09
4.929991796492583811e-09
4.644747851927933273e-09
4.375651815715197109e-09
4.122566955714179411e-09
3.885135811580422688e-09
3.662693613314963163e-09
3.454276696541650472e-09
3.258739555691444453e-09
3.074854682377842907e-09
2.901553261964159617e-09
2.738111075639350332e-09
2.584066577116917620e-09
2.439156585338149024e-09
2.303122026782468370e-09
2.175564522759504876e-09
2.055929420483101864e-09
1.943542641571609110e-09
1.837752648859548930e-09
1.738088155145684800e-09
1.644244760889003686e-09
1.555954254693601362e-09
1.472909176289588823e-09
1.394744336839863364e-09
1.321067594502178727e-09
1.251549436740059567e-09
1.185950280968510449e-09
1.124051151829522319e-09
1.065612100248568655e-09
1.010384384151240284e-09
9.581503695738727780e-10
9.087274513512833218e-10
8.619411118121369371e-10
8.176211673239253994e-10
7.756088787123818595e-10
7.357620117175717933e-10
6.979497043904406629e-10
6.620474305162766436e-10
6.279404138732544736e-10
5.955237519664942964e-10
5.646999833948166883e-10
5.353779913372427254e-10
5.074744024410091219e-10
4.809122934428087510e-10
4.556205355935811672e-10
4.315325064554693175e-10
4.085868785477636565e-10
3.867264058943111573e-10
3.658978934547033958e-10
3.460518164762187593e-10
3.271422025877847063e-10
3.091256324992660117e-10
2.919620367940276837e-10
2.756137440270797558e-10
2.600453506450609942e-10
2.452234728741850944e-10
2.311166244053304057e-10
2.176949358175927480e-10
2.049301124907622219e-10
1.927949954580631891e-10
1.812643897970776197e-10
1.703135563111821044e-10
1.599189753973345125e-10
1.500580957238834242e-10
1.407092069343849697e-10
1.318510912632988320e-10
1.234640995972951524e-10
1.155284145468161736e-10
1.080251558718265508e-10
1.009357499559129066e-10
9.424303046920176887e-11
8.792920662158337932e-11
8.197816433114954199e-11
7.637304410569397512e-11
7.109870688260126909e-11
6.613916329281434236e-11
6.148019988911571803e-11
5.710670135690369561e-11
5.300536793912159547e-11
