# bin_7_1
# note = no ell^2 prefactor
1.620361950021074926e-08
1.575623284678315536e-08
1.530599489523891870e-08
1.485407591003032716e-08
1.440161420221341616e-08
1.394975468131906098e-08
1.349960447878761967e-08
1.305225134622291124e-08
1.260872254564647136e-08
1.216998974956849792e-08
1.173694523935806274e-08
1.131039893030019805e-08
1.089108163909230520e-08
1.047964062751884293e-08
1.007661931941107942e-08
9.682461020126806452e-09
9.297533261790079119e-09
8.922121914267022178e-09
8.556431217991538108e-09
8.200584174616406068e-09
7.854633285464130886e-09
7.518554592171464737e-09
7.192268722561814035e-09
6.875653496729710234e-09
6.568558260500313177e-09
6.270813711272153700e-09
5.982260850899792844e-09
5.702754010130026025e-09
5.432158243054193602e-09
5.170362242588762613e-09
4.917304435643869091e-09
4.672957543620800079e-09
4.437338933031671841e-09
4.210498567529307388e-09
3.992507942394324145e-09
3.783451984883505105e-09
3.583408176235397525e-09
3.392431481301529832e-09
3.210538288132532639e-09
3.037686542744484744e-09
2.873768810970076029e-09
2.718601829460406289e-09
2.571924202464597085e-09
2.433399627539782154e-09
2.302623182398786301e-09
2.179149198367504075e-09
2.062508398358303790e-09
1.952240110098473521e-09
1.847914736964353137e-09
1.749154051083106729e-09
1.655642581659845224e-09
1.567130329209253557e-09
1.483426637420815528e-09
1.404382679787646617e-09
1.329861608766215379e-09
1.259713270453438154e-09
1.193754896490095902e-09
1.131764416501821623e-09
1.073485461948168150e-09
1.018645389631983759e-09
9.669771815819417229e-10
9.182374522269862470e-10
8.722239745257411021e-10
8.287813700873773716e-10
7.877810852195782136e-10
7.491031968531684948e-10
7.126189591006024724e-10
6.781857888573145804e-10
6.456551697742007989e-10
6.148820501567201023e-10
5.857386792987038677e-10
5.581212512512596904e-10
5.319410656545280772e-10
5.071110032258762046e-10
4.835428309714657884e-10
4.611489645444289291e-10
4.398477704310656119e-10
4.195681343161498782e-10
4.002486010707464840e-10
3.818308738381438523e-10
3.642581073787569199e-10
3.474770515043063855e-10
3.314404092438499672e-10
3.161053246519772155e-10
3.014320741437231564e-10
2.873835046542525606e-10
2.739255687792404604e-10
2.610276310255207562e-10
2.486612063005234364e-10
2.368003445257132333e-10
2.254209286403844390e-10
2.145012418088270208e-10
2.040209125728394733e-10
1.939616208073588832e-10
1.843060684943241807e-10
1.750387816284832067e-10
1.661449150427617298e-10
1.576111838313667703e-10
1.494247198572515000e-10
1.415739590730789512e-10
1.340475817709538226e-10
1.268352307904798214e-10
1.199271743609400051e-10
1.133137212407279147e-10
1.069861690937836850e-10
1.009356301761645389e-10
9.515390218143336201e-11
8.963309708044058999e-11
8.436506355097565026e-11
7.934229336279755833e-11
7.455728306465405314e-11
7.000280426049080110e-11
6.567126673948380132e-11
6.155562468106474009e-11
5.764878156891246238e-11
5.394388120438626863e-11
5.043358359883309506e-11
4.711115734821696398e-11
4.396972469300194586e-11
4.100249776310956844e-11
3.820274074436888566e-11
3.556397220513382865e-11
3.307921860625334173e-11
3.074213969114116659e-11
2.854631943244112126e-11
2.648542971119800802e-11
2.455324124401357477e-11
2.274365692870902363e-11
2.105068359262788020e-11
1.946848505885376116e-11
1.799113057980852190e-11
1.661352903112085425e-11
1.533006883285020297e-11
1.413551711295197088e-11
1.302482664019384496e-11
1.199312033713622217e-11
1.103544129105832785e-11
1.014779254347157615e-11
9.325583168381977273e-12
8.564676479968384213e-12
7.860852224178692900e-12
7.210881984368093063e-12
6.610634050732866261e-12
6.057275672624088220e-12
5.547009813289466449e-12
5.077385134618980067e-12
4.644927964262636779e-12
4.247544535530905122e-12
3.882072416061533580e-12
3.546746381126307558e-12
