# bin_2_2
# note = no ell^2 prefactor
2.401963007459926753e-08
2.347052187632493314e-08
2.291006754842564256e-08
2.233974510533433557e-08
2.176105114590955981e-08
2.117554391977351665e-08
2.058478798476918355e-08
1.999037904569396398e-08
1.939390685475900076e-08
1.879696761064197878e-08
1.820113202353977787e-08
1.760792396074041680e-08
1.701880822191300387e-08
1.643517460058918487e-08
1.585830775084133545e-08
1.528937761828074453e-08
1.472944772803255656e-08
1.417945733948602833e-08
1.364021440684806673e-08
1.311239834116679034e-08
1.259657148288166692e-08
1.209316842607919508e-08
1.160250716868662939e-08
1.112478355757268136e-08
1.066007905131640042e-08
1.020836633357497366e-08
9.769543248621218914e-09
9.343448426506501806e-09
8.929864171443310827e-09
8.528540507996927962e-09
8.139240220298265878e-09
7.761733171969207770e-09
7.395827963638867707e-09
7.041381261318372626e-09
6.698309208022361494e-09
6.366600317736170131e-09
6.046307657195073038e-09
5.737542442896017777e-09
5.440457555772426648e-09
5.155223245391884042e-09
4.882010466240549319e-09
4.620961727525797104e-09
4.372166337845133749e-09
4.135633822803867006e-09
3.911263841805152259e-09
3.698843282476767093e-09
3.498027505363345823e-09
3.308353550525424660e-09
3.129262100886344142e-09
2.960126467965351985e-09
2.800291738769544386e-09
2.649114021148173721e-09
2.506001716172156824e-09
2.370446433137877226e-09
2.242039209567813268e-09
2.120470937310637170e-09
2.005511764520750515e-09
1.896978914438254226e-09
1.794694670855310598e-09
1.698453359060813072e-09
1.607994525352818527e-09
1.523000312719451544e-09
1.443105646361005685e-09
1.367930961343179380e-09
1.297118151361931572e-09
1.230354701118753553e-09
1.167384604718661496e-09
1.108000768899289595e-09
1.052022400506239904e-09
9.992709168482646089e-10
9.495543922855134816e-10
9.026691368156126612e-10
8.584135113275446034e-10
8.166014714619932247e-10
7.770687526541907687e-10
7.396698860197448421e-10
7.042717266279671539e-10
6.707458833863115105e-10
6.389671474937236405e-10
6.088185493183255502e-10
5.801920491537826232e-10
5.529882818762519693e-10
5.271158402150108279e-10
5.024900289568686044e-10
4.790328316514668598e-10
4.566712039332630506e-10
4.353375077879697260e-10
4.149699968710986690e-10
3.955117292381095963e-10
3.769106428903403399e-10
3.591183136071520674e-10
3.420906184922989580e-10
3.257867375637620937e-10
3.101696060959092838e-10
2.952046896227018605e-10
2.808607414073357687e-10
2.671085860678297087e-10
2.539219039953642223e-10
2.412759737123615212e-10
2.291484885784293445e-10
2.175183539353838642e-10
2.063663339635520674e-10
1.956746143375406608e-10
1.854261351848394513e-10
1.756055079378962295e-10
1.661977475412158513e-10
1.571891161721863904e-10
1.485666872286136614e-10
1.403177002966305383e-10
1.324304488082107781e-10
1.248935620874215612e-10
1.176962477462081122e-10
1.108276029458497838e-10
1.042774814699734707e-10
9.803588311714474947e-11
9.209319718750491927e-11
8.643945565312401725e-11
8.106541521901048514e-11
7.596176094478237631e-11
7.111934861073476334e-11
6.652913021537554012e-11
6.218235379026202317e-11
5.806979372467924378e-11
5.418287273530692619e-11
5.051295318508862894e-11
4.705148125642522444e-11
4.379000034990792447e-11
4.072018296864209187e-11
3.783379065957176172e-11
3.512274246544578408e-11
3.257884656432460362e-11
3.019476242850875784e-11
2.796261656101188339e-11
2.587491770463267880e-11
2.392437483122752065e-11
2.210387605223296423e-11
2.040623849910718499e-11
1.882528075329394221e-11
1.735422758768076469e-11
1.598679854976221755e-11
1.471665537096240640e-11
1.353851922664581468e-11
1.244622171432495676e-11
1.143497980401714781e-11
1.049906602733829150e-11
9.634198612943279841e-12
8.835090104960246428e-12
8.097943511544116600e-12
7.417910980420802534e-12
6.791659601911846973e-12
