# bin_5_3
# note = no ell^2 prefactor
3.947656986352000846e-08
3.887236623861236735e-08
3.823849905384318282e-08
3.757629696605277615e-08
3.688719482318993626e-08
3.617278890124539280e-08
3.543478271853502100e-08
3.467501608551412655e-08
3.389542794472489060e-08
3.309807200351430605e-08
3.228509051608707967e-08
3.145869999429473115e-08
3.062118484026318776e-08
2.977487739098589943e-08
2.892213098427448384e-08
2.806531586769398468e-08
2.720683245496870890e-08
2.634907038181248788e-08
2.549435484761094818e-08
2.464490795554386994e-08
2.380283186305644540e-08
2.297007956379852530e-08
2.214845265747471212e-08
2.133956879576946023e-08
2.054484484488004385e-08
1.976549100063283253e-08
1.900254295030567356e-08
1.825686983235072024e-08
1.752914879673524265e-08
1.681985492711517848e-08
1.612928630735914001e-08
1.545753899079445301e-08
1.480454121343611494e-08
1.417008320518000903e-08
1.355385256355491634e-08
1.295547565846000737e-08
1.237454197463588250e-08
1.181063605179354558e-08
1.126336531304982831e-08
1.073238991480429623e-08
1.021746386091558908e-08
9.718459064366963881e-09
9.235377005873603443e-09
8.768349472465764750e-09
8.317608458198673957e-09
7.883479951646920053e-09
7.466334165525703934e-09
7.066550021088995530e-09
6.684471582823028240e-09
6.320357639457277403e-09
5.974330753823973065e-09
5.646330578889136535e-09
5.336081758447880806e-09
5.043077429519304097e-09
4.766586740566352918e-09
4.505696052019074095e-09
4.259368149371184924e-09
4.026525826183206659e-09
3.806118148998016183e-09
3.597207241371156853e-09
3.399023983472635383e-09
3.211018100076592537e-09
3.032827569178935862e-09
2.864252303909100291e-09
2.705171325013530695e-09
2.555434533094695930e-09
2.414789110153639346e-09
2.282841629673584987e-09
2.159060008766170399e-09
2.042806827030860465e-09
1.933425065724196058e-09
1.830329357334183279e-09
1.733063279687632965e-09
1.641316700519592113e-09
1.554871083983330096e-09
1.473526222735402216e-09
1.397042277571988317e-09
1.325109803782528533e-09
1.257375559748331256e-09
1.193502246085969895e-09
1.133206038988152347e-09
1.076269798513407324e-09
1.022517564323432754e-09
9.717635045140348675e-10
9.238065336023991623e-10
8.784438737645797123e-10
8.354913378479878413e-10
7.947920371537987858e-10
7.562094222813084174e-10
7.196110033152440124e-10
6.848657795157808282e-10
6.518517036446181652e-10
6.204585505290006120e-10
5.905873641080027267e-10
5.621447308632123548e-10
5.350436995825557412e-10
5.092038981182871100e-10
4.845522023660382918e-10
4.610207776678027131e-10
4.385473027239928365e-10
4.170738207216618820e-10
3.965474847812674987e-10
3.769196670854925517e-10
3.581450669483090969e-10
3.401826476148792199e-10
3.229940492285765688e-10
3.065441856055608199e-10
2.908006216048105628e-10
2.757327451960387698e-10
2.613125809749719031e-10
2.475139039882456973e-10
2.343123995521632070e-10
2.216848703212784337e-10
2.096099688674966926e-10
1.980675228303534949e-10
1.870386296328082240e-10
1.765048173878380475e-10
1.664490488055550845e-10
1.568548042920795818e-10
1.477062956436086197e-10
1.389882922145051477e-10
1.306862741440775930e-10
1.227856125536692300e-10
1.152726214059265173e-10
1.081338322979388061e-10
1.013560705922912060e-10
9.492643584930086234e-11
8.883231173588700321e-11
8.306127133040851872e-11
7.760115179863266541e-11
7.243974298319098978e-11
6.756574774986834426e-11
6.296737998012846226e-11
5.863326035482018693e-11
5.455224644304307934e-11
5.071339259040041929e-11
4.710569108201435024e-11
4.371917055740799663e-11
4.054325789093291127e-11
3.756790030165673823e-11
3.478299716205499571e-11
3.217953723516176442e-11
2.974762676186700033e-11
2.747880388075459881e-11
2.536367848426688012e-11
2.339437973685518825e-11
2.156205454849025926e-11
1.985943932931385843e-11
1.827825541399299586e-11
1.681185301423967011e-11
