# bin_6_4
# note = no ell^2 prefactor
4.714505916732667879e-08
4.656323455635514190e-08
4.594358369409855500e-08
4.528715735962451460e-08
4.459513741711075781e-08
4.386889877826907339e-08
4.310995509707881247e-08
4.231999479288847294e-08
4.150084604200430370e-08
4.065449688972483772e-08
3.978307106207093081e-08
3.888881619665554599e-08
3.797410427752877667e-08
3.704141610422507569e-08
3.609331180585456050e-08
3.513241459708302004e-08
3.416141106349051191e-08
3.318301900115475358e-08
3.219996948346305054e-08
3.121500631464079140e-08
3.023087124224475560e-08
2.925023546941876664e-08
2.827565559173359101e-08
2.730953133470838155e-08
2.635409752872689932e-08
2.541140785526429671e-08
2.448332396872468715e-08
2.357148282827053011e-08
2.267726672380326610e-08
2.180182810863609853e-08
2.094614052585566868e-08
2.011096904315280878e-08
1.929687650597192243e-08
1.850419841118552519e-08
1.773304490074833719e-08
1.698333840330849674e-08
1.625484166671412953e-08
1.554720729705128815e-08
1.486001350031775619e-08
1.419279727115182964e-08
1.354509108917842695e-08
1.291645520588057173e-08
1.230651820426651908e-08
1.171501428241175685e-08
1.114179769363250408e-08
1.058687820755739007e-08
1.005039868152670479e-08
9.532625336217563533e-09
9.033920444132093545e-09
8.554698514218626935e-09
8.095385662030535053e-09
7.656361598322545868e-09
7.237908691802984112e-09
6.840161505844140780e-09
6.463052367274632967e-09
6.106274186953628737e-09
5.769257450724161475e-09
5.451182074118312350e-09
5.151012919836361093e-09
4.867583310021802328e-09
4.599670285525473957e-09
4.346096855713079180e-09
4.105777874815278582e-09
3.877819702069435144e-09
3.661567369229131643e-09
3.456595152021559459e-09
3.262659585771107376e-09
3.079613664692923226e-09
2.907293683842376008e-09
2.745431109628853036e-09
2.593589523416058923e-09
2.451175010614300005e-09
2.317475057446476555e-09
2.191732018590350380e-09
2.073252602143210959e-09
1.961493605607141313e-09
1.856085130865735466e-09
1.756779310911421135e-09
1.663357238308628069e-09
1.575559733537162359e-09
1.493042484170941327e-09
1.415400905845205594e-09
1.342234863141807499e-09
1.273201065309374437e-09
1.208050418338119279e-09
1.146582433439816157e-09
1.088593301978257731e-09
1.033856266638381950e-09
9.821304898477701365e-10
9.331959859640804986e-10
8.868719811505661384e-10
8.430056542710616105e-10
8.014450108132744243e-10
7.620354810992699017e-10
7.246326622583671321e-10
6.891098289256107529e-10
6.553523438869568512e-10
6.232514829748366516e-10
5.927044405729448515e-10
5.636177417092565773e-10
5.359055583442615547e-10
5.094885764484267804e-10
4.842931918958571561e-10
4.602512679015494503e-10
4.373007023429805499e-10
4.153835069302321811e-10
3.944465432362688845e-10
3.744410316393740969e-10
3.553214744476970616e-10
3.370462085958639200e-10
3.195764503390060694e-10
3.028763152674732624e-10
2.869119725659760734e-10
2.716523096034504311e-10
2.570681934012775754e-10
2.431325538051262570e-10
2.298194673510888981e-10
2.171051253701233196e-10
2.049668418076380793e-10
1.933831950324197912e-10
1.823338111626242657e-10
1.717994466074170194e-10
1.617611364385751178e-10
1.522012059572357575e-10
1.431025081381807305e-10
1.344484776085457694e-10
1.262230669003086041e-10
1.184107368210979331e-10
1.109963275936642401e-10
1.039651077481531115e-10
9.730244203524541979e-11
9.099472643427878009e-11
8.502797053798508119e-11
7.938867897973683115e-11
7.406367095735935012e-11
6.904003344439590929e-11
6.430484533138121851e-11
5.984627897972669131e-11
5.565194129116567470e-11
5.170999354277061543e-11
4.800857494166227520e-11
4.453693937417672618e-11
4.128347258037452592e-11
3.823801693451354005e-11
3.538949556623987022e-11
3.272837842357886800e-11
3.024415822545417631e-11
2.792794560375586592e-11
2.576984566709967312e-11
2.376162485820342464e-11
