# bin10_5
3.306457850200515025e-08
3.233871364065090178e-08
3.090679399044777181e-08
2.951665628278658999e-08
2.818020815593301008e-08
2.690483584494908612e-08
2.511701857223877820e-08
2.400695993716840787e-08
2.246318599324885006e-08
2.061856038161663189e-08
1.938027849047173955e-08
1.790290490829590623e-08
1.660196010578885234e-08
1.545107351959704273e-08
1.418483241997346750e-08
1.308242938869085335e-08
1.211221927566153061e-08
1.109070733831639483e-08
1.005837252364085608e-08
9.162172985438496272e-09
8.375927919623139702e-09
7.592295612482259024e-09
6.834879437045173813e-09
6.120279831757866078e-09
5.520136412226303947e-09
4.919816900844469431e-09
4.427222190333299581e-09
3.985330672454560670e-09
3.563926129380974470e-09
3.212986970671104899e-09
2.879294103809344518e-09
2.584746318345366568e-09
2.315242859705450374e-09
2.083923052157888932e-09
1.876772599787045996e-09
1.685039275673182103e-09
1.521150983353871919e-09
1.375893546985558412e-09
1.244250021650776023e-09
1.125891436508537771e-09
1.022389258487880789e-09
9.296005240627418489e-10
8.449930815343864988e-10
7.683021956126553333e-10
7.003320690073074934e-10
6.379241165048935494e-10
5.809761721591843757e-10
5.300138535423961134e-10
4.831088801643735824e-10
4.400904886337942119e-10
