# bin4_1
6.921677633126212510e-09
6.623865677240793470e-09
6.085270123746361518e-09
5.613618442694952757e-09
5.198262046766843424e-09
4.830750037899523172e-09
4.354821889725040620e-09
4.077653583351338072e-09
3.711265187708317644e-09
3.297359393301526235e-09
3.031510655300640996e-09
2.725377646003283752e-09
2.465379936081028115e-09
2.242907208963650063e-09
2.006799998647754642e-09
1.809942630272317565e-09
1.644229986461638537e-09
1.478184900678434997e-09
1.319649576569161991e-09
1.189395537476559637e-09
1.080360350823795260e-09
9.762015294025017921e-10
8.793455725346868297e-10
7.909037298834454939e-10
7.184360843753208379e-10
6.469254830071884248e-10
5.884463740692316132e-10
5.358567786673861586e-10
4.857027879422829758e-10
4.442231902427503533e-10
4.051332028456707887e-10
3.706541474179742639e-10
3.386563266749836794e-10
3.104704678019084934e-10
2.844792367423920483e-10
2.598072760542097566e-10
2.382218243107752703e-10
2.185003310583036821e-10
1.999461389164637722e-10
1.826546831690153390e-10
1.670375406287126357e-10
1.525588466724626381e-10
1.389083701957174124e-10
1.261646857001607130e-10
1.145622084551533642e-10
1.036551766301223715e-10
9.350898726361164211e-11
8.429204409340588529e-11
7.572319466210229096e-11
6.782286462346698219e-11
