# bin5_2
1.455311562148040992e-08
1.403728814262209348e-08
1.307705522049408090e-08
1.220802775543998037e-08
1.142240726707905247e-08
1.071259883807319382e-08
9.775201366754808346e-09
9.221494390564561607e-09
8.482254169727304931e-09
7.638191802608830274e-09
7.090638543114638107e-09
6.452738330432910347e-09
5.901464784926412073e-09
5.419427123547026321e-09
4.893801689773287658e-09
4.440934705073752724e-09
4.047870055891272158e-09
3.642855372873697645e-09
3.247455731075673605e-09
2.919213512428476563e-09
2.644437751458935800e-09
2.383240697693392333e-09
2.141048946542752970e-09
1.918610778722217728e-09
1.733855451179964091e-09
1.549146977440316230e-09
1.397433313259638444e-09
1.261922041498594545e-09
1.134151082348260614e-09
1.029371192936696998e-09
9.311692467394564466e-10
8.452673969447783358e-10
7.666264722296728482e-10
6.984212556195154312e-10
6.364768130171386113e-10
5.786081758852317012e-10
5.288290880847769279e-10
4.840831238517035420e-10
4.426202255951180769e-10
4.045343800896741004e-10
3.705829207481323966e-10
3.394506130926793965e-10
3.103672368395186486e-10
2.834077242461021666e-10
2.589794639327971275e-10
2.360726252910941653e-10
2.147686555695969100e-10
1.953774109016801619e-10
1.772761094962877690e-10
1.604871750275283744e-10
