# bin8_3
2.161850521209833470e-08
2.098050400714323907e-08
1.976342009852715158e-08
1.862853497115220014e-08
1.757571637639209354e-08
1.660303793343873029e-08
1.528831230262717817e-08
1.449710901862248162e-08
1.342534265000204179e-08
1.218315136581566692e-08
1.136948798513501099e-08
1.041670808396515958e-08
9.590798408815017201e-09
8.867116550440087402e-09
8.075239066795674480e-09
7.387779474029038170e-09
6.783788152577001820e-09
6.149998953298833647e-09
5.515139811137955496e-09
4.973067425761133217e-09
4.508257829223520133e-09
4.058611720527287231e-09
3.638974660895611584e-09
3.255667684978902876e-09
2.940566600385253231e-09
2.626930065800624729e-09
2.367165500275794856e-09
2.131091173098056888e-09
1.905084225825898383e-09
1.719320887984094102e-09
1.546824829361717712e-09
1.397336798195128164e-09
1.260599424307194250e-09
1.141740989073670101e-09
1.034291070827610087e-09
9.350354928235769665e-10
8.504301841925266820e-10
7.749272163147229670e-10
7.056862314119600079e-10
6.428102033771123348e-10
5.873467418730487522e-10
5.370282026201881656e-10
4.905142992149526803e-10
4.478189663070379100e-10
4.094765142431445792e-10
3.738023668043980164e-10
3.408436666623740964e-10
3.110004509852095395e-10
2.832455134482168805e-10
2.575594251446757095e-10
