# bin8_8
3.821118160822810004e-08
3.750889013109814128e-08
3.609992043357901325e-08
3.470475756315292949e-08
3.334023872827939378e-08
3.201777421732289585e-08
3.013089812257158431e-08
2.894046886770496834e-08
2.726004689138058013e-08
2.521342929707211651e-08
2.381595520743136606e-08
2.212424253844190507e-08
2.061312797811077452e-08
1.926057550830007078e-08
1.775731092229384394e-08
1.643760481207024045e-08
1.527044957144698403e-08
1.403852078194381549e-08
1.279296027242558494e-08
1.171233784532551327e-08
1.076418186195370171e-08
9.816554887367264485e-09
8.893606085261246482e-09
8.010985190488731537e-09
7.255679423129438304e-09
6.483840459623773234e-09
5.837151993076299819e-09
5.249623067935491339e-09
4.688164261150870060e-09
4.224338690516111144e-09
3.787978046505054567e-09
3.403973876262904801e-09
3.048888999919752620e-09
2.738422920589830566e-09
2.456770703041878743e-09
2.196847854358758398e-09
1.977170559386194473e-09
1.783051265815657273e-09
1.606122918675959303e-09
1.446725716493041635e-09
1.308144925127291631e-09
1.184592158705614177e-09
1.072313292709414138e-09
9.710671675493014996e-10
8.819191240728205108e-10
8.006315162901941148e-10
7.269698889643769550e-10
6.615399210651719808e-10
6.017700534597720372e-10
5.473427307714925965e-10
