# bin9_1
7.864781624138266304e-09
7.532793752467969412e-09
6.930826035778650297e-09
6.402202645591207670e-09
5.935703075925900725e-09
5.522286296914589042e-09
4.986093061518044009e-09
4.673406458826722308e-09
4.259485253928027898e-09
3.790796126834147882e-09
3.488916455735721745e-09
3.140176078547657496e-09
2.842824891784107791e-09
2.587446491354005815e-09
2.315494029447865416e-09
2.088100771942024630e-09
1.896378852334512206e-09
1.704169720428349393e-09
1.520714616416324698e-09
1.370062174340430367e-09
1.243942454199196548e-09
1.123351370312283590e-09
1.011044372348829893e-09
9.083858246060380859e-10
8.242908807867198436e-10
7.414216698864003962e-10
6.737641710853973693e-10
6.129789308275811509e-10
5.550546218664468865e-10
5.072185696221535857e-10
4.622328261654827864e-10
4.226354738590411973e-10
3.859551740500783385e-10
3.537106608338783510e-10
3.240402336012333058e-10
2.959309202815393425e-10
2.713834866471317307e-10
2.489915242499163486e-10
2.279529883721286710e-10
2.083678517794724347e-10
1.906932013471565579e-10
1.743150156233034393e-10
1.588766878154128361e-10
1.444624422329764911e-10
1.313339375664043683e-10
1.189843228659738965e-10
1.074858183353835311e-10
9.702862169429823351e-11
8.729383120863654565e-11
7.830514994150357454e-11
