# bin9_7
3.783227821427489098e-08
3.712367673982622850e-08
3.570414167957188188e-08
3.430093813791419298e-08
3.293062077820382106e-08
3.160435936506294328e-08
2.971510506012324111e-08
2.852492090789295270e-08
2.684713584804566991e-08
2.480761624825196599e-08
2.341763076521045410e-08
2.173789857082950541e-08
2.024028049322147954e-08
1.890192658977450829e-08
1.741658408574872144e-08
1.611449541725571251e-08
1.496422257044540814e-08
1.375107778876740030e-08
1.252504712878124131e-08
1.146144090156005349e-08
1.052802919924034487e-08
9.594836585095935906e-09
8.685819365660726294e-09
7.816890348096896040e-09
7.074196158874827251e-09
6.316791784642713035e-09
5.684045597654668624e-09
5.110960526089456073e-09
4.564764103655858645e-09
4.114065380375385457e-09
3.689741285727454845e-09
3.315557799659885869e-09
2.968927088999150818e-09
2.665984444811071308e-09
2.391972021353381080e-09
2.139983352203048861e-09
1.927187703685702085e-09
1.738694776756041153e-09
1.566539876515538617e-09
1.411621671619190877e-09
1.277202197042098675e-09
1.157277536056816124e-09
1.048082030824014072e-09
9.496329327230082463e-10
8.629563136828455792e-10
7.838052512564730204e-10
7.120361104559235434e-10
6.482440242548380343e-10
5.899054617300374184e-10
5.367386780234755655e-10
