# d_l
# unit = Mpc
1.009138669047119474e+05
1.006799968956684170e+05
1.004461703990384412e+05
1.002123875378465309e+05
9.997864843570064113e+04
9.974495321679608605e+04
9.951130200591940957e+04
9.927769492845229979e+04
9.904413211037579458e+04
9.881061367827419599e+04
9.857713975933898473e+04
9.834371048137362232e+04
9.811032597279663605e+04
9.787698636264700326e+04
9.764369178058711987e+04
9.741044235690843198e+04
9.717723822253449180e+04
9.694407950902618177e+04
9.671096634858568723e+04
9.647789887406094931e+04
9.624487721895029244e+04
9.601190151740681904e+04
9.577897190424277505e+04
9.554608851493455586e+04
9.531325148562714458e+04
9.508046095313836122e+04
9.484771705496440700e+04
9.461501992928376421e+04
9.438236971496269689e+04
9.414976655155967455e+04
9.391721057933036354e+04
9.368470193923247280e+04
9.345224077293096343e+04
9.321982722280289454e+04
9.298746143194257456e+04
9.275514354416647984e+04
9.252287370401865337e+04
9.229065205677592894e+04
9.205847874845286424e+04
9.182635392580763437e+04
9.159427773634661571e+04
9.136225032833055593e+04
9.113027185077949252e+04
9.089834245347852993e+04
9.066646228698350023e+04
9.043463150262611452e+04
9.020285025252000196e+04
8.997111868956683611e+04
8.973943696746087517e+04
8.950780524069617968e+04
8.927622366457151657e+04
8.904469239519706753e+04
8.881321158949962410e+04
8.858178140522942704e+04
8.835040200096563785e+04
8.811907353612295992e+04
8.788779617095775029e+04
8.765657006657423335e+04
8.742539538493102009e+04
8.719427228884724900e+04
8.696320094200938183e+04
8.673218150897776650e+04
8.650121415519292350e+04
8.627029904698248720e+04
8.603943635156792880e+04
8.580862623707127932e+04
8.557786887252209999e+04
8.534716442786436528e+04
8.511651307396354969e+04
8.488591498261364177e+04
8.465537032654444920e+04
8.442487927942854003e+04
8.419444201588892611e+04
8.396405871150607709e+04
8.373372954282582214e+04
8.350345468736623297e+04
8.327323432362590393e+04
8.304306863109127153e+04
8.281295779024442891e+04
8.258290198257098382e+04
8.235290139056797489e+04
8.212295619775190426e+04
8.189306658866679936e+04
8.166323274889256572e+04
8.143345486505272856e+04
8.120373312482348410e+04
8.097406771694145573e+04
8.074445883121283259e+04
8.051490665852148959e+04
8.028541139083789312e+04
8.005597322122791957e+04
7.982659234386161552e+04
7.959726895402229275e+04
7.936800324811560859e+04
7.913879542367844260e+04
7.890964567938876280e+04
7.868055421507447318e+04
7.845152123172290158e+04
7.822254693149068044e+04
7.799363151771320554e+04
7.776477519491442945e+04
7.753597816881687322e+04
7.730724064635136165e+04
7.707856283566732600e+04
7.684994494614307769e+04
7.662138718839589274e+04
7.639288977429263468e+04
7.616445291696017375e+04
7.593607683079616982e+04
7.570776173147978261e+04
7.547950783598278940e+04
7.525131536258016422e+04
7.502318453086160298e+04
7.479511556174262660e+04
7.456710867747619341e+04
7.433916410166403512e+04
7.411128205926816736e+04
7.388346277662311331e+04
7.365570648144745792e+04
7.342801340285605693e+04
7.320038377137227508e+04
7.297281781894022424e+04
7.274531577893732174e+04
7.251787788618683408e+04
7.229050437697076995e+04
7.206319548904254043e+04
7.183595146164055041e+04
7.160877253550075693e+04
7.138165895287044987e+04
7.115461095752169786e+04
7.092762879476521630e+04
7.070071271146374056e+04
7.047386295604650513e+04
7.024707977852328622e+04
7.002036343049856077e+04
6.979371416518637852e+04
6.956713223742460832e+04
6.934061790369040682e+04
6.911417142211452301e+04
6.888779305249720346e+04
6.866148305632331176e+04
6.843524169677772443e+04
6.820906923876141082e+04
6.798296594890749839e+04
6.775693209559716342e+04
6.753096794897611835e+04
6.730507378097106994e+04
6.707924986530694878e+04
6.685349647752328019e+04
6.662781389499183570e+04
6.640220239693381882e+04
6.617666226443753112e+04
6.595119378047640203e+04
6.572579722992674215e+04
6.550047289958635520e+04
6.527522107819287339e+04
6.505004205644260946e+04
6.482493612700953236e+04
6.459990358456459217e+04
6.437494472579504509e+04
6.415005984942446958e+04
6.392524925623244053e+04
6.370051324907517119e+04
6.347585213290556567e+04
6.325126621479446476e+04
6.302675580395146972e+04
6.280232121174629719e+04
6.257796275173030153e+04
6.235368073965870281e+04
6.212947549351240013e+04
6.190534733352065814e+04
6.168129658218390978e+04
6.145732356429663196e+04
6.123342860697101423e+04
6.100961203966043831e+04
6.078587419418371428e+04
6.056221540474930225e+04
6.033863600797989056e+04
6.011513634293772338e+04
5.989171675114962272e+04
5.966837757663299999e+04
5.944511916592163470e+04
5.922194186809227540e+04
5.899884603479142970e+04
5.877583202026239451e+04
5.855290018137291190e+04
5.833005087764295604e+04
5.810728447127325489e+04
5.788460132717379020e+04
5.766200181299305405e+04
5.743948629914742924e+04
5.721705515885128261e+04
5.699470876814728399e+04
5.677244750593721983e+04
5.655027175401317800e+04
5.632818189708938735e+04
5.610617832283420285e+04
5.588426142190294922e+04
5.566243158797077194e+04
5.544068921776645584e+04
5.521903471110637474e+04
5.499746847092907410e+04
5.477599090333048662e+04
5.455460241759927158e+04
5.433330342625331832e+04
5.411209434507617698e+04
5.389097559315431135e+04
5.366994759291505761e+04
5.344901077016483032e+04
5.322816555412804883e+04
5.300741237748684944e+04
5.278675167642111046e+04
5.256618389064912481e+04
5.234570946346925484e+04
5.212532884180160181e+04
5.190504247623104311e+04
5.168485082105032052e+04
5.146475433430413250e+04
5.124475347783396865e+04
5.102484871732322063e+04
5.080504052234374103e+04
5.058532936640227126e+04
5.036571572698836098e+04
5.014620008562259318e+04
4.992678292790582782e+04
4.970746474356904218e+04
4.948824602652414615e+04
4.926912727491553960e+04
4.905010899117249210e+04
4.883119168206254835e+04
4.861237585874543583e+04
4.839366203682845662e+04
4.817505073642197385e+04
4.795654248219684814e+04
4.773813780344177212e+04
4.751983723412238032e+04
4.730164131294100662e+04
4.708355058339740935e+04
4.686556559385066066e+04
4.664768689758204710e+04
4.642991508382894972e+04
4.621225065295704553e+04
4.599469420541411091e+04
4.577724631482044788e+04
4.555990756004978175e+04
4.534267852529880474e+04
4.512555980015826935e+04
4.490855197968514403e+04
4.469165566447600577e+04
4.447487146074191696e+04
4.425819998038446647e+04
4.404164184107333131e+04
4.382519766632503888e+04
4.360886808558345365e+04
4.339265373430133332e+04
4.317655525402368949e+04
4.296057329247265443e+04
4.274470850363368663e+04
4.252896154784355895e+04
4.231333309187997656e+04
4.209782380905279570e+04
4.188243437929698121e+04
4.166716548926741234e+04
4.145201783243517275e+04
4.123699210918614699e+04
4.102208902692105767e+04
4.080730930015769991e+04
4.059265365063498029e+04
4.037812280741908762e+04
4.016371750701168639e+04
3.994943849346020579e+04
3.973528651847023139e+04
3.952126234152037796e+04
3.930736672997895948e+04
3.909360045922359132e+04
3.887996431276262592e+04
3.866645908235930983e+04
3.845308556815848715e+04
3.823984457881579874e+04
3.802673693162930431e+04
3.781376345267421129e+04
3.760092497694010672e+04
3.738822234847099026e+04
3.717565642050852330e+04
3.696322805563777365e+04
3.675093812593653274e+04
3.653878751312744862e+04
3.632677710873353499e+04
3.611490781423685257e+04
3.590318054124076298e+04
3.569159621163546399e+04
3.548015575776741753e+04
3.526886012261207361e+04
3.505771025995058153e+04
3.484670713455043733e+04
3.463585172234987112e+04
3.442514501064669457e+04
3.421458799829085910e+04
3.400418169588177261e+04
3.379392712596985803e+04
3.358382532326262299e+04
3.337387733483556804e+04
3.316408422034767864e+04
3.295444705226220685e+04
3.274496691607218600e+04
3.253564491053139864e+04
3.232648214789074336e+04
3.211747975413997483e+04
3.190863886925528277e+04
3.169996064745273179e+04
3.149144625744763471e+04
3.128309688272024869e+04
3.107491372178779420e+04
3.086689798848310966e+04
3.065905091223999261e+04
3.045137373838568601e+04
3.024386772844030929e+04
3.003653416042396930e+04
2.982937432917122715e+04
2.962238954665364508e+04
2.941558114231039144e+04
2.920895046338693646e+04
2.900249887528282488e+04
2.879622776190784134e+04
2.859013852604764543e+04
2.838423258973869088e+04
2.817851139465294546e+04
2.797297640249256074e+04
2.776762909539492830e+04
2.756247097634850070e+04
2.735750356961953730e+04
2.715272842119022243e+04
2.694814709920860696e+04
2.674376119445064614e+04
2.653957232079471942e+04
2.633558211570913409e+04
2.613179224075296224e+04
2.592820438209070198e+04
2.572482025102117768e+04
2.552164158452118863e+04
2.531867014580440082e+04
2.511590772489588562e+04
2.491335613922316043e+04
2.471101723422382202e+04
2.450889288397071869e+04
2.430698499181507577e+04
2.410529549104832404e+04
2.390382634558310747e+04
2.370257955065429633e+04
2.350155713354061663e+04
2.330076115430766731e+04
2.310019370657309628e+04
2.289985691829453935e+04
2.269975295258154438e+04
2.249988400853176790e+04
2.230025232209288879e+04
2.210086016695072249e+04
2.190170985544482028e+04
2.170280373951221918e+04
2.150414421166077227e+04
2.130573370597276880e+04
2.110757469914014291e+04
2.090966971153255145e+04
2.071202130829925591e+04
2.051463210050630732e+04
2.031750474631032921e+04
2.012064195217008455e+04
1.992404647409767131e+04
1.972772111895023409e+04
1.953166874576439659e+04
1.933589226713458265e+04
1.914039465063709576e+04
1.894517892030174698e+04
1.875024815813272289e+04
1.855560550568086182e+04
1.836125416566900458e+04
1.816719740367281702e+04
1.797343854985906364e+04
1.777998100078362768e+04
1.758682823013290908e+04
1.739398375447587023e+04
1.720145119052835798e+04
1.700923421966137175e+04
1.681733659960826117e+04
1.662576216667460903e+04
1.643451483802680013e+04
1.624359861406220989e+04
1.605301758086452173e+04
1.586277591274746555e+04
1.567287787489058792e+04
1.548332782607089030e+04
1.529413022149408789e+04
1.510528961572960725e+04
1.491681066575359910e+04
1.472869813410432471e+04
1.454095689215443599e+04
1.435359192350506237e+04
1.416660832750662667e+04
1.398001132291150316e+04
1.379380625166400023e+04
1.360799858283323738e+04
1.342259391669471734e+04
1.323759798896673237e+04
1.305301667520785486e+04
1.286885599538202950e+04
1.268512211859810304e+04
1.250182136803093272e+04
1.231896022603112397e+04
1.213654533943134811e+04
1.195458352505672701e+04
1.177308177544769751e+04
1.159204726480360114e+04
1.141148735515572844e+04
1.123140960277885097e+04
1.105182176485031960e+04
1.087273180636649522e+04
1.069414790732606343e+04
1.051607847019050860e+04
1.033853212763191368e+04
1.016151775057871782e+04
9.985044456570294642e+03
9.809121618431263414e+03
9.633758873276778104e+03
9.458966131860235691e+03
9.284753588274825233e+03
9.111131730020566465e+03
8.938111348448539502e+03
8.765703549593888965e+03
8.593919765409331376e+03
8.422771765410572698e+03
8.252271668745039278e+03
8.082431956694867040e+03
7.913265485624872781e+03
7.744785500385700288e+03
7.577005648181673678e+03
7.409939992912236448e+03
7.243603029994917051e+03
7.078009701676707664e+03
6.913175412839503224e+03
6.749116047303817140e+03
6.585847984633238411e+03
6.423388117440204041e+03
6.261753869191496051e+03
6.100963212509269397e+03
5.941034687960614974e+03
5.781987423325510463e+03
5.623841153329371991e+03
5.466616239822432362e+03
5.310333692383799644e+03
5.155015189323016784e+03
5.000683099046694224e+03
4.847360501751583797e+03
4.695071211399264939e+03
4.543839797920206365e+03
4.393691609587460334e+03
4.244652795491787401e+03
4.096750328041053763e+03
3.950012025397143589e+03
3.804466573753212288e+03
3.660143549343374616e+03
3.517073440065099021e+03
3.375287666582771180e+03
3.234818602767884840e+03
3.095699595318465526e+03
2.957964982386650263e+03
2.821650111029609889e+03
2.686791353285144851e+03
2.553426120659285061e+03
2.421592876799673832e+03
2.291331148115152246e+03
2.162681532089534358e+03
2.035685703025834755e+03
1.910386414947008461e+03
1.786827501370524715e+03
1.665053871667381827e+03
1.545111503711924342e+03
1.427047432527299634e+03
1.310909734633163225e+03
1.196747507807710917e+03
1.084610845985684819e+03
9.745508090281041405e+02
8.666193871185979560e+02
7.608694595655309740e+02
6.573547478190862421e+02
5.561297625482310423e+02
4.572497446641451688e+02
3.607706002243217540e+02
2.667488292049300753e+02
1.752414481880314838e+02
8.630590707423128549e+01
0.000000000000000000e+00
