# z
1.000000000000000000e+01
9.979591836734693189e+00
9.959183673469386378e+00
9.938775510204081343e+00
9.918367346938774531e+00
9.897959183673467720e+00
9.877551020408162685e+00
9.857142857142855874e+00
9.836734693877550839e+00
9.816326530612244028e+00
9.795918367346937217e+00
9.775510204081632182e+00
9.755102040816325371e+00
9.734693877551020336e+00
9.714285714285713524e+00
9.693877551020406713e+00
9.673469387755101678e+00
9.653061224489794867e+00
9.632653061224489832e+00
9.612244897959183021e+00
9.591836734693876210e+00
9.571428571428571175e+00
9.551020408163264364e+00
9.530612244897957552e+00
9.510204081632652517e+00
9.489795918367345706e+00
9.469387755102040671e+00
9.448979591836733860e+00
9.428571428571427049e+00
9.408163265306122014e+00
9.387755102040815203e+00
9.367346938775510168e+00
9.346938775510203357e+00
9.326530612244896545e+00
9.306122448979591510e+00
9.285714285714284699e+00
9.265306122448979664e+00
9.244897959183672853e+00
9.224489795918366042e+00
9.204081632653061007e+00
9.183673469387754196e+00
9.163265306122447384e+00
9.142857142857142350e+00
9.122448979591835538e+00
9.102040816326530503e+00
9.081632653061223692e+00
9.061224489795916881e+00
9.040816326530611846e+00
9.020408163265305035e+00
9.000000000000000000e+00
8.979591836734693189e+00
8.959183673469386378e+00
8.938775510204081343e+00
8.918367346938774531e+00
8.897959183673469497e+00
8.877551020408162685e+00
8.857142857142855874e+00
8.836734693877550839e+00
8.816326530612244028e+00
8.795918367346937217e+00
8.775510204081632182e+00
8.755102040816325371e+00
8.734693877551020336e+00
8.714285714285713524e+00
8.693877551020406713e+00
8.673469387755101678e+00
8.653061224489794867e+00
8.632653061224489832e+00
8.612244897959183021e+00
8.591836734693876210e+00
8.571428571428571175e+00
8.551020408163264364e+00
8.530612244897959329e+00
8.510204081632652517e+00
8.489795918367345706e+00
8.469387755102040671e+00
8.448979591836733860e+00
8.428571428571427049e+00
8.408163265306122014e+00
8.387755102040815203e+00
8.367346938775510168e+00
8.346938775510203357e+00
8.326530612244896545e+00
8.306122448979591510e+00
8.285714285714284699e+00
8.265306122448979664e+00
8.244897959183672853e+00
8.224489795918366042e+00
8.204081632653061007e+00
8.183673469387754196e+00
8.163265306122449161e+00
8.142857142857142350e+00
8.122448979591835538e+00
8.102040816326530503e+00
8.081632653061223692e+00
8.061224489795916881e+00
8.040816326530611846e+00
8.020408163265305035e+00
7.999999999999999112e+00
7.979591836734693189e+00
7.959183673469387266e+00
7.938775510204081343e+00
7.918367346938774531e+00
7.897959183673468608e+00
7.877551020408162685e+00
7.857142857142856762e+00
7.836734693877550839e+00
7.816326530612244028e+00
7.795918367346938105e+00
7.775510204081632182e+00
7.755102040816326259e+00
7.734693877551019447e+00
7.714285714285713524e+00
7.693877551020407601e+00
7.673469387755101678e+00
7.653061224489794867e+00
7.632653061224488944e+00
7.612244897959183021e+00
7.591836734693877098e+00
7.571428571428571175e+00
7.551020408163264364e+00
7.530612244897958441e+00
7.510204081632652517e+00
7.489795918367346594e+00
7.469387755102039783e+00
7.448979591836733860e+00
7.428571428571427937e+00
7.408163265306122014e+00
7.387755102040816091e+00
7.367346938775509280e+00
7.346938775510203357e+00
7.326530612244897434e+00
7.306122448979591510e+00
7.285714285714284699e+00
7.265306122448978776e+00
7.244897959183672853e+00
7.224489795918366930e+00
7.204081632653061007e+00
7.183673469387754196e+00
7.163265306122448273e+00
7.142857142857142350e+00
7.122448979591836427e+00
7.102040816326529615e+00
7.081632653061223692e+00
7.061224489795917769e+00
7.040816326530611846e+00
7.020408163265305923e+00
6.999999999999999112e+00
6.979591836734693189e+00
6.959183673469387266e+00
6.938775510204081343e+00
6.918367346938774531e+00
6.897959183673468608e+00
6.877551020408162685e+00
6.857142857142856762e+00
6.836734693877550839e+00
6.816326530612244028e+00
6.795918367346938105e+00
6.775510204081632182e+00
6.755102040816326259e+00
6.734693877551019447e+00
6.714285714285713524e+00
6.693877551020407601e+00
6.673469387755101678e+00
6.653061224489795755e+00
6.632653061224488944e+00
6.612244897959183021e+00
6.591836734693877098e+00
6.571428571428571175e+00
6.551020408163264364e+00
6.530612244897958441e+00
6.510204081632652517e+00
6.489795918367346594e+00
6.469387755102040671e+00
6.448979591836733860e+00
6.428571428571427937e+00
6.408163265306122014e+00
6.387755102040816091e+00
6.367346938775509280e+00
6.346938775510203357e+00
6.326530612244897434e+00
6.306122448979591510e+00
6.285714285714285587e+00
6.265306122448978776e+00
6.244897959183672853e+00
6.224489795918366930e+00
6.204081632653061007e+00
6.183673469387754196e+00
6.163265306122448273e+00
6.142857142857142350e+00
6.122448979591836427e+00
6.102040816326530503e+00
6.081632653061223692e+00
6.061224489795917769e+00
6.040816326530611846e+00
6.020408163265305923e+00
5.999999999999999112e+00
5.979591836734693189e+00
5.959183673469387266e+00
5.938775510204081343e+00
5.918367346938775420e+00
5.897959183673468608e+00
5.877551020408162685e+00
5.857142857142856762e+00
5.836734693877550839e+00
5.816326530612244028e+00
5.795918367346938105e+00
5.775510204081632182e+00
5.755102040816326259e+00
5.734693877551020336e+00
5.714285714285713524e+00
5.693877551020407601e+00
5.673469387755101678e+00
5.653061224489795755e+00
5.632653061224488944e+00
5.612244897959183021e+00
5.591836734693877098e+00
5.571428571428571175e+00
5.551020408163265252e+00
5.530612244897958441e+00
5.510204081632652517e+00
5.489795918367346594e+00
5.469387755102040671e+00
5.448979591836733860e+00
5.428571428571427937e+00
5.408163265306122014e+00
5.387755102040816091e+00
5.367346938775510168e+00
5.346938775510203357e+00
5.326530612244897434e+00
5.306122448979591510e+00
5.285714285714285587e+00
5.265306122448978776e+00
5.244897959183672853e+00
5.224489795918366930e+00
5.204081632653061007e+00
5.183673469387755084e+00
5.163265306122448273e+00
5.142857142857142350e+00
5.122448979591836427e+00
5.102040816326530503e+00
5.081632653061223692e+00
5.061224489795917769e+00
5.040816326530611846e+00
5.020408163265305923e+00
5.000000000000000000e+00
4.979591836734693189e+00
4.959183673469387266e+00
4.938775510204081343e+00
4.918367346938775420e+00
4.897959183673468608e+00
4.877551020408162685e+00
4.857142857142856762e+00
4.836734693877550839e+00
4.816326530612244916e+00
4.795918367346938105e+00
4.775510204081632182e+00
4.755102040816326259e+00
4.734693877551020336e+00
4.714285714285713524e+00
4.693877551020407601e+00
4.673469387755101678e+00
4.653061224489795755e+00
4.632653061224489832e+00
4.612244897959183021e+00
4.591836734693877098e+00
4.571428571428571175e+00
4.551020408163265252e+00
4.530612244897958441e+00
4.510204081632652517e+00
4.489795918367346594e+00
4.469387755102040671e+00
4.448979591836734748e+00
4.428571428571427937e+00
4.408163265306122014e+00
4.387755102040816091e+00
4.367346938775510168e+00
4.346938775510203357e+00
4.326530612244897434e+00
4.306122448979591510e+00
4.285714285714285587e+00
4.265306122448979664e+00
4.244897959183672853e+00
4.224489795918366930e+00
4.204081632653061007e+00
4.183673469387755084e+00
4.163265306122448273e+00
4.142857142857142350e+00
4.122448979591836427e+00
4.102040816326530503e+00
4.081632653061224580e+00
4.061224489795917769e+00
4.040816326530611846e+00
4.020408163265305923e+00
3.999999999999999556e+00
3.979591836734693633e+00
3.959183673469387266e+00
3.938775510204081343e+00
3.918367346938775420e+00
3.897959183673469052e+00
3.877551020408163129e+00
3.857142857142856762e+00
3.836734693877550839e+00
3.816326530612244472e+00
3.795918367346938549e+00
3.775510204081632182e+00
3.755102040816326259e+00
3.734693877551019892e+00
3.714285714285713969e+00
3.693877551020408045e+00
3.673469387755101678e+00
3.653061224489795755e+00
3.632653061224489388e+00
3.612244897959183465e+00
3.591836734693877098e+00
3.571428571428571175e+00
3.551020408163264808e+00
3.530612244897958885e+00
3.510204081632652962e+00
3.489795918367346594e+00
3.469387755102040671e+00
3.448979591836734304e+00
3.428571428571428381e+00
3.408163265306122014e+00
3.387755102040816091e+00
3.367346938775509724e+00
3.346938775510203801e+00
3.326530612244897878e+00
3.306122448979591510e+00
3.285714285714285587e+00
3.265306122448979220e+00
3.244897959183673297e+00
3.224489795918366930e+00
3.204081632653061007e+00
3.183673469387754640e+00
3.163265306122448717e+00
3.142857142857142794e+00
3.122448979591836427e+00
3.102040816326530503e+00
3.081632653061224136e+00
3.061224489795918213e+00
3.040816326530611846e+00
3.020408163265305923e+00
2.999999999999999556e+00
2.979591836734693633e+00
2.959183673469387710e+00
2.938775510204081343e+00
2.918367346938775420e+00
2.897959183673469052e+00
2.877551020408163129e+00
2.857142857142856762e+00
2.836734693877550839e+00
2.816326530612244472e+00
2.795918367346938549e+00
2.775510204081632626e+00
2.755102040816326259e+00
2.734693877551020336e+00
2.714285714285713969e+00
2.693877551020408045e+00
2.673469387755101678e+00
2.653061224489795755e+00
2.632653061224489388e+00
2.612244897959183465e+00
2.591836734693877542e+00
2.571428571428571175e+00
2.551020408163265252e+00
2.530612244897958885e+00
2.510204081632652962e+00
2.489795918367346594e+00
2.469387755102040671e+00
2.448979591836734304e+00
2.428571428571428381e+00
2.408163265306122458e+00
2.387755102040816091e+00
2.367346938775510168e+00
2.346938775510203801e+00
2.326530612244897878e+00
2.306122448979591510e+00
2.285714285714285587e+00
2.265306122448979220e+00
2.244897959183673297e+00
2.224489795918367374e+00
2.204081632653061007e+00
2.183673469387755084e+00
2.163265306122448717e+00
2.142857142857142794e+00
2.122448979591836427e+00
2.102040816326530503e+00
2.081632653061224136e+00
2.061224489795918213e+00
2.040816326530612290e+00
2.020408163265305923e+00
1.999999999999999778e+00
1.979591836734693633e+00
1.959183673469387710e+00
1.938775510204081565e+00
1.918367346938775420e+00
1.897959183673469274e+00
1.877551020408163129e+00
1.857142857142856984e+00
1.836734693877550839e+00
1.816326530612244694e+00
1.795918367346938549e+00
1.775510204081632404e+00
1.755102040816326481e+00
1.734693877551020336e+00
1.714285714285714191e+00
1.693877551020408045e+00
1.673469387755101900e+00
1.653061224489795755e+00
1.632653061224489610e+00
1.612244897959183465e+00
1.591836734693877320e+00
1.571428571428571397e+00
1.551020408163265252e+00
1.530612244897959107e+00
1.510204081632652962e+00
1.489795918367346816e+00
1.469387755102040671e+00
1.448979591836734526e+00
1.428571428571428381e+00
1.408163265306122236e+00
1.387755102040816313e+00
1.367346938775510168e+00
1.346938775510204023e+00
1.326530612244897878e+00
1.306122448979591733e+00
1.285714285714285587e+00
1.265306122448979442e+00
1.244897959183673297e+00
1.224489795918367152e+00
1.204081632653061229e+00
1.183673469387755084e+00
1.163265306122448939e+00
1.142857142857142794e+00
1.122448979591836649e+00
1.102040816326530503e+00
1.081632653061224358e+00
1.061224489795918213e+00
1.040816326530612068e+00
1.020408163265306145e+00
9.999999999999998890e-01
9.795918367346938549e-01
9.591836734693877098e-01
9.387755102040815647e-01
9.183673469387754196e-01
8.979591836734692745e-01
8.775510204081632404e-01
8.571428571428570953e-01
8.367346938775509502e-01
8.163265306122448051e-01
7.959183673469386600e-01
7.755102040816326259e-01
7.551020408163264808e-01
7.346938775510203357e-01
7.142857142857141906e-01
6.938775510204081565e-01
6.734693877551020114e-01
6.530612244897958663e-01
6.326530612244897211e-01
6.122448979591835760e-01
5.918367346938775420e-01
5.714285714285713969e-01
5.510204081632652517e-01
5.306122448979591066e-01
5.102040816326530726e-01
4.897959183673469274e-01
4.693877551020407823e-01
4.489795918367346372e-01
4.285714285714285476e-01
4.081632653061224025e-01
3.877551020408163129e-01
3.673469387755101678e-01
3.469387755102040782e-01
3.265306122448979331e-01
3.061224489795917880e-01
2.857142857142856984e-01
2.653061224489795533e-01
2.448979591836734637e-01
2.244897959183673186e-01
2.040816326530612013e-01
1.836734693877550839e-01
1.632653061224489666e-01
1.428571428571428492e-01
1.224489795918367319e-01
1.020408163265306006e-01
8.163265306122448328e-02
6.122448979591836593e-02
4.081632653061224164e-02
2.040816326530612082e-02
0.000000000000000000e+00
