# h
# unit = Mpc/c
4.810411686612831375e-03
4.797041126917820156e-03
4.783683113872420553e-03
4.770337659287957922e-03
4.757004775010925668e-03
4.743684472923184736e-03
4.730376764942141425e-03
4.717081663020920856e-03
4.703799179148568203e-03
4.690529325350223898e-03
4.677272113687317052e-03
4.664027556257751943e-03
4.650795665196099694e-03
4.637576452673792572e-03
4.624369930899314800e-03
4.611176112118399451e-03
4.597995008614230543e-03
4.584826632707622585e-03
4.571670996757248688e-03
4.558528113159815778e-03
4.545397994350285770e-03
4.532280652802067253e-03
4.519176101027232335e-03
4.506084351576715268e-03
4.493005417040531885e-03
4.479939310047975631e-03
4.466886043267847411e-03
4.453845629408654215e-03
4.440818081218841570e-03
4.427803411486993905e-03
4.414801633042067866e-03
4.401812758753603956e-03
4.388836801531957252e-03
4.375873774328516846e-03
4.362923690135934833e-03
4.349986561988350951e-03
4.337062402961636316e-03
4.324151226173599850e-03
4.311253044784249359e-03
4.298367871996012710e-03
4.285495721053975485e-03
4.272636605246130787e-03
4.259790537903609085e-03
4.246957532400925418e-03
4.234137602156233526e-03
4.221330760631560042e-03
4.208537021333069034e-03
4.195756397811300532e-03
4.182988903661430738e-03
4.170234552523531361e-03
4.157493358082821160e-03
4.144765334069930481e-03
4.132050494261165809e-03
4.119348852478765637e-03
4.106660422591183225e-03
4.093985218513337271e-03
4.081323254206901605e-03
4.068674543680565400e-03
4.056039100990316802e-03
4.043416940239722215e-03
4.030808075580200392e-03
4.018212521211316467e-03
4.005630291381061248e-03
3.993061400386138313e-03
3.980505862572258913e-03
3.967963692334439477e-03
3.955434904117286973e-03
3.942919512415305090e-03
3.930417531773197810e-03
3.917928976786165182e-03
3.905453862100222509e-03
3.892992202412494818e-03
3.880544012471542122e-03
3.868109307077665596e-03
3.855688101083233274e-03
3.843280409392997067e-03
3.830886246964411088e-03
3.818505628807969485e-03
3.806138569987528239e-03
3.793785085620639957e-03
3.781445190878886514e-03
3.769118900988227289e-03
3.756806231229327473e-03
3.744507196937916279e-03
3.732221813505124351e-03
3.719950096377841551e-03
3.707692061059067370e-03
3.695447723108278258e-03
3.683217098141776738e-03
3.671000201833063067e-03
3.658797049913201267e-03
3.646607658171192954e-03
3.634432042454350739e-03
3.622270218668679001e-03
3.610122202779250319e-03
3.597988010810602728e-03
3.585867658847117015e-03
3.573761163033418748e-03
3.561668539574771621e-03
3.549589804737479908e-03
3.537524974849293527e-03
3.525474066299818729e-03
3.513437095540924895e-03
3.501414079087169975e-03
3.489405033516214654e-03
3.477409975469253432e-03
3.465428921651437892e-03
3.453461888832315158e-03
3.441508893846266775e-03
3.429569953592945860e-03
3.417645085037727699e-03
3.405734305212163374e-03
3.393837631214429492e-03
3.381955080209793525e-03
3.370086669431080449e-03
3.358232416179132880e-03
3.346392337823300700e-03
3.334566451801911600e-03
3.322754775622752468e-03
3.310957326863567252e-03
3.299174123172547452e-03
3.287405182268834762e-03
3.275650521943018496e-03
3.263910160057656874e-03
3.252184114547783996e-03
3.240472403421433729e-03
3.228775044760169664e-03
3.217092056719610300e-03
3.205423457529973756e-03
3.193769265496615526e-03
3.182129499000585331e-03
3.170504176499173987e-03
3.158893316526478496e-03
3.147296937693971897e-03
3.135715058691075727e-03
3.124147698285732484e-03
3.112594875325003230e-03
3.101056608735654804e-03
3.089532917524754393e-03
3.078023820780282326e-03
3.066529337671745296e-03
3.055049487450784383e-03
3.043584289451813866e-03
3.032133763092652225e-03
3.020697927875152285e-03
3.009276803385858672e-03
2.997870409296663971e-03
2.986478765365461856e-03
2.975101891436825359e-03
2.963739807442678214e-03
2.952392533402983972e-03
2.941060089426437724e-03
2.929742495711169965e-03
2.918439772545448722e-03
2.907151940308406405e-03
2.895879019470758414e-03
2.884621030595539096e-03
2.873377994338849415e-03
2.862149931450606779e-03
2.850936862775299650e-03
2.839738809252763830e-03
2.828555791918963089e-03
2.817387831906771091e-03
2.806234950446774568e-03
2.795097168868078234e-03
2.783974508599123144e-03
2.772866991168516319e-03
2.761774638205859514e-03
2.750697471442607907e-03
2.739635512712921411e-03
2.728588783954537678e-03
2.717557307209644227e-03
2.706541104625779636e-03
2.695540198456723453e-03
2.684554611063418202e-03
2.673584364914890089e-03
2.662629482589184016e-03
2.651689986774312911e-03
2.640765900269220062e-03
2.629857245984743193e-03
2.618964046944610626e-03
2.608086326286431379e-03
2.597224107262703467e-03
2.586377413241846505e-03
2.575546267709228222e-03
2.564730694268222214e-03
2.553930716641266991e-03
2.543146358670950614e-03
2.532377644321094461e-03
2.521624597677869523e-03
2.510887242950908364e-03
2.500165604474450468e-03
2.489459706708489328e-03
2.478769574239944248e-03
2.468095231783838227e-03
2.457436704184502285e-03
2.446794016416789334e-03
2.436167193587306275e-03
2.425556260935667324e-03
2.414961243835755163e-03
2.404382167797010708e-03
2.393819058465732411e-03
2.383271941626398122e-03
2.372740843203006468e-03
2.362225789260429497e-03
2.351726806005793088e-03
2.341243919789879908e-03
2.330777157108534104e-03
2.320326544604109364e-03
2.309892109066922182e-03
2.299473877436731140e-03
2.289071876804239618e-03
2.278686134412615406e-03
2.268316677659036346e-03
2.257963534096260692e-03
2.247626731434216978e-03
2.237306297541612980e-03
2.227002260447580231e-03
2.216714648343336320e-03
2.206443489583868444e-03
2.196188812689651645e-03
2.185950646348387445e-03
2.175729019416765015e-03
2.165523960922257490e-03
2.155335500064944291e-03
2.145163666219355569e-03
2.135008488936350046e-03
2.124869997945021474e-03
2.114748223154635023e-03
2.104643194656594021e-03
2.094554942726432716e-03
2.084483497825851978e-03
2.074428890604773645e-03
2.064391151903437801e-03
2.054370312754529547e-03
2.044366404385340470e-03
2.034379458219964798e-03
2.024409505881531561e-03
2.014456579194473171e-03
2.004520710186830437e-03
1.994601931092597480e-03
1.984700274354103070e-03
1.974815772624431438e-03
1.964948458769886445e-03
1.955098365872493492e-03
1.945265527232543489e-03
1.935449976371185401e-03
1.925651747033053701e-03
1.915870873188948303e-03
1.906107389038556995e-03
1.896361329013223187e-03
1.886632727778767005e-03
1.876921620238347806e-03
1.867228041535381111e-03
1.857552027056508020e-03
1.847893612434612547e-03
1.838252833551895331e-03
1.828629726542999392e-03
1.819024327798193352e-03
1.809436673966612107e-03
1.799866801959553895e-03
1.790314748953839800e-03
1.780780552395226819e-03
1.771264250001894445e-03
1.761765879767985448e-03
1.752285479967217573e-03
1.742823089156556818e-03
1.733378746179964434e-03
1.723952490172209412e-03
1.714544360562754921e-03
1.705154397079716722e-03
1.695782639753894237e-03
1.686429128922883576e-03
1.677093905235263428e-03
1.667777009654866378e-03
1.658478483465124177e-03
1.649198368273507333e-03
1.639936706016042328e-03
1.630693538961925119e-03
1.621468909718213128e-03
1.612262861234622620e-03
1.603075436808413037e-03
1.593906680089369988e-03
1.584756635084889507e-03
1.575625346165161408e-03
1.566512858068459541e-03
1.557419215906535696e-03
1.548344465170129955e-03
1.539288651734584470e-03
1.530251821865579332e-03
1.521234022224983787e-03
1.512235299876829109e-03
1.503255702293406588e-03
1.494295277361490197e-03
1.485354073388692837e-03
1.476432139109956371e-03
1.467529523694177185e-03
1.458646276750973775e-03
1.449782448337599405e-03
1.440938088966003516e-03
1.432113249610043838e-03
1.423307981712858532e-03
1.414522337194392505e-03
1.405756368459094375e-03
1.397010128403781927e-03
1.388283670425675617e-03
1.379577048430618777e-03
1.370890316841473023e-03
1.362223530606706656e-03
1.353576745209176483e-03
1.344950016675100241e-03
1.336343401583246077e-03
1.327756957074317833e-03
1.319190740860563468e-03
1.310644811235604215e-03
1.302119227084484699e-03
1.293614047893962673e-03
1.285129333763038780e-03
1.276665145413724643e-03
1.268221544202076129e-03
1.259798592129477519e-03
1.251396351854198443e-03
1.243014886703225352e-03
1.234654260684374004e-03
1.226314538498699891e-03
1.217995785553197289e-03
1.209698067973818134e-03
1.201421452618801206e-03
1.193166007092326571e-03
1.184931799758513499e-03
1.176718899755752968e-03
1.168527377011404885e-03
1.160357302256856361e-03
1.152208747042956843e-03
1.144081783755842262e-03
1.135976485633157949e-03
1.127892926780688998e-03
1.119831182189420619e-03
1.111791327753025669e-03
1.103773440285805811e-03
1.095777597541094548e-03
1.087803878230131013e-03
1.079852362041430107e-03
1.071923129660652240e-03
1.064016262790994788e-03
1.056131844174117628e-03
1.048269957611621837e-03
1.040430687987097371e-03
1.032614121288750585e-03
1.024820344632645626e-03
1.017049446286554058e-03
1.009301515694456964e-03
1.001576643501700609e-03
9.938749215808355755e-04
9.861964430581530473e-04
9.785413023409511926e-04
9.709095951455383715e-04
9.633014185260089460e-04
9.557168709038110993e-04
9.481560520981269398e-04
9.406190633570970898e-04
9.331060073899097090e-04
9.256169883997859360e-04
9.181521121178833240e-04
9.107114858381502301e-04
9.032952184531617325e-04
8.959034204909583276e-04
8.885362041529323981e-04
8.811936833527785019e-04
8.738759737565563769e-04
8.665831928238868290e-04
8.593154598503238706e-04
8.520728960109363957e-04
8.448556244051346267e-04
8.376637701027817755e-04
8.304974601916290805e-04
8.233568238261124942e-04
8.162419922775521110e-04
8.091530989858016073e-04
8.020902796123806529e-04
7.950536720951455888e-04
7.880434167045328488e-04
7.810596561014306353e-04
7.741025353967191831e-04
7.671722022125304586e-04
7.602688067452763017e-04
7.533925018304943409e-04
7.465434430095631811e-04
7.397217885983363049e-04
7.329276997577517140e-04
7.261613405664624167e-04
7.194228780955516179e-04
7.127124824853779336e-04
7.060303270246070075e-04
6.993765882314900272e-04
6.927514459374347873e-04
6.861550833729314217e-04
6.795876872558822461e-04
6.730494478823930652e-04
6.665405592200776596e-04
6.600612190039265199e-04
6.536116288347923031e-04
6.471919942805414491e-04
6.408025249799178223e-04
6.344434347491633699e-04
6.281149416914400332e-04
6.218172683090866315e-04
6.155506416187508326e-04
6.093152932694225572e-04
6.031114596633951625e-04
5.969393820801708857e-04
5.907993068033255083e-04
5.846914852503359286e-04
5.786161741053627268e-04
5.725736354549763396e-04
5.665641369268017979e-04
5.605879518310422386e-04
5.546453593048300155e-04
5.487366444593401405e-04
5.428620985295791023e-04
5.370220190267513752e-04
5.312167098930737318e-04
5.254464816588967375e-04
5.197116516019578952e-04
5.140125439085679220e-04
5.083494898364999829e-04
5.027228278793192864e-04
4.971329039318487077e-04
4.915800714564342276e-04
4.860646916496224224e-04
4.805871336088203896e-04
4.751477744984510866e-04
4.697469997150657199e-04
4.643852030508109131e-04
4.590627868545818610e-04
4.537801621901243229e-04
4.485377489902652543e-04
4.433359762063754980e-04
4.381752819520742760e-04
4.330561136400910122e-04
4.279789281110956008e-04
4.229441917532035609e-04
4.179523806107396204e-04
4.130039804807247167e-04
4.080994869954168497e-04
4.032394056890998332e-04
3.984242520471672415e-04
3.936545515353948380e-04
3.889308396071378886e-04
3.842536616860198683e-04
3.796235731215103675e-04
3.750411391146094833e-04
3.705069346106776881e-04
3.660215441562637883e-04
3.615855617165990039e-04
3.571995904502371449e-04
3.528642424371428317e-04
3.485801383563441494e-04
3.443479071091013768e-04
3.401681853833795591e-04
3.360416171552664294e-04
3.319688531228536963e-04
3.279505500679884755e-04
3.239873701412318736e-04
3.200799800653145719e-04
3.162290502523754055e-04
3.124352538303143108e-04
3.086992655736823014e-04
3.050217607346885598e-04
3.014034137701226577e-04
2.978448969602909974e-04
2.943468789164388325e-04
2.909100229735997662e-04
2.875349854663763506e-04
2.842224138858185658e-04
2.809729449163422127e-04
2.777872023525075683e-04
2.746657948964815912e-04
2.716093138381130709e-04
2.686183306207792169e-04
2.656933942974932074e-04
2.628350288831984589e-04
2.600437306107044808e-04
2.573199650993230432e-04
2.546641644469311563e-04
2.520767242578946551e-04
2.495580006210056730e-04
2.471083070532989717e-04
2.447279114272707086e-04
2.424170329006079176e-04
2.401758388689997057e-04
