  0.10000000       268.00000    
  0.30000001       514.00000    
  0.50000000       492.00000    
  0.69999999       571.00000    
  0.90000004       561.00000    
   1.1000000       613.00000    
   1.3000001       543.00000    
   1.5000000       563.00000    
   1.7000000       439.00000    
   1.9000000       382.00000    
   2.1000001       304.00000    
   2.3000000       232.00000    
   2.5000000       188.00000    
   2.7000000       163.00000    
   2.9000001       102.00000    
   3.1000001       87.000000    
   3.3000000       86.000000    
   3.5000000       74.000000    
   3.7000000       53.000000    
   3.9000001       40.000000    
   4.0999999       31.000000    
   4.3000002       30.000000    
   4.5000000       17.000000    
   4.7000003       14.000000    
   4.9000001       14.000000    
   5.0999999       14.000000    
   5.3000002       7.0000000    
   5.5000000       5.0000000    
   5.7000003       12.000000    
   5.9000001       3.0000000    
   6.0999999       5.0000000    
   6.3000002       1.0000000    
   6.5000000       4.0000000    
   6.7000003       3.0000000    
   6.9000001       2.0000000    
   7.0999999       2.0000000    
   7.3000002       1.0000000    
   7.5000000       2.0000000    
   7.7000003       1.0000000    
   7.9000001       2.0000000    
   8.1000004       0.0000000    
   8.3000002       2.0000000    
   8.5000000       0.0000000    
   8.6999998       0.0000000    
   8.9000006       0.0000000    
   9.1000004       0.0000000    
   9.3000002       1.0000000    
   9.5000000       0.0000000    
   9.6999998       1.0000000    
   9.9000006       0.0000000    
