# bin10_9
8.164376427485105151e-08
8.133268478478430700e-08
8.051579340080916938e-08
7.948892258019518823e-08
7.830378762625425211e-08
7.699975941556005548e-08
7.488791488309440323e-08
7.341470616482476808e-08
7.115194653513515689e-08
6.810491594846515204e-08
6.583780657342255942e-08
6.288096649037616051e-08
6.003171019686714417e-08
5.731007105292076678e-08
5.409585359823453497e-08
5.110204611544076847e-08
4.832301567764393719e-08
4.526043652954483161e-08
4.203865398346723935e-08
3.915462546796738474e-08
3.656624926459232847e-08
3.393151770869629121e-08
3.132288051989531361e-08
2.878592194155614486e-08
2.656970092608278279e-08
2.424304953062488814e-08
2.222050376488798450e-08
2.030270757097332835e-08
1.837725301827363830e-08
1.670613631990928735e-08
1.506599383394843406e-08
1.357500208758451512e-08
1.216684196429502344e-08
1.091998121188954519e-08
9.778134042521101572e-09
8.713354197100057386e-09
7.802977326182349064e-09
6.989975632829147183e-09
6.241634255934686501e-09
5.560030816887179781e-09
4.961551450207261829e-09
4.426747838882830270e-09
3.944838827622197526e-09
3.516130406600820699e-09
3.142603292776412555e-09
2.805095998272819303e-09
2.503737266224805503e-09
2.241768203898806680e-09
2.008097032919976025e-09
1.800050173269299783e-09
