# bin3_2
2.790260201487137463e-08
2.722450915926305517e-08
2.590407472239376164e-08
2.464140714433271299e-08
2.344300382914352324e-08
2.231216247918136819e-08
2.074638807357938694e-08
1.978412827591202398e-08
1.845707593472679621e-08
1.688636826340695881e-08
1.583965734945930911e-08
1.459768401332953046e-08
1.350920235895763601e-08
1.254913433942494690e-08
1.149476848705396533e-08
1.057797474809569776e-08
9.771926340109772259e-09
8.924468988461591448e-09
8.070471746287493766e-09
7.332635956032336186e-09
6.689344361052284546e-09
6.053153611818594298e-09
5.443690287675937320e-09
4.873420990836115378e-09
4.397295313692924785e-09
3.921972454453425241e-09
3.531254147334821855e-09
3.179511056855153280e-09
2.843281872900568773e-09
2.563796109105032782e-09
2.299644162925123288e-09
2.067936142070532299e-09
1.856285285006992565e-09
1.673906587627170965e-09
1.509721443857238154e-09
1.357723621833646561e-09
1.228208565162648274e-09
1.113295674974056450e-09
1.008612687743291937e-09
9.142006592311955398e-10
8.315663653243171417e-10
7.572235774034281731e-10
6.891403925892414159e-10
6.272549154937792167e-10
5.722026707088410027e-10
5.214697970708772446e-10
4.750253530951263514e-10
4.333274407578215312e-10
3.948430120273618524e-10
3.594616683422302865e-10
