# bin6_6
5.500164503854232292e-08
5.437329577337251831e-08
5.303999397213778613e-08
5.163751083856346303e-08
5.019770926186210221e-08
4.874398969509239164e-08
4.657646454881989913e-08
4.515726664839562540e-08
4.308782917957915424e-08
4.046471562501727100e-08
3.860959603886170939e-08
3.629370592887449075e-08
3.415952263232086434e-08
3.219875673118006649e-08
2.996779873321220927e-08
2.796603131914272504e-08
2.616561175947892932e-08
2.423855956084550970e-08
2.226766997855928526e-08
2.054446746330983516e-08
1.902501007365300530e-08
1.749976163886667718e-08
1.600539042548380555e-08
1.456249181211471973e-08
1.330909384431248931e-08
1.200163463496449256e-08
1.087660846589114755e-08
9.825901901388968535e-09
8.794406181669346402e-09
7.924556152117843545e-09
7.097832998002048430e-09
6.370268688778629695e-09
5.701565222400689478e-09
5.119335789941957446e-09
4.588660763394590237e-09
4.091515581243320402e-09
3.664142259726352794e-09
3.283604593990735852e-09
2.938110495322704801e-09
2.629438961942245607e-09
2.362124403339753990e-09
2.123645303219568049e-09
1.907327112462428607e-09
1.713770750831747269e-09
1.545013837443914472e-09
1.392550423741625691e-09
1.255739199992199482e-09
1.135646793850860628e-09
1.027340998503669149e-09
9.299225708301298243e-10
