# bin9_6
6.331343862255844953e-08
6.275129894263461745e-08
6.151362198259188084e-08
6.016366273233824087e-08
5.874018235032360261e-08
5.727211357385176344e-08
5.503531512262451042e-08
5.354507536649386634e-08
5.133987236756247706e-08
4.849521440274933726e-08
4.645302942053311616e-08
4.387023673028455405e-08
4.145819104065915417e-08
3.921654521031874097e-08
3.663887865194414898e-08
3.430247079781412186e-08
3.218394345724548166e-08
2.990029690030162983e-08
2.754957533995219871e-08
2.548411357649263367e-08
2.365711916506442350e-08
2.181941088220032258e-08
2.001626428075453652e-08
1.827260732216957180e-08
1.675443121424926220e-08
1.516450729541869053e-08
1.378761829741863884e-08
1.249102614939200906e-08
1.120519115442576598e-08
1.010934236701716373e-08
9.058240990997788273e-09
8.127384528720494102e-09
7.270175385978329496e-09
6.525303485798114221e-09
5.848750572283334833e-09
5.215776522602162722e-09
4.669501311944363612e-09
4.179402302790469571e-09
3.731579120955325220e-09
3.331074746780374435e-09
2.985683951160762278e-09
2.678779186067222756e-09
2.400181836557645493e-09
2.150281177416179788e-09
1.932767313888517688e-09
1.737241089937886787e-09
1.562257733059831828e-09
1.408930599156789039e-09
1.271281496437393321e-09
1.148023193429376953e-09
