# bin9_4
5.275609758692601078e-08
5.208406062768468410e-08
5.067450381997753622e-08
4.920952588444447286e-08
4.771958823288944652e-08
4.622692677657424913e-08
4.401992054075722951e-08
4.258511399879918896e-08
4.050619129739476023e-08
3.789223816855832155e-08
3.605714114852930368e-08
3.378232451973297276e-08
3.170263040302430867e-08
2.980581615133931375e-08
2.766297663908475388e-08
2.575400775783677052e-08
2.404724566499662561e-08
2.223062058428785035e-08
2.038264017543924313e-08
1.877317288756497659e-08
1.735691068362451469e-08
1.593627043192826644e-08
1.454377036242086614e-08
1.319772445772757336e-08
1.202769478490788679e-08
1.080858900884224713e-08
9.763769178697074885e-09
8.794711835738099595e-09
7.852965289072035631e-09
7.068158003145265673e-09
6.330166055276773985e-09
5.684831411506692919e-09
5.091512997330558765e-09
4.571757124875794130e-09
4.094610337191364119e-09
3.647140164540170806e-09
3.265807945942254425e-09
2.930366951873004028e-09
2.627715484553088117e-09
2.356126130900808514e-09
2.119076213331713479e-09
1.907598325380494596e-09
1.716975897895017180e-09
1.546642679571368751e-09
1.397336832205684339e-09
1.262136978627128271e-09
1.140895436536326369e-09
1.034124737695753122e-09
9.374904707665305522e-10
8.503639780295987003e-10
