# bin_3_2
# note = no ell^2 prefactor
1.262467895639645859e-08
1.222531353664436017e-08
1.182768338736593128e-08
1.143277772237612146e-08
1.104150910311401032e-08
1.065474637548706703e-08
1.027326988658803275e-08
9.897796583904152232e-09
9.528951189608462316e-09
9.167285090314673088e-09
8.813263348481640147e-09
8.467267740444342530e-09
8.129601405237462132e-09
7.800491236219611676e-09
7.480074454785591779e-09
7.168404056351577293e-09
6.865473106179874657e-09
6.571214671613727649e-09
6.285514148013818395e-09
6.008222293662531406e-09
5.739176690479994263e-09
5.478206098561248204e-09
5.225151414971344489e-09
4.979874534762394569e-09
4.742271055951885378e-09
4.512273846717862884e-09
4.289872302420426118e-09
4.075105456411494919e-09
3.868046079197401963e-09
3.668793620487758319e-09
3.477475986829097414e-09
3.294215970061797280e-09
3.119123511483944649e-09
2.952270729470730063e-09
2.793673292233838369e-09
2.643277058433546288e-09
2.500942671145928822e-09
2.366440913008751263e-09
2.239458846342459295e-09
2.119608748715622910e-09
2.006456714581348655e-09
1.899546878384708458e-09
1.798434795586409141e-09
1.702714322451268700e-09
1.612037146658291934e-09
1.526130778284699286e-09
1.444789859786098051e-09
1.367866341019541861e-09
1.295244553900719866e-09
1.226811441781039210e-09
1.162429142208237415e-09
1.101919871920796406e-09
1.045062548175677038e-09
9.916059029709539872e-10
9.412910290021434902e-10
8.938752026868582388e-10
8.491484784284910053e-10
8.069390338471922425e-10
7.671082859075225585e-10
7.295361317868213504e-10
6.941021384049166382e-10
6.606770040860725783e-10
6.291241141011360433e-10
5.993092737730839924e-10
5.711070940811847225e-10
5.444053110072729061e-10
5.191056436736007056e-10
4.951200049400992651e-10
4.723645723097739571e-10
4.507578182921454808e-10
4.302217134891964643e-10
4.106830844461456735e-10
3.920755368836394244e-10
3.743398664137161768e-10
3.574218845991399139e-10
3.412699663271076889e-10
3.258360924764050857e-10
3.110761932551760614e-10
2.969504981446121699e-10
2.834227266502272655e-10
2.704591014655541869e-10
2.580285982053976491e-10
2.461032247070754435e-10
2.346571281237441939e-10
2.236669163481704964e-10
2.131109439390138122e-10
2.029693967871964191e-10
1.932244538087124980e-10
1.838594349659661084e-10
1.748593907110280153e-10
1.662102375427304042e-10
1.578993429175985495e-10
1.499146288173783787e-10
1.422453291443134047e-10
1.348809372387714435e-10
1.278121118106529814e-10
1.210295636683749445e-10
1.145250251233680251e-10
1.082901731602510682e-10
1.023175368775321445e-10
9.659948534126478828e-11
9.112897923810871978e-11
8.589925445500508539e-11
8.090328296118041535e-11
7.613473547238722138e-11
7.158684855242086041e-11
6.725332669489911146e-11
6.312799209977270011e-11
5.920424549312647617e-11
5.547598220064611138e-11
5.193698468932108999e-11
4.858121048427537999e-11
4.540216567269448297e-11
4.239383957886663556e-11
3.955010862516790696e-11
3.686505128859541599e-11
3.433223272926869925e-11
3.194580507108879881e-11
2.969976953521126689e-11
2.758820805444150078e-11
2.560526067078703452e-11
2.374533196495679920e-11
2.200234448811538996e-11
2.037087890235589430e-11
1.884545644322419921e-11
1.742071191966672341e-11
1.609140328211809854e-11
1.485244077080157383e-11
1.369886243527165767e-11
1.262587644564170196e-11
1.162861186906608128e-11
1.070305154313064771e-11
9.844664456263911948e-12
9.049308834025116912e-12
8.313029779061978685e-12
7.632043463429193874e-12
7.002481973209219198e-12
6.421428163010175540e-12
5.885357683430055861e-12
5.391181654186888366e-12
4.935706540847905890e-12
4.516709335284178694e-12
4.131034791255691146e-12
3.776799771496645843e-12
3.451125421138980851e-12
3.152446860902615452e-12
2.878142536769399937e-12
2.626935192093308255e-12
2.396445284910070096e-12
2.185652149912187701e-12
