# bin_4_4
# note = no ell^2 prefactor
2.015585647245742426e-08
1.964330066219024670e-08
1.912404828345966030e-08
1.859949789102155817e-08
1.807103859634641856e-08
1.754009036661578053e-08
1.700805364607025737e-08
1.647633488635840268e-08
1.594630629129017462e-08
1.541930837140025646e-08
1.489661179043851638e-08
1.437940022733381220e-08
1.386877073952981799e-08
1.336573007705710052e-08
1.287116940900922538e-08
1.238585742863321266e-08
1.191045694313188763e-08
1.144551946671034893e-08
1.099148804575587840e-08
1.054870021867681121e-08
1.011739580721234920e-08
9.697703885311671273e-09
9.289655448398127676e-09
8.893191612849275228e-09
8.508184143656466817e-09
8.134448907970220447e-09
7.771783213583765223e-09
7.419978113688732440e-09
7.078817084654838112e-09
6.748094756630773959e-09
6.427655185628875710e-09
6.117383282627461000e-09
5.817227393676567121e-09
5.527196231811329973e-09
5.247354709454697903e-09
4.977819352503684099e-09
4.718736507671877984e-09
4.470264366356598677e-09
4.232549877332277707e-09
4.005701522408328165e-09
3.789771337744193691e-09
3.584730630106924262e-09
3.390454576972725902e-09
3.206709563975395787e-09
3.033144416905697628e-09
2.869309850055169890e-09
2.714668942400207575e-09
2.568636797306106575e-09
2.430618465475743122e-09
2.300043585130789244e-09
2.176399997540155990e-09
2.059256424173300681e-09
1.948277194847949554e-09
1.843219291175031061e-09
1.743910762432424580e-09
1.650212859336683198e-09
1.561979209927714975e-09
1.479023208598421402e-09
1.401099442154530911e-09
1.327905175530721491e-09
1.259099225362649718e-09
1.194332510136989758e-09
1.133277647875193155e-09
1.075664016003260258e-09
1.021286198183906276e-09
9.699852361936557952e-10
9.216211477744171287e-10
8.760451888537660710e-10
8.330869437464126443e-10
7.925586489812825990e-10
7.542706465935983993e-10
7.180539596806325735e-10
6.837731062868297670e-10
6.513151921420026608e-10
6.205730222238297572e-10
5.914361943762719902e-10
5.637928491025421771e-10
5.375360586056825551e-10
5.125728201566607377e-10
4.888237809813849239e-10
4.662144920572817599e-10
4.446719079207866163e-10
4.241270999746425906e-10
4.045179215283330765e-10
3.857889475859506666e-10
3.678884027431077367e-10
3.507679045654502746e-10
3.343833864121281768e-10
3.186944110117781281e-10
3.036642574236686586e-10
2.892586688702381276e-10
2.754466061290903572e-10
2.621993020798642955e-10
2.494907516471800204e-10
2.372966080953175768e-10
2.255950057469949716e-10
2.143653398528721021e-10
2.035891006653411123e-10
1.932486665967692951e-10
1.833281664152351966e-10
1.738123517157806181e-10
1.646873001137612135e-10
1.559400343436807363e-10
1.475579005002004154e-10
1.395295120302452496e-10
1.318435231829570278e-10
1.244894931611594818e-10
1.174574805724984164e-10
1.107374315841615600e-10
1.043200863068958133e-10
9.819629879452165070e-11
9.235730174556627281e-11
8.679404471308310568e-11
8.149808729154591101e-11
7.646100125899917067e-11
7.167463929349750334e-11
6.713040239427371757e-11
6.282033253027109194e-11
5.873633645926257997e-11
5.487043062185373376e-11
5.121468495316388351e-11
4.776142956263582174e-11
4.450249532249608549e-11
4.143034492580360976e-11
3.853736484536359376e-11
3.581601992755615717e-11
3.325886908810044458e-11
3.085859864254834449e-11
2.860798977717588793e-11
2.649998303674168467e-11
2.452741715608208626e-11
2.268398510309517026e-11
2.096285455185519434e-11
1.935758056914909458e-11
1.786191811893307128e-11
1.646980263445953475e-11
1.517510035094108277e-11
1.397267131291978288e-11
1.285678502977229510e-11
1.182219744932141422e-11
1.086360036963078689e-11
9.976727318123688877e-12
9.156414407135223081e-12
8.398856007222198073e-12
7.699289876297652037e-12
7.054365602580530320e-12
6.459713585738748499e-12
5.912416318312114151e-12
5.408489619214160296e-12
4.945421959810858110e-12
