# bin_7_6
# note = no ell^2 prefactor
3.073718514412503358e-08
3.014860866263599383e-08
2.954055901486130688e-08
2.891452208188940926e-08
2.827204516977462635e-08
2.761478607925172853e-08
2.694445684201915347e-08
2.626284953389793594e-08
2.557179712514909853e-08
2.487318510011742149e-08
2.416892147819327510e-08
2.346092062332511216e-08
2.275110407357692447e-08
2.204139221774884543e-08
2.133367001483263714e-08
2.062975710813060682e-08
1.993139212596988708e-08
1.924019812537582747e-08
1.855767142318393460e-08
1.788517704911001524e-08
1.722394075414246365e-08
1.657501735251100197e-08
1.593930310142085839e-08
1.531754107794397960e-08
1.471033198523716102e-08
1.411813031229667634e-08
1.354125996748465553e-08
1.297990421409324056e-08
1.243408714411838472e-08
1.190370125571738817e-08
1.138856408920629914e-08
1.088841576215136655e-08
1.040296470413384429e-08
9.931903835223166941e-09
9.474928638261238451e-09
9.031768230186962155e-09
8.602200337068147856e-09
8.186075879768448338e-09
7.783331234384019345e-09
7.393988753318405052e-09
7.018157443375315721e-09
6.656016647496303478e-09
6.307794080811970589e-09
5.973737744972510592e-09
5.654074913235492411e-09
5.348994758927171830e-09
5.058596649790137302e-09
4.782866322361495383e-09
4.521651185419159506e-09
4.274639411769467640e-09
4.041356915384298807e-09
3.821176129655155185e-09
3.613352106993060983e-09
3.417076610548661400e-09
3.231525616574793393e-09
3.055914066794760927e-09
2.889543465270176172e-09
2.731840167150197437e-09
2.582368038940119835e-09
2.440832530898483206e-09
2.307040070756923643e-09
2.180840819689595948e-09
2.062057770938754460e-09
1.950449019139328291e-09
1.845680134620360558e-09
1.747322994691305422e-09
1.654893944666545045e-09
1.567900107331338955e-09
1.485890900981907850e-09
1.408510280454130982e-09
1.335500217172072494e-09
1.266670180615137522e-09
1.201849002195704441e-09
1.140837170877966782e-09
1.083395055760563412e-09
1.029254472534725824e-09
9.781480834355260393e-10
9.298495650481587400e-10
8.841863580822411432e-10
8.410155342793127088e-10
8.001928043309208884e-10
7.615646542571213545e-10
7.249724599234116864e-10
6.902670555784631681e-10
6.573268284007834801e-10
6.260471776669927875e-10
5.963254504487520425e-10
5.680591872871933638e-10
5.411523886543976227e-10
5.155211193229615811e-10
4.910890278756154443e-10
4.677842818822470553e-10
4.455392825329659937e-10
4.242927512870071488e-10
4.039885058622814809e-10
3.845750314019755135e-10
3.660041187528685563e-10
3.482321217373879587e-10
3.312185097270313289e-10
3.149263679061665850e-10
2.993212403670515209e-10
2.843718260267788641e-10
2.700493494989094043e-10
2.563267442162228564e-10
2.431795015319492247e-10
2.305843003090946419e-10
2.185198058310599046e-10
2.069661665679835487e-10
1.959043119709495700e-10
1.853168169286361856e-10
1.751871173675874073e-10
1.654997181370657169e-10
1.562394464505269692e-10
1.473922626491053462e-10
1.389446200396089670e-10
1.308836501625685377e-10
1.231963862320362525e-10
1.158708152088547504e-10
1.088950402063893690e-10
1.022575146606077020e-10
9.594692936842375685e-11
8.995239819788003147e-11
8.426266582834902657e-11
7.886720622820469175e-11
7.375550798514924264e-11
6.891719227038406884e-11
6.434201776345477528e-11
6.001990495121922704e-11
5.594087938631211238e-11
5.209514591630548670e-11
4.847280386434272679e-11
4.506481212036443675e-11
4.186159636106708568e-11
3.885396048152087120e-11
3.603291139292532879e-11
3.338963257110678967e-11
3.091523398381494148e-11
2.860183774482941308e-11
2.644096518538089718e-11
2.442464126108469876e-11
2.254483535343180276e-11
2.079459048657224185e-11
1.916606293730631948e-11
1.765282088152830246e-11
1.624749965160458315e-11
1.494422146641687382e-11
1.373611894926380566e-11
1.261786672985708456e-11
1.158310856162357900e-11
1.062706051650419116e-11
