# bin_7_2
# note = no ell^2 prefactor
1.570634833325684484e-08
1.523869961385467162e-08
1.477034808042382222e-08
1.430261557506203050e-08
1.383676321914105603e-08
1.337401613298848529e-08
1.291550656559268907e-08
1.246229953511111927e-08
1.201536003310094015e-08
1.157556615760133693e-08
1.114368916756449845e-08
1.072039461165138761e-08
1.030624878782626514e-08
9.901718673815365691e-09
9.507151719599405118e-09
9.122773916583876845e-09
8.748708002703422137e-09
8.384968273196974272e-09
8.031473705713936733e-09
7.688067353453571585e-09
7.354541474972895126e-09
7.030648185864507959e-09
6.716128802424604596e-09
6.410728406929611030e-09
6.114218999923689794e-09
5.826415666914852240e-09
5.547210404279653032e-09
5.276577670435880087e-09
5.014563697476083810e-09
4.761286791619553647e-09
4.516943795243894583e-09
4.281771951126921907e-09
4.056036559188445620e-09
3.839995771337670941e-09
3.633868530247899259e-09
3.437803829488333535e-09
3.251844025928982405e-09
3.075901317025388811e-09
2.909745548083721169e-09
2.753000615606630537e-09
2.605169979327002467e-09
2.465667087455816901e-09
2.333866436883761019e-09
2.209153570058813728e-09
2.090970551305418431e-09
1.978864151977787613e-09
1.872495675775714844e-09
1.771645457333077494e-09
1.676187805466113817e-09
1.586046867542892698e-09
1.501140174493837949e-09
1.421335124433937427e-09
1.346419824217217620e-09
1.276105244374821510e-09
1.210051263235496702e-09
1.147906830879286334e-09
1.089349748681869175e-09
1.034110661605609994e-09
9.819866162302108766e-10
9.328284883006373248e-10
8.865035491792059288e-10
8.428707745729637125e-10
8.017677461663333471e-10
7.630183697886776824e-10
7.264454022129969184e-10
6.918828132414465064e-10
6.591888350493717806e-10
6.282474234945302335e-10
5.989541413391883728e-10
5.712048027475978975e-10
5.448942744083108683e-10
5.199192399939931439e-10
4.961843508722613128e-10
4.736079044237588490e-10
4.521182508586927782e-10
4.316457064918704852e-10
4.121230733414900688e-10
3.934879789638867480e-10
3.756851329044027612e-10
3.586645821832567473e-10
3.423792816476652586e-10
3.267856936622019517e-10
3.118444832618389198e-10
2.975196250134027627e-10
2.837783683346302973e-10
2.705903711582340488e-10
2.579279628838212955e-10
2.457662280999336950e-10
2.340820031896375472e-10
2.228544781370014511e-10
2.120643000569139454e-10
2.016940975498081188e-10
1.917275132381058252e-10
1.821499192023409641e-10
1.729473341283041466e-10
1.641072801558735490e-10
1.556176461964712665e-10
1.474676250365193016e-10
1.396466042339289082e-10
1.321450618312773176e-10
1.249535121737539441e-10
1.180632441077520774e-10
1.114659755577893811e-10
1.051532863353691513e-10
9.911757534788165544e-11
9.335089173081660125e-11
8.784583185491607187e-11
8.259516999171686673e-11
7.759129938066906781e-11
7.282715291911127456e-11
6.829556986924961678e-11
6.398958339690664380e-11
5.990178047366090033e-11
5.602522857571193952e-11
5.235288322450123434e-11
4.887788763182879085e-11
4.559285727190351734e-11
4.249098164779311737e-11
3.956527591520800846e-11
3.680882319601740252e-11
3.421473974259035673e-11
3.177638924002299380e-11
2.948663016431843948e-11
2.733896218100596669e-11
2.532681623697757967e-11
2.344372313881987288e-11
2.168333249864818098e-11
2.003944343140285660e-11
1.850598054103724662e-11
1.707704682520339071e-11
1.574666762587509755e-11
1.450974100047036941e-11
1.336065799326263794e-11
1.229421748446021531e-11
1.130543005781495630e-11
1.038949956479059949e-11
9.541571108985775210e-12
8.757779689112734502e-12
8.033673106445513522e-12
7.365272696297614826e-12
6.748523297885901537e-12
6.180389077128245196e-12
5.656919352400542883e-12
5.175490274469971451e-12
4.732499153530824679e-12
4.325713986360451302e-12
3.951859356871530423e-12
3.609063193719777209e-12
3.294359344875044327e-12
3.006201939999845392e-12
