# tt
8.880994701862990723e+02
8.354167872762767502e+02
7.843699516447964015e+02
7.446387550966481967e+02
7.157167564165720250e+02
6.956912517877193523e+02
6.822575623305782528e+02
6.738326828791382468e+02
6.694073943212218865e+02
6.678388918812527209e+02
6.692115322459978870e+02
6.723842670253876577e+02
6.761828270520531987e+02
6.809824264526790785e+02
6.873486715428812204e+02
6.950600068365940842e+02
7.036988140427559983e+02
7.128500843573439170e+02
7.221928508746104853e+02
7.317790524231123754e+02
7.417199434790911710e+02
7.519910851927817248e+02
7.625322586325240763e+02
7.732744127566813859e+02
7.841719317245213006e+02
7.952809195073737101e+02
8.066516087307315956e+02
8.182109337575142263e+02
8.298839722002480812e+02
8.417106692836008506e+02
8.537434656605596501e+02
8.659682098821845102e+02
8.783448061764786416e+02
8.907982819735251496e+02
9.032838745341236972e+02
9.159157990986558389e+02
9.288070665288701093e+02
9.419073940168303807e+02
9.551253491512998153e+02
9.683894721333751932e+02
9.817057848562225217e+02
9.951000810955694078e+02
1.008597853532485260e+03
1.022224895942697913e+03
1.036001281303427049e+03
1.049926206695584142e+03
1.063993148401572398e+03
1.078195883798453906e+03
1.092527889168632100e+03
1.106984949186890844e+03
1.121570877718901784e+03
1.136291596292944860e+03
1.151153227167072146e+03
1.166161491139791451e+03
1.181321306090521375e+03
1.196632772384148439e+03
1.212094685642039167e+03
1.227706142580218739e+03
1.243466039184940200e+03
1.259374475821089391e+03
1.275435667813882446e+03
1.291655235596941338e+03
1.308038498509228930e+03
1.324590976619481125e+03
1.341317186347572260e+03
1.358217328423274466e+03
1.375291001387043252e+03
1.392537502684676156e+03
1.409956230126856553e+03
1.427547886267786907e+03
1.445319095189950076e+03
1.463277584989575644e+03
1.481431184127779261e+03
1.499787721065676806e+03
1.518353217696434513e+03
1.537125566357444086e+03
1.556100852818147587e+03
1.575275363577759435e+03
1.594644983675949334e+03
1.614206200341704061e+03
1.633957307371959587e+03
1.653897301117855250e+03
1.674024776470985444e+03
1.694338127593172658e+03
1.714836250470669938e+03
1.735516836711096630e+03
1.756377678286958826e+03
1.777416165711217673e+03
1.798630291686151395e+03
1.820017848184265858e+03
1.841576426448294342e+03
1.863303416991198446e+03
1.885197414704572793e+03
1.907255609371606624e+03
1.929476194424350069e+03
1.951856560375764730e+03
1.974394900657900280e+03
1.997088605783718549e+03
2.019935869185269894e+03
2.042934282105287366e+03
2.066081636516277285e+03
2.089375724390745290e+03
2.112814538430969151e+03
2.136395669879682373e+03
2.160116709979619372e+03
2.183975852162829597e+03
2.207970888401819138e+03
2.232099409939321504e+03
2.256359008018070199e+03
2.280747073151027053e+03
2.305256579796164260e+03
2.329879699492366854e+03
2.354609205967835351e+03
2.379436869301909610e+03
2.404355463222790149e+03
2.429357159269361546e+03
2.454434128980507921e+03
2.479579146084430249e+03
2.504784181390240065e+03
2.530041406436821489e+03
2.555343394222603820e+03
2.580682517016242855e+03
2.606051147086395758e+03
2.631441255242173611e+03
2.656845615211777840e+03
2.682256398534092114e+03
2.707665576018229331e+03
2.733065921392389555e+03
2.758449806925229041e+03
2.783809404155632819e+03
2.809138089001117805e+03
2.834429237379200913e+03
2.859676225207400421e+03
2.884872829862777962e+03
2.910011624343761923e+03
2.935086787486958201e+03
2.960091695209885074e+03
2.985019321970514738e+03
3.009863244416137150e+03
3.034616838464269222e+03
3.059273680762201366e+03
3.083826946497678819e+03
3.108270212317990172e+03
3.132596854140653704e+03
3.156800448612958917e+03
3.180873568733334196e+03
3.204810794797930157e+03
3.228604699805175187e+03
3.252249261861903960e+03
3.275737053966544863e+03
3.299061452036614810e+03
3.322214627610998377e+03
3.345189755877440803e+03
3.367978606915281944e+03
3.390573954452722319e+03
3.412969375137051429e+03
3.435156036858293191e+03
3.457127516263736652e+03
3.478875784162494256e+03
3.500394015742310785e+03
3.521674181812298229e+03
3.542709457560201827e+03
3.563492215254678285e+03
3.584014827164383860e+03
3.604270067017519068e+03
3.624250708542285338e+03
3.643949124007338469e+03
3.663358087140879434e+03
3.682469568752020677e+03
3.701276744028506982e+03
3.719772386698538867e+03
3.737948467571228775e+03
3.755798161834322400e+03
3.773313841756475085e+03
3.790488281065888259e+03
3.807315056409851422e+03
3.823788145895198340e+03
3.839902330547852216e+03
3.855650785555558286e+03
3.871027890484694581e+03
3.886028024901640038e+03
3.900644363994138985e+03
3.914871688788115080e+03
3.928703174471313105e+03
3.942133602069655808e+03
3.955156548230433145e+03
3.967766793979567865e+03
3.979957113045260485e+03
3.991722687912978472e+03
4.003056693770466609e+03
4.013953510184103834e+03
4.024407115260723913e+03
4.034411487107161065e+03
4.043961005289793320e+03
4.053049246455910634e+03
4.061669787252802507e+03
4.069817810165935953e+03
4.077486891842600926e+03
4.084670608930086473e+03
4.091364143913860516e+03
4.097568701172555848e+03
4.103285485084805259e+03
4.108516101488787172e+03
4.113262557682222905e+03
4.117526459503290425e+03
4.121309814249711962e+03
4.124613826300120309e+03
4.127440101492693429e+03
4.129790647125152645e+03
4.131667069035676832e+03
4.133070973062442135e+03
4.134004767962715050e+03
4.134468855196040749e+03
4.134466446438774256e+03
4.133997541690915568e+03
4.133065754088364884e+03
4.131671083631120382e+03
4.129815939076450377e+03
4.127502327722075279e+03
4.124731453946629699e+03
4.121504923588290694e+03
4.117825145404323848e+03
4.113693323773363772e+03
4.109111064533587523e+03
4.104080374982716421e+03
4.098602860958928432e+03
4.092679726840857711e+03
4.086313782845313654e+03
4.079505430431841887e+03
4.072257078357707542e+03
4.064570733920633756e+03
4.056447601499252869e+03
4.047889286931743300e+03
4.038897797515826369e+03
4.029474337630135324e+03
4.019621717491481377e+03
4.009340740018953056e+03
3.998633011050727873e+03
3.987500537884528057e+03
3.975944926358531120e+03
3.963968183770459291e+03
3.951571514498945362e+03
3.938756925841711109e+03
3.925526023636934951e+03
3.911880413722793946e+03
3.897822103397010324e+03
3.883352698497761139e+03
3.868473804863224814e+03
3.853186626872033685e+03
3.837495179119632667e+03
3.821405884958731349e+03
3.804927977958851443e+03
3.788069487310880959e+03
3.770839646584340699e+03
3.753246886429662936e+03
3.735298834578191872e+03
3.717005928978081556e+03
3.698374994441586750e+03
3.679416067457317695e+03
3.660136775756617681e+03
3.640545951449463246e+03
3.620652828105376557e+03
3.600464631996155731e+03
3.579991399610411463e+03
3.559241160139031308e+03
3.538222344232447995e+03
3.516943784000638061e+03
3.495414311553578500e+03
3.473641956082157321e+03
3.451635951155895327e+03
3.429404325965680982e+03
3.406955912621490825e+03
3.384299141773757128e+03
3.361443246992001150e+03
3.338396056737339222e+03
3.315166603849519561e+03
3.291763519708747481e+03
3.268195234965454347e+03
3.244470581729618061e+03
3.220597789921898311e+03
3.196585490922499503e+03
3.172443119030715479e+03
3.148178301977889532e+03
3.123799671144226068e+03
3.099316460099246797e+03
3.074736698033839275e+03
3.050069618517525214e+03
3.025323451470963846e+03
3.000506426814816223e+03
2.975627978848375733e+03
2.950695936032757800e+03
2.925719531937483225e+03
2.900706795753440929e+03
2.875666559590607449e+03
2.850607655558958868e+03
2.825538715038700502e+03
2.800467767220720361e+03
2.775404045674539248e+03
2.750355780320817303e+03
2.725331401809987256e+03
2.700337734954303869e+03
2.675381203106477642e+03
2.650468631078762883e+03
2.625606040764325826e+03
2.600800457705193821e+03
2.576057903794532194e+03
2.551385605304140881e+03
2.526789383397413076e+03
2.502276062886603540e+03
2.477852267854195361e+03
2.453524220923126450e+03
2.429298746905651569e+03
2.405182068424709087e+03
2.381181010292553765e+03
2.357301995861895648e+03
2.333551448485445235e+03
2.309935791515913479e+03
2.286461849765554689e+03
2.263136046587079363e+03
2.239964805333197546e+03
2.216954750086392323e+03
2.194112304199374194e+03
2.171443891024852746e+03
2.148956335375083654e+03
2.126655859873004829e+03
2.104549289330871034e+03
2.082642846371620180e+03
2.060943355807507032e+03
2.039457040261470638e+03
2.018190523815992719e+03
1.997150430553556134e+03
1.976343183826871382e+03
1.955775206988648733e+03
1.935453324851142952e+03
1.915383760037292404e+03
1.895573337359351626e+03
1.876028078710486852e+03
1.856755009632724978e+03
1.837760352749004369e+03
1.819050732141807202e+03
1.800632771893616336e+03
1.782512895357142270e+03
1.764697525885095274e+03
1.747193287559957753e+03
1.730006804464212564e+03
1.713144299220797848e+03
1.696612596641968366e+03
1.680418120080434619e+03
1.664567393253792943e+03
1.649065635136120363e+03
1.633913046457189466e+03
1.619108924662797563e+03
1.604652165739197244e+03
1.590541966767299755e+03
1.576777123368472076e+03
1.563356932988511289e+03
1.550280191248784377e+03
1.537546295959974714e+03
1.525153842013676922e+03
1.513102327585460444e+03
1.501390648661578325e+03
1.490017701228283158e+03
1.478982582001600122e+03
1.468284488062440687e+03
1.457922415761943739e+03
1.447895361451248164e+03
1.438202321481492845e+03
1.428842492933589483e+03
1.419814771793790442e+03
1.411118355143007193e+03
1.402752138967492556e+03
1.394715320348157775e+03
1.387006895636141735e+03
1.379625961547469842e+03
1.372571414068394688e+03
1.365842450279827517e+03
1.359437966168021376e+03
1.353357259178773347e+03
1.347599225298336478e+03
1.342162760512963814e+03
1.337047262633338505e+03
1.332251426915941465e+03
1.327774550806569778e+03
1.323615530291476261e+03
1.319773662816458682e+03
1.316247643637997271e+03
1.313036669837003501e+03
1.310139938494388616e+03
1.307556345596405208e+03
1.305284987859078456e+03
1.303324961998433764e+03
1.301675063635837660e+03
1.300334690581973746e+03
1.299302738823094614e+03
1.298578204710339605e+03
1.298160184959733442e+03
1.298047776287301531e+03
1.298239874679296690e+03
1.298735777581516231e+03
1.299533477696238151e+03
1.300628157508929689e+03
1.302013795126424839e+03
1.303684669750215789e+03
1.305634859852022828e+03
1.307858544268451851e+03
1.310350102565881798e+03
1.313103412486259913e+03
1.316112753231079068e+03
1.319372303636945162e+03
1.322876142175578480e+03
1.326618548048471212e+03
1.330593700092229483e+03
1.334795676778573579e+03
1.339218556579223559e+03
1.343856618695671614e+03
1.348704041964524095e+03
1.353755005222387126e+03
1.359003586940980995e+03
1.364443965956911597e+03
1.370070421471671352e+03
1.375877031956980545e+03
1.381857976249445301e+03
1.388007232455899384e+03
1.394319280507607573e+03
1.400788098511403859e+03
1.407407865303894141e+03
1.414172759721684997e+03
1.421077060966268618e+03
1.428114847509365291e+03
1.435280097457808552e+03
1.442567090013091047e+03
1.449970305106477326e+03
1.457483419750142730e+03
1.465100913875352262e+03
1.472816865953825754e+03
1.480625354457283265e+03
1.488520658587217213e+03
1.496496856815347655e+03
1.504548228343167011e+03
1.512668851642395111e+03
1.520852805184752242e+03
1.529094568901503180e+03
1.537387920169709105e+03
1.545727138190862888e+03
1.554106602531342787e+03
1.562520190933096501e+03
1.570962182597616675e+03
1.579426856726395272e+03
1.587908191426266512e+03
1.596400766993380785e+03
1.604899966642977688e+03
1.613401575049841085e+03
1.621901176158982480e+03
1.630394956104730227e+03
1.638878197737437176e+03
1.647346886461659778e+03
1.655796706587295603e+03
1.664223543154014578e+03
1.672622980106828436e+03
1.680990902485406650e+03
1.689322894234761179e+03
1.697614639664789820e+03
1.705862425274706538e+03
1.714061232820206442e+03
1.722207449165390244e+03
1.730296457525496862e+03
1.738324243305082746e+03
1.746286390449159171e+03
1.754178683632510229e+03
1.761996907529919326e+03
1.769736646086398423e+03
1.777394085436275645e+03
1.784964408065018233e+03
1.792443800106954086e+03
1.799827845507095390e+03
1.807112328940225325e+03
1.814293035081127982e+03
1.821365547874815093e+03
1.828325651996070292e+03
1.835169332849449574e+03
1.841892174379964672e+03
1.848489760532626860e+03
1.854958076711992589e+03
1.861292907592845495e+03
1.867490037849969212e+03
1.873545051428375700e+03
1.879453532273076235e+03
1.885211666518399170e+03
1.890814636649811519e+03
1.896258829531413994e+03
1.901539628378445741e+03
1.906652817865690849e+03
1.911594182667932728e+03
1.916359507459955466e+03
1.920944576916542928e+03
1.925344974982706390e+03
1.929556486333230168e+03
1.933574895642897445e+03
1.937396389046036802e+03
1.941016751217432102e+03
1.944437186535716364e+03
1.947658297190206213e+03
1.950681889748851518e+03
1.953508967860513167e+03
1.956140936633596766e+03
1.958579000446735336e+03
1.960824564408334254e+03
1.962878632167254636e+03
1.964742809561673994e+03
1.966418300970225573e+03
1.967906110041770262e+03
1.969207842614485799e+03
1.970324703067005430e+03
1.971257895777962176e+03
1.972008825855761643e+03
1.972578697679036623e+03
1.972968715626420817e+03
1.973180284806319378e+03
1.973214609597365552e+03
1.973073095107964718e+03
1.972756744986977992e+03
1.972267165072582657e+03
1.971605559743412186e+03
1.970773133378099601e+03
1.969771291085050507e+03
1.968600835783353659e+03
1.967263774770730834e+03
1.965760910966271240e+03
1.964093649478379803e+03
1.962263395415462128e+03
1.960271152426379331e+03
1.958118526349308922e+03
1.955806520833111790e+03
1.953336741715965900e+03
1.950709991916959552e+03
1.947927877274270486e+03
1.944991802896304307e+03
1.941902772431921903e+03
1.938662190989528654e+03
1.935271262947757805e+03
1.931731393415014736e+03
1.928043786769932467e+03
1.924209848120916831e+03
1.920230581116828262e+03
1.916107591595844724e+03
1.911841883206827333e+03
1.907434861058181014e+03
1.902887930258311599e+03
1.898202295185852336e+03
1.893379561678980281e+03
1.888423342873595629e+03
1.883338255554458556e+03
1.878127712127696668e+03
1.872796530107842727e+03
1.867348322630796247e+03
1.861787305021773591e+03
1.856117893335763029e+03
1.850343901438436205e+03
1.844469544655009713e+03
1.838499038310699461e+03
1.832436397000949455e+03
1.826285836050976059e+03
1.820051370056223050e+03
1.813737013612134660e+03
1.807347383503471292e+03
1.800886092866132458e+03
1.794357557755106882e+03
1.787765792765838341e+03
1.781114812493770842e+03
1.774408832264120520e+03
1.767652067402103739e+03
1.760848331773392147e+03
1.754002242162746597e+03
1.747117612435838510e+03
1.740198858647656380e+03
1.733249593934100176e+03
1.726274234350157712e+03
1.719276995221045581e+03
1.712261891142207787e+03
1.705232936709087880e+03
1.698194347246902680e+03
1.691150338080868096e+03
1.684104923806427905e+03
1.677062420113684766e+03
1.670026540503424258e+03
1.663001901760406781e+03
1.655992217385418371e+03
1.649002003798333135e+03
1.642034974499937107e+03
1.635095545545218556e+03
1.628187731529621260e+03
1.621315647413475745e+03
1.614483408157111853e+03
1.607695128720859657e+03
1.600955024429935520e+03
1.594267310609555352e+03
1.587635700760505188e+03
1.581064811667545428e+03
1.574558356831461651e+03
1.568120350847698319e+03
1.561753302838407308e+03
1.555459420831083207e+03
1.549240712123447793e+03
1.543099184013223521e+03
1.537037345622562270e+03
1.531057103884300432e+03
1.525160666825931912e+03
1.519350342839836912e+03
1.513628038858851824e+03
1.507996063275356391e+03
1.502456624116845205e+03
1.497011728681040040e+03
1.491663484630549192e+03
1.486414300722638700e+03
1.481266184255031021e+03
1.476221142525447931e+03
1.471281684656041762e+03
1.466449617214762611e+03
1.461727348958876746e+03
1.457116987550992008e+03
1.452620540288830853e+03
1.448240114835001123e+03
1.443978220311655605e+03
1.439836763651629553e+03
1.435817852517531719e+03
1.431923594571969943e+03
1.428156599301982851e+03
1.424518372180861661e+03
1.421011522695645453e+03
1.417638158508942070e+03
1.414400286918473512e+03
1.411300115951733915e+03
1.408339853636217867e+03
1.405521507269646690e+03
1.402847385244401266e+03
1.400319595223089436e+03
1.397940445598091628e+03
1.395711742937357485e+03
1.393635895998153501e+03
1.391715012443087517e+03
1.389951199934768056e+03
1.388346766865575319e+03
1.386903620168345014e+03
1.385624168600343637e+03
1.384510319094406896e+03
1.383564480407801739e+03
1.382788559473363421e+03
1.382184965048358663e+03
1.381755604065623402e+03
1.381502182728220987e+03
1.381423195562860428e+03
1.381516836001591628e+03
1.381781096746692583e+03
1.382214171230213651e+03
1.382813851424660470e+03
1.383578330762083397e+03
1.384505601944760201e+03
1.385593758039855402e+03
1.386840791749646542e+03
1.388244796141297911e+03
1.389803864281973574e+03
1.391515888509065462e+03
1.393379062254623705e+03
1.395391277856040460e+03
1.397550728745365632e+03
1.399855307259991378e+03
1.402303206831967600e+03
1.404892420163572751e+03
1.407620939957084147e+03
1.410486959644552826e+03
1.413488271198483744e+03
1.416623268780700073e+03
1.419889643998820929e+03
1.423285489920010605e+03
1.426809100341205522e+03
1.430458467964683678e+03
1.434231284398064645e+03
1.438126044168056978e+03
1.442140438882280478e+03
1.446272762337671111e+03
1.450521007236507330e+03
1.454883065916180840e+03
1.459357131808741542e+03
1.463941197616468116e+03
1.468633456771410010e+03
1.473431701246073544e+03
1.478334124472508847e+03
1.483338618788107624e+03
1.488443477989806297e+03
1.493646694779882864e+03
1.498946061130843191e+03
1.504339971204509538e+03
1.509826016243615641e+03
1.515402791139756118e+03
1.521067987500550544e+03
1.526819698393162980e+03
1.532655916519871653e+03
1.538574935677612530e+03
1.544574547838891931e+03
1.550652645341101106e+03
1.556805715413227063e+03
1.563030144919370059e+03
1.569322421088516649e+03
1.575678629690108664e+03
1.582094956858474688e+03
1.588568190917259244e+03
1.595094518000790686e+03
1.601669923513625008e+03
1.608291095414520896e+03
1.614954219837806477e+03
1.621655683647582237e+03
1.628391773343062368e+03
1.635158675058575227e+03
1.641952876023107365e+03
1.648770662735872975e+03
1.655608321696086250e+03
1.662462239767847677e+03
1.669328703450371677e+03
1.676204199972644574e+03
1.683084714739222591e+03
1.689966835343978119e+03
1.696846848286125578e+03
1.703721040064879162e+03
1.710585596814567225e+03
1.717437106129062386e+03
1.724271754142692771e+03
1.731085726989786508e+03
1.737875812993988347e+03
1.744637796830082380e+03
1.751368266091940995e+03
1.758063406913892550e+03
1.764719806889809433e+03
1.771333652154020001e+03
1.777901128840852380e+03
1.784418623814407056e+03
1.790882523938784288e+03
1.797289416807856924e+03
1.803635087096408597e+03
1.809916122398311927e+03
1.816128909577667173e+03
1.822269634768802916e+03
1.828334684835819189e+03
1.834320647372588837e+03
1.840223307053895496e+03
1.846039452203384144e+03
1.851765068225610776e+03
1.857396943444219914e+03
1.862930862533995651e+03
1.868363413088810603e+03
1.873691182702537162e+03
1.878912364807225686e+03
1.884025353564698435e+03
1.889028543136777898e+03
1.893920327685286566e+03
1.898699101372046698e+03
1.903363459088652917e+03
1.907911393537383447e+03
1.912341901069376945e+03
1.916652974386911637e+03
1.920843208381581917e+03
1.924910997215210500e+03
1.928854735049619649e+03
1.932672816046631624e+03
1.936363835097841275e+03
1.939925985635298503e+03
1.943357661820826024e+03
1.946657659275790365e+03
1.949823970702469751e+03
1.952855190992458574e+03
1.955749714307579325e+03
1.958506135539426623e+03
1.961122848849822958e+03
1.963597846941046328e+03
1.965929925434463485e+03
1.968117478491896691e+03
1.970158699545396075e+03
1.972052384216328846e+03
1.973796725936744906e+03
1.975390118868466743e+03
1.976830957173316847e+03
1.978117835742889611e+03
1.979248948009235392e+03
1.980222888863948810e+03
1.981038052468852129e+03
1.981693033715539968e+03
1.982185825306290326e+03
1.982515222862470182e+03
1.982679219086357534e+03
1.982676810329091040e+03
1.982505989292948925e+03
1.982165350869526037e+03
1.981653088490872051e+03
1.980967997778354402e+03
1.980108272164022765e+03
1.979072305809699628e+03
1.977858693606979614e+03
1.976465628987913306e+03
1.974891706844094870e+03
1.973135120607574436e+03
1.971195268089035835e+03
1.969072952207567596e+03
1.966770581720435985e+03
1.964289160276502344e+03
1.961631297362805071e+03
1.958798598817521906e+03
1.955793071938374396e+03
1.952616322563540734e+03
1.949270157260970564e+03
1.945756583328385432e+03
1.942077608063508023e+03
1.938234636574743263e+03
1.934229876889585285e+03
1.930065135575984414e+03
1.925742219201889839e+03
1.921262934335251657e+03
1.916629087544019740e+03
1.911842686125916089e+03
1.906905536648890347e+03
1.901819244951120027e+03
1.896585818330327356e+03
1.891207464814006471e+03
1.885685388780790618e+03
1.880021998987946063e+03
1.874218901273650317e+03
1.868277902205853479e+03
1.862200808352505192e+03
1.855989627011327229e+03
1.849646164750269918e+03
1.843172228137282673e+03
1.836569824470087497e+03
1.829840559586861900e+03
1.822986440785328341e+03
1.816009274633436235e+03
1.808911068428907583e+03
1.801693428009920126e+03
1.794358159944423505e+03
1.786907070800367592e+03
1.779342569335018879e+03
1.771665859927010615e+03
1.763879150603836706e+03
1.755984247933447250e+03
1.747982958483791663e+03
1.739876888093047910e+03
1.731668445518482486e+03
1.723358835138728182e+03
1.714950465711051493e+03
1.706444742343858024e+03
1.697843873064641912e+03
1.689149463711580665e+03
1.680363822677054486e+03
1.671489559448102227e+03
1.662530086430851270e+03
1.653488715666542703e+03
1.644368357736873349e+03
1.635172425047971046e+03
1.625903828181532162e+03
1.616566079908570600e+03
1.607161990445897118e+03
1.597695172929411001e+03
1.588168537940809529e+03
1.578585196791561430e+03
1.568948461522908474e+03
1.559261744540977588e+03
1.549527755697693692e+03
1.539750007764070006e+03
1.529931612051576167e+03
1.520075579506794838e+03
1.510185523265625534e+03
1.500264253544879239e+03
1.490314982020910975e+03
1.480340920370076219e+03
1.470345380633615832e+03
1.460331474122999452e+03
1.450302412514581874e+03
1.440261307119832281e+03
1.430211369615105696e+03
1.420155811676757821e+03
1.410097744616257387e+03
1.400040380109959642e+03
1.389987030199105902e+03
1.379940705830279057e+03
1.369904618679834357e+03
1.359882181153899410e+03
1.349876103104398680e+03
1.339890098032117976e+03
1.329926976153867827e+03
1.319990049510890003e+03
1.310082529779539300e+03
1.300207628636171194e+03
1.290368457392254641e+03
1.280568127359258597e+03
1.270809950578424605e+03
1.261097239090993980e+03
1.251432803113777254e+03
1.241820055052902035e+03
1.232262206584723344e+03
1.222762369020710366e+03
1.213323754037218350e+03
1.203949573310602545e+03
1.194642637057673710e+03
1.185404751846381487e+03
1.176237222420245416e+03
1.167141554252556716e+03
1.158119252816607286e+03
1.149171522491029691e+03
1.140299868749116058e+03
1.131505696699271539e+03
1.122790612179673644e+03
1.114155719204069783e+03
1.105602723975523077e+03
1.097132830872667228e+03
1.088747545368793681e+03
1.080448272572307815e+03
1.072236517956500848e+03
1.064113586264892319e+03
1.056080882605887609e+03
1.048139912452778162e+03
1.040292080913969585e+03
1.032538692732980962e+03
1.024881454112875872e+03
1.017321469067401608e+03
1.009860142704963664e+03
1.002499181228625503e+03
9.952397890170204846e+02
9.880835719083261210e+02
9.810316339162894792e+02
9.740856812439744772e+02
9.672470186349000869e+02
9.605170511974720284e+02
9.538971840400954534e+02
9.473889226360620341e+02
9.409935717288908563e+02
9.347126367918737060e+02
9.285476232983018008e+02
9.224997356268086151e+02
9.165704792506853664e+02
9.107613596432237273e+02
9.050736815479430106e+02
8.995089504381345478e+02
8.940684710573178791e+02
8.887537488787843358e+02
8.835661890109392971e+02
8.785071965621882555e+02
8.735781766409364764e+02
8.687806347204756321e+02
8.641158755443250357e+02
8.595854045857759047e+02
8.551905265883478933e+02
8.509327470253322190e+02
8.468130695455901105e+02
8.428306912300324711e+02
8.389844077000263951e+02
8.352730647593816684e+02
8.316954580294649304e+02
8.282503329492001285e+02
8.249364851399540157e+02
8.217527604055363781e+02
8.186980547322000348e+02
8.157710131939828671e+02
8.129704815946946610e+02
8.102952555557020560e+02
8.077442812457011314e+02
8.053161535562865083e+02
8.030097684737110058e+02
8.008238714368984574e+02
7.987574587969878621e+02
7.968090752631306941e+02
7.949776670040229192e+02
7.932620296410314040e+02
7.916609587955229017e+02
7.901731497239780992e+02
7.887975987775361091e+02
7.875329510302344715e+02
7.863781024683260057e+02
7.853317985307346589e+02
7.843928348388271843e+02
7.835600070139703348e+02
7.828322612248599626e+02
7.822081923630909159e+02
7.816867465973589333e+02
7.812667195490308814e+02
7.809468064745874472e+02
7.807259033602815634e+02
7.806028058274800969e+02
7.805762593151066540e+02
7.806451096269712480e+02
7.808081523844405183e+02
7.810642333913243647e+02
7.814120980865465071e+02
7.818505922739169591e+02
7.823784112099162940e+02
7.829944508807974444e+02
7.836974567254841304e+02
7.844863749126723178e+02
7.853598505163996606e+02
7.863167293404759448e+02
7.873559073711542169e+02
7.884759795000289841e+02
7.896759420782392453e+02
7.909543899973797352e+02
7.923092657772851908e+02
7.937384115729045106e+02
7.952395189918574943e+02
7.968105807364221391e+02
7.984493385966611640e+02
8.001536347275233538e+02
8.019212109190716546e+02
8.037499595086977706e+02
8.056376724689074535e+02
8.075820915897637633e+02
8.095811593911013233e+02
8.116325674805400467e+02
8.137342583779147844e+02
8.158838735084021891e+02
8.180794055742803721e+02
8.203185461831689054e+02
8.225992378549027535e+02
8.249191721971017159e+02
8.272761913647145775e+02
8.296680873302472037e+02
8.320927524310914123e+02
8.345479284573099221e+02
8.370315579287378114e+02
8.395412320881085861e+02
8.420749436377003576e+02
8.446304343675757309e+02
8.472055966151267512e+02
8.497981219879729906e+02
8.524059028235063806e+02
8.550267310942329004e+02
8.576583987726580744e+02
8.602988985610601276e+02
8.629457213372863862e+02
8.655969601685010275e+02
8.682503066623238510e+02
8.709035527912604948e+02
8.735545908927030041e+02
8.762012129391571307e+02
8.788412109031286263e+02
8.814723767571233566e+02
8.840926028385331392e+02
8.866995807549778874e+02
8.892913032087352576e+02
8.918654618074252767e+02
8.944198485235535827e+02
8.969523556945121072e+02
8.994606749279205360e+02
9.019427989260568665e+02
9.043965196614270781e+02
9.068196291065366950e+02
9.092111236125248297e+02
9.115699995305305947e+02
9.138950524819206294e+02
9.161854795476061781e+02
9.184400763489541077e+02
9.206579396019894830e+02
9.228380656578513026e+02
9.249793505027924994e+02
9.270808908528380243e+02
9.291415826942410376e+02
9.311605227430263767e+02
9.331364062556749559e+02
9.350685306779838584e+02
9.369557919962062442e+02
9.387970861965948188e+02
9.405915099951747607e+02
9.423380597430850685e+02
9.440355310616924953e+02
9.456830206670222196e+02
9.472796252750991925e+02
9.488241405072903945e+02
9.503155627147348241e+02
9.517529886134574326e+02
9.531354145545973324e+02
9.544618368892934086e+02
9.557310512389126416e+02
9.569421543194799824e+02
9.580942428470206096e+02
9.591861124429013898e+02
9.602168598231472743e+02
9.611853809740111956e+02
9.620906722466321526e+02
9.629319307219215034e+02
9.637078516563597077e+02
9.644175317659720577e+02
9.650599674018974383e+02
9.656340545503887824e+02
9.661389902923573345e+02
9.665735702491698476e+02
9.669367907719653203e+02
9.672276482118828653e+02
9.674452392849474336e+02
9.675884599774119579e+02
9.676562062755293709e+02
9.676474745304386715e+02
9.675614618230511041e+02
9.673969637747334218e+02
9.671530771015106893e+02
9.668285974247496597e+02
9.664230229200200029e+02
9.659367550468660966e+02
9.653706970892626487e+02
9.647255516014125760e+02
9.640024225970628322e+02
9.632018119006440884e+02
9.623247231610171184e+02
9.613720596621569712e+02
9.603444235933801565e+02
9.592429189684338553e+02
9.580681479766346911e+02
9.568211142668435514e+02
9.555025203932632394e+02
9.541133700047546427e+02
9.526542652906343847e+02
9.511262098997635803e+02
9.495299063863448055e+02
9.478663583992391750e+02
9.461362684926492648e+02
9.443405399505500100e+02
9.424798753271442138e+02
9.405552782712926501e+02
9.385674513371982357e+02
9.365173981737219719e+02
9.344057209701802549e+02
9.322333230105481334e+02
9.300011075788004291e+02
9.277099779589121908e+02
9.253606367050859944e+02
9.229538867364105954e+02
9.204906313368610427e+02
9.179717737904120440e+02
9.153979162863803367e+02
9.127700624736269219e+02
9.100890152712405552e+02
9.073557783280822377e+02
9.045708534685825271e+02
9.017352443416023107e+02
8.988498542311166375e+02
8.959153856913280833e+02
8.929327420062114697e+02
8.899027260948557796e+02
8.868261408763497684e+02
8.837038896346683714e+02
8.805367752889002304e+02
8.773256007581342146e+02
8.740712693263452593e+02
8.707745839126222336e+02
8.674363474360537793e+02
8.640573628157287658e+02
8.606386337005081941e+02
8.571815651987974434e+02
8.536874620541159402e+02
8.501579301046410819e+02
8.465943744587783613e+02
8.429984009547054029e+02
8.393712139710554538e+02
8.357145698933351241e+02
8.320296731001776607e+02
8.283182297946467543e+02
8.245815447202617179e+02
8.208211233503141102e+02
8.170384711580953763e+02
8.132350434344539281e+02
8.094122452877952583e+02
8.055716323738537312e+02
8.017146098010349533e+02
7.978427332250734025e+02
7.939574077543744579e+02
7.900600384973436121e+02
7.861522312921582625e+02
7.822353410647808687e+02
7.783108231060599564e+02
7.743802832541730368e+02
7.704451266175254887e+02
7.665068084869658378e+02
7.625666837884563165e+02
7.586264085426176962e+02
7.546873878578553558e+02
7.507510268425745608e+02
7.468187807876239503e+02
7.428922555311810356e+02
7.389728059992080489e+02
7.350619376649966625e+02
7.311612061842814683e+02
7.272718661181385187e+02
7.233955233047455522e+02
7.195336832173939001e+02
7.156877509644891688e+02
7.118591316544367373e+02
7.080494311254140030e+02
7.042601046682696051e+02
7.004925072089658897e+02
6.967480940383511552e+02
6.930285211770461729e+02
6.893350933685702557e+02
6.856693160862148488e+02
6.820326948032713972e+02
6.784266848105884264e+02
6.748526912165714293e+02
6.713121191296255574e+02
6.678056711039537277e+02
6.643339493288724498e+02
6.608974556288121676e+02
6.574969427404187172e+02
6.541328623056796232e+02
6.508058165139112816e+02
6.475165079193164956e+02
6.442653881638827897e+02
6.410531096193697067e+02
6.378802744750938700e+02
6.347473845554858372e+02
6.316551424147481839e+02
6.286041000597546144e+02
6.255948094973786056e+02
6.226278729169366670e+02
6.197039426901885690e+02
6.168235206415647554e+02
6.139872089603818495e+02
6.111956600183995079e+02
6.084493756400482880e+02
6.057489580146445860e+02
6.030951096963913187e+02
6.004882823272758969e+02
5.979291282790577498e+02
5.954182497410538417e+02
5.929561987201374222e+02
5.905435272231821955e+02
5.881809378043907373e+02
5.858689322881937187e+02
5.836080626814645029e+02
5.813990315384058931e+02
5.792423908658914797e+02
5.771386926707947396e+02
5.750885391424322961e+02
5.730925324701207728e+02
5.711512246607336465e+02
5.692652680860305736e+02
5.674351645704421117e+02
5.656616166681709501e+02
5.639450760212046134e+02
5.622862451837455637e+02
5.606857263451106519e+02
5.591439711472871750e+02
5.576616821444779362e+02
5.562394113435564122e+02
5.548777609338391130e+02
5.535772829221998563e+02
5.523386296803980713e+02
5.511623532153073484e+02
5.500488549864720653e+02
5.489975829870187454e+02
5.480078848451877320e+02
5.470790580067763358e+02
5.462104501000249002e+02
5.454012582058444423e+02
5.446508801349186797e+02
5.439585631506016625e+02
5.433236548811337343e+02
5.427454527723122055e+02
5.422232040874914674e+02
5.417562564549117496e+02
5.413438571379273299e+02
5.409854039472215845e+02
5.406801943285917105e+02
5.404274253629491795e+02
5.402264446785341079e+02
5.400765999035870664e+02
5.399771383014619914e+02
5.399274075003995677e+02
5.399266547637538451e+02
5.399742779022082004e+02
5.400694238142308450e+02
5.402115404929483020e+02
5.403999253841577683e+02
5.406337755687706021e+02
5.409124386750269196e+02
5.412352623311671778e+02
5.416014436181026213e+02
5.420104305289596596e+02
5.424614703270925702e+02
5.429537600934125976e+02
5.434867478210460376e+02
5.440596807733472815e+02
5.446718062136704930e+02
5.453224717702561293e+02
5.460110250713444202e+02
5.467367133802896433e+02
5.474988843253321420e+02
5.482967349873832745e+02
5.491296631771263037e+02
5.499970165228014594e+02
5.508979419228771803e+02
5.518318371880366158e+02
5.527980499465203366e+02
5.537958274616823928e+02
5.548244169968770620e+02
5.558832163627878344e+02
5.569714728227689875e+02
5.580885340050607510e+02
5.592334966256883035e+02
5.604055075831197428e+02
5.616034126811649685e+02
5.628260577236338804e+02
5.640722885143361509e+02
5.653410512219679731e+02
5.666312418327820524e+02
5.679417563330313214e+02
5.692714907089688268e+02
5.706192405819610940e+02
5.719841026680335290e+02
5.733647220412236720e+02
5.747601452351134412e+02
5.761692180535128500e+02
5.775908364826747174e+02
5.790238965088519763e+02
5.804672941182975592e+02
5.819198751148212523e+02
5.833805856671191350e+02
5.848483217614439127e+02
5.863218790191624521e+02
5.878002537914138657e+02
5.892823420644509724e+02
5.907668892771974924e+02
5.922529921456784905e+02
5.937393459263748809e+02
5.952249971528684682e+02
5.967087414465262327e+02
5.981895249760439128e+02
5.996661935452316357e+02
6.011376431403421066e+02
6.026027697476283720e+02
6.040605195357861703e+02
6.055096881261824819e+02
6.069492216875131589e+02
6.083780162060312477e+02
6.097949676679894537e+02
6.111989720596408233e+02
6.125888250023521095e+02
6.139634726648192782e+02
6.153219113981813280e+02
6.166628866413618653e+02
6.179853445630570832e+02
6.192881811495198008e+02
6.205702923870028371e+02
6.218305240793160920e+02
6.230678223951555310e+02
6.242810833207740870e+02
6.254691024775385131e+02
6.266309263990308409e+02
6.277654008890608566e+02
6.288720743056413767e+02
6.299504950067846494e+02
6.310002113505033776e+02
6.320208720596962166e+02
6.330119753099326090e+02
6.339731196416682906e+02
6.349038534129156233e+02
6.358037751641302293e+02
6.366723830708817786e+02
6.375093760385117321e+02
6.383142522425898733e+02
6.390865600411284504e+02
6.398259481570263461e+02
6.405319147658530028e+02
6.412040584080639292e+02
6.418419274416718281e+02
6.424451204071322081e+02
6.430131856624575448e+02
6.435457719305466071e+02
6.440423272045258045e+02
6.445025002072937923e+02
6.449258392968631597e+02
6.453119430136894152e+02
6.456603597157851482e+02
6.459706377611629478e+02
6.462423756902784362e+02
6.464751720435871221e+02
6.466685249966585616e+02
6.468220832723914100e+02
6.469353952287981429e+02
6.470080092238914631e+02
6.470395237981267655e+02
6.470294371270737201e+02
6.469773979336309822e+02
6.468830047582540601e+02
6.467457055940693635e+02
6.465651993464186944e+02
6.463409841908716089e+02
6.460726586678835019e+02
6.457597711354670764e+02
6.454019201340779546e+02
6.449986540217286120e+02
6.445495713388746708e+02
6.440542204435286067e+02
6.435121496937031225e+02
6.429230078122967598e+02
6.422862929748790748e+02
6.416015535394625431e+02
6.408684884113889666e+02
6.400866961311138539e+02
6.392566283406247294e+02
6.383787366819090039e+02
6.374535229793971212e+02
6.364815894224058184e+02
6.354633374704793596e+02
6.343993191304914490e+02
6.332901365917584826e+02
6.321361411313819190e+02
6.309379851211214145e+02
6.296961202029644937e+02
6.284110983837845197e+02
6.270833713055691305e+02
6.257135411576347224e+02
6.243020093995259003e+02
6.228493782205591742e+02
6.213561494451649878e+02
6.198228248977738986e+02
6.182499064028164639e+02
6.166379459671660470e+02
6.149873450503672530e+02
6.132988062066227712e+02
6.115726807130338329e+02
6.098095707589170615e+02
6.080099279862598678e+02
6.061743044019359559e+02
6.043032018303757695e+02
6.023971722784526719e+02
6.004567175705974478e+02
5.984822893487973943e+02
5.964744898023690212e+02
5.944337203908569336e+02
5.923605833035776413e+02
5.902555803649615882e+02
5.881192133994393316e+02
5.859520344138843484e+02
5.837544950502842767e+02
5.815271473155124795e+02
5.792704930339995144e+02
5.769849838477327921e+02
5.746712721284719692e+02
5.723297593357615369e+02
5.699610476589181189e+02
5.675655887399288986e+02
5.651438844032246607e+02
5.626964866556788820e+02
5.602238471392789734e+02
5.577265680433414445e+02
5.552052013747399997e+02
5.526600984105759835e+02
5.500919115226089389e+02
5.475013934474847019e+02
5.448893972867350612e+02
5.422567761418919190e+02
5.396042827496009977e+02
5.369327702113940859e+02
5.342429912639170198e+02
5.315358491911447345e+02
5.288121970946089050e+02
5.260727877109554811e+02
5.233184741417162513e+02
5.205500593059798575e+02
5.177683461228352826e+02
5.149741876938144287e+02
5.121683869380058240e+02
5.093518471393846312e+02
5.065252708521534828e+02
5.036895613602871435e+02
5.008455215828745963e+02
4.979939042565614500e+02
4.951356628477657296e+02
4.922714999106901246e+02
4.894023689117526033e+02
4.865289222227127084e+02
4.836521133099885219e+02
4.807726949102257663e+02
4.778915201249561733e+02
4.750093918732687257e+02
4.721271632566950984e+02
4.692456873767672505e+02
4.663657169701309613e+02
4.634880549558748726e+02
4.606135544355310003e+02
4.577431186930741092e+02
4.548774001002639693e+02
4.520174023059615251e+02
4.491638278643694662e+02
4.463175298770196378e+02
4.434793614454438853e+02
4.406501254887310211e+02
4.378306249259698575e+02
4.350216626762492069e+02
4.322241420235438909e+02
4.294388157044997456e+02
4.266665368206486164e+02
4.239081082910792020e+02
4.211643330348804284e+02
4.184361143360271171e+02
4.157242300223865641e+02
4.130294328306045486e+02
4.103525507709913427e+02
4.076940103943128406e+02
4.050541629776705008e+02
4.024333347069440947e+02
3.998319270416780000e+02
3.972502912589735615e+02
3.946887284534890910e+02
3.921477153584336293e+02
3.896274777948008250e+02
3.871284674045781458e+02
3.846509852824238465e+02
3.821954328878824185e+02
3.797621614980551499e+02
3.773514972988219256e+02
3.749638166585055501e+02
3.725994708542073681e+02
3.702588362542502978e+02
3.679422892269572571e+02
3.656501308669864443e+02
3.633827626338822938e+02
3.611405107135246340e+02
3.589237765654578993e+02
3.567329114667833778e+02
3.545682165121594380e+02
3.524301182523519742e+02
3.503189428732407578e+02
3.482350165607057306e+02
3.461787909567341899e+02
3.441505169735415279e+02
3.421506462531151556e+02
3.401794547988917543e+02
3.382373691616373890e+02
3.363247155272317741e+02
3.344418451727763113e+02
3.325891093753723453e+02
3.307669095945642539e+02
3.289755720162319221e+02
3.272154479174765811e+02
3.254869136666212626e+02
3.237903456319887141e+02
3.221260699994588208e+02
3.204944380461329274e+02
3.188958261403338383e+02
3.173306106503845285e+02
3.157991177621647694e+02
3.143016987527759625e+02
3.128387550817624287e+02
3.114106129350040533e+02
3.100176235896021808e+02
3.086601634138796157e+02
3.073385084112732102e+02
3.060524076695676854e+02
3.048015600941047865e+02
3.035856896814476613e+02
3.024044702457165386e+02
3.012576257834746229e+02
3.001448050176205697e+02
2.990657068534960672e+02
2.980200552876643769e+02
2.970075241342456138e+02
2.960278122985815230e+02
2.950806186860138496e+02
2.941655920194411351e+02
2.932824813866482145e+02
2.924309606017552028e+02
2.916107034788823285e+02
2.908214340145927963e+02
2.900628260230067781e+02
2.893345784094659621e+02
2.886363900793120933e+02
2.879679599378868602e+02
2.873289367080888610e+02
2.867190443864813005e+02
2.861380069696275541e+02
2.855854731804261064e+02
2.850611419242187594e+02
2.845647371975687179e+02
2.840959328145961535e+02
2.836544025894211813e+02
2.832398705186071197e+02
2.828519853250525671e+02
2.824904960965423015e+02
2.821550515559749215e+02
2.818453756999137454e+02
2.815611674337003478e+02
2.813020754802334977e+02
2.810678489272978595e+02
2.808581114065706288e+02
2.806726120058365268e+02
2.805110496304371850e+02
2.803730730032713723e+02
2.802583810296807201e+02
2.801666977062284900e+02
2.800977219382563135e+02
2.800511275398844759e+02
2.800265883252330354e+02
2.800238282908653105e+02
2.800425212509014159e+02
2.800823661106830400e+02
2.801430617755519847e+02
2.802242318771852183e+02
2.803254247735954436e+02
2.804460382754659804e+02
2.805855705583663848e+02
2.807434445242014931e+02
2.809191081660978284e+02
2.811120596596248902e+02
2.813216968154659980e+02
2.815474927179692486e+02
2.817889204514825110e+02
2.820453778266892755e+02
2.823163881103805011e+02
2.826013491132396211e+02
2.828997590108361351e+02
2.832110156138534194e+02
2.835346170978609734e+02
2.838700114559852636e+02
2.842165964989097233e+02
2.845738954934253115e+02
2.849413564326585515e+02
2.853183771272927629e+02
2.857044557528975588e+02
2.860990403025992350e+02
2.865015787695243716e+02
2.869114940555778617e+02
2.873282592451076312e+02
2.877513725136832932e+02
2.881802316719881105e+02
2.886142847131486064e+02
2.890530047215127638e+02
2.894958647814285086e+02
2.899422877948007908e+02
2.903917468459776501e+02
2.908436397456424061e+02
2.912975148518076480e+02
2.917527197927136626e+02
2.922087778351515794e+02
2.926651369722478080e+02
2.931212451971287578e+02
2.935765254116993788e+02
2.940304507003076537e+02
2.944824941473015656e+02
2.949320786545860074e+02
2.953786522152874454e+02
2.958216879137539195e+02
2.962606337431117822e+02
2.966949376964875000e+02
2.971240477670075961e+02
2.975474370390199965e+02
2.979645535056511108e+02
2.983748702512489785e+02
2.987781112723768047e+02
2.991740256568193672e+02
2.995623624923613875e+02
2.999428206843445537e+02
3.003152245942181935e+02
3.006792731273239951e+02
3.010347404626683101e+02
3.013813255055927129e+02
3.017188275263251285e+02
3.020469705214287046e+02
3.023655286699097928e+02
3.026742008771099677e+02
3.029727613220356375e+02
3.032609590924714666e+02
3.035385432762022333e+02
3.038052629610127156e+02
3.040608421434660613e+02
3.043050800937901386e+02
3.045376506261051190e+02
3.047583530106387570e+02
3.049669363351758875e+02
3.051631245962796584e+02
3.053466668817347909e+02
3.055173373705476934e+02
3.056748349680599404e+02
3.058189589444993430e+02
3.059494332964292198e+02
3.060659820204127186e+02
3.061684043866776506e+02
3.062563993005657608e+02
3.063297409410832302e+02
3.063882034872364102e+02
3.064314607531454726e+02
3.064593120090381717e+02
3.064715063426993424e+02
3.064677677506920759e+02
3.064478453208012638e+02
3.064115132320330872e+02
3.063584703897293480e+02
3.062885160641176867e+02
3.062013742517614787e+02
3.060968191316669049e+02
3.059745496091757104e+02
3.058343147720726733e+02
3.056759138905854911e+02
3.054990709612774822e+02
3.053034848894903348e+02
3.050890051278948363e+02
3.048552803993897555e+02
3.046021601566458230e+02
3.043297949469922514e+02
3.040383353177581398e+02
3.037279569074942742e+02
3.033988855371942464e+02
3.030513219366303019e+02
3.026853915619101372e+02
3.023013202340273438e+02
3.018992835915327078e+02
3.014794572729769015e+02
3.010420420081320572e+02
3.005872636179919368e+02
3.001152224674426066e+02
2.996261945599209184e+02
2.991203304427559146e+02
2.985977806632768647e+02
2.980587710424774173e+02
2.975035023101297611e+02
2.969321501047846255e+02
2.963448649737711094e+02
2.957418727380829750e+02
2.951233741274924114e+02
2.944895196893285174e+02
2.938404850621420792e+02
2.931764960669267452e+02
2.924977534334547045e+02
2.918043826178335962e+02
2.910966094410571827e+02
2.903746346328975960e+02
2.896386338319056222e+02
2.888887575854102465e+02
2.881252317144053450e+02
2.873482318574415331e+02
2.865579838355125162e+02
2.857545880135044172e+02
2.849383203948540313e+02
2.841093064356689410e+02
2.832677719569429087e+02
2.824138675060050332e+02
2.815478439950705933e+02
2.806698017890257120e+02
2.797799918000856110e+02
2.788785896668009627e+02
2.779657459365009231e+02
2.770417115214007708e+02
2.761066118776080884e+02
2.751606728261166381e+02
2.742040700054770923e+02
2.732369790542400665e+02
2.722596007021778064e+02
2.712721607702840174e+02
2.702749603532170681e+02
2.692683507280781896e+02
2.682526329895258073e+02
2.672282587795472750e+02
2.661954790103578716e+02
2.651546951415020317e+02
2.641062082676380101e+02
2.630504198483101845e+02
2.619876058869554072e+02
2.609181678431180558e+02
2.598424569938994182e+02
2.587607744339578630e+02
2.576735216228377681e+02
2.565809745639758717e+02
2.554835347169166084e+02
2.543815282675398350e+02
2.532753315841683559e+02
2.521652457614605396e+02
2.510516471677391905e+02
2.499348619888841938e+02
2.488152665932184107e+02
2.476931620754000960e+02
2.465689248037521963e+02
2.454429060553759996e+02
2.443154320161513624e+02
2.431868790544011460e+02
2.420575482647836623e+02
2.409278160156217723e+02
2.397980335840168493e+02
2.386685522470702097e+02
2.375396730994401651e+02
2.364117976006711217e+02
2.352852268454213913e+02
2.341603622932353517e+02
2.330375050387713145e+02
2.319170063591305961e+02
2.307992175314145982e+02
2.296844647415031204e+02
2.285731494489405691e+02
2.274655727483852274e+02
2.263621110081599852e+02
2.252630402317016376e+02
2.241688120609975670e+02
2.230797024994846254e+02
2.219960628242641008e+02
2.209182694036589112e+02
2.198466484235488565e+02
2.187815511610353099e+02
2.177233038019980711e+02
2.166722576235384849e+02
2.156285631729857357e+02
2.145923960888904674e+02
2.135639069185818357e+02
2.125432211181674802e+02
2.115305143261980731e+02
2.105259119987812255e+02
2.095296399569106711e+02
2.085417483830294429e+02
2.075624630981313032e+02
2.065918970127130763e+02
2.056302257653254628e+02
2.046775873576868321e+02
2.037341448827370982e+02
2.028000363421946588e+02
2.018754248289994280e+02
2.009604483448697749e+02
2.000552699827456422e+02
1.991600402899561288e+02
1.982749223594412058e+02
1.974000541929192423e+02
1.965355737921085790e+02
1.956816818867814902e+02
1.948384537506024969e+02
1.940061152045653614e+02
1.931848042503884244e+02
1.923746337985685955e+02
1.915757543964350020e+02
1.907883793193705912e+02
1.900126089322614860e+02
1.892486314192691452e+02
1.884965596908903649e+02
1.877565568400651159e+02
1.870288110509548005e+02
1.863134101428348117e+02
1.856105673910880398e+02
1.849203706149898494e+02
1.842430456355339743e+02
1.835786928176065089e+02
1.829274877997581541e+02
1.822895685837072506e+02
1.816650857167829827e+02
1.810542022919252361e+02
1.804570688564631666e+02
1.798738108665044138e+02
1.793046415974319530e+02
1.787496488685210920e+02
1.782090208639332616e+02
1.776828955853868592e+02
1.771714235802110693e+02
1.766747177589027160e+02
1.761926903021864632e+02
1.757251781171224252e+02
1.752720557476029342e+02
1.748331977375204076e+02
1.744084409939349030e+02
1.739976475151280511e+02
1.736006918449922409e+02
1.732174234361982883e+02
1.728477042870278240e+02
1.724913963957624503e+02
1.721483617606837697e+02
1.718184498344626832e+02
1.715015226153807362e+02
1.711974421017196164e+02
1.709060828373716276e+02
1.706272817293968842e+02
1.703609133216877751e+02
1.701068396125259028e+02
1.698649226001928980e+02
1.696349991917488182e+02
1.694169439310860241e+02
1.692106188164861749e+02
1.690158858462308729e+02
1.688325819273801756e+02
1.686606066950480169e+02
1.684997970562944829e+02
1.683500150094011474e+02
1.682111225526496696e+02
1.680829691387108653e+02
1.679654293114771519e+02
1.678583525236193168e+02
1.677616007734190191e+02
1.676750486047686195e+02
1.675985329247282323e+02
1.675319282771901896e+02
1.674750841148253642e+02
1.674278875271369031e+02
1.673901628755741058e+02
1.673617847040293611e+02
1.673426150107842716e+02
1.673325157941204679e+02
1.673313365067087943e+02
1.673389516924416114e+02
1.673552108039898201e+02
1.673799632940241793e+02
1.674130962520479216e+02
1.674544465851210759e+02
1.675039013827467897e+02
1.675612724607636324e+02
1.676264594542855093e+02
1.676991863598756538e+02
1.677792399021510903e+02
1.678663566232857818e+02
1.679602981566752931e+02
1.680608135901043170e+02
1.681676771025791766e+02
1.682806001450523183e+02
1.683993819877515250e+02
1.685237466272400582e+02
1.686534682425241840e+02
1.687882833757778371e+02
1.689279536603966108e+02
1.690722407297759560e+02
1.692208811260898926e+02
1.693736490283446869e+02
1.695302809787143303e+02
1.696905637018158473e+02
1.698542086486017411e+02
1.700209899980782211e+02
1.701906442924193357e+02
1.703629582562420808e+02
1.705376684317204479e+02
1.707145364522499733e+02
1.708933114056154068e+02
1.710737423796014980e+02
1.712555784619929682e+02
1.714385938317961120e+02
1.716225375767956791e+02
1.718071462391656894e+02
1.719921814523015939e+02
1.721774048495989291e+02
1.723625655188424730e+02
1.725474376390384634e+02
1.727317452067501620e+02
1.729152498553730481e+02
1.730977132183026299e+02
1.732788843833237138e+02
1.734585249838317509e+02
1.736363841076115193e+02
1.738122108424477403e+02
1.739857668217359787e+02
1.741568136788717140e+02
1.743250754104181794e+02
1.744903387409924278e+02
1.746523402127683937e+02
1.748108540047524286e+02
1.749656041135076805e+02
1.751163647180404723e+02
1.752628723605247956e+02
1.754049388567991912e+02
1.755424011139237450e+02
1.756751462214016328e+02
1.758030738143467033e+02
1.759260835278728621e+02
1.760440499058725266e+02
1.761568600378488156e+02
1.762644135589156065e+02
1.763665850129652881e+02
1.764632740351117661e+02
1.765543677148581878e+02
1.766397531417076721e+02
1.767193299507741244e+02
1.767929726859499056e+02
1.768605809823489494e+02
1.769220293838636167e+02
1.769772300712185427e+02
1.770260450426953867e+02
1.770683864790187840e+02
1.771041289240810954e+02
1.771331720129962548e+02
1.771553902896566228e+02
1.771706833891760766e+02
1.771789509466685502e+02
1.771800549604156743e+02
1.771739076111420559e+02
1.771603959883508423e+02
1.771393820903236929e+02
1.771108031890067309e+02
1.770745087370708575e+02
1.770303858240191914e+02
1.769783591761871833e+02
1.769182907918563785e+02
1.768500677605299813e+02
1.767735897173218689e+02
1.766887437517351884e+02
1.765954169532730305e+02
1.764934964114385991e+02
1.763828817613457716e+02
1.762634475468868800e+02
1.761350934031758868e+02
1.759977064197159109e+02
1.758511736860100712e+02
1.756953822915615149e+02
1.755302193258733894e+02
1.753555844240595718e+02
1.751713521300124512e+02
1.749774220788459616e+02
1.747736813600631649e+02
1.745600170631672654e+02
1.743363664601044150e+02
1.741027546420961869e+02
1.738593196108608936e+02
1.736061115488416249e+02
1.733432433665352619e+02
1.730708154288278706e+02
1.727888904637732708e+02
1.724975939274791017e+02
1.721970136392206996e+02
1.718872248726626140e+02
1.715683405383017543e+02
1.712404359098026418e+02
1.709036238976621860e+02
1.705579672299341496e+02
1.702035913627262005e+02
1.698405590240921583e+02
1.694689956701395772e+02
1.690889640289223621e+02
1.687005644653265506e+02
1.683039098898490238e+02
1.678990755761543596e+02
1.674861367979071076e+02
1.670652315568256938e+02
1.666364225809639095e+02
1.661997976895971192e+02
1.657554572476113606e+02
1.653035141655035716e+02
1.648440311713275150e+02
1.643771086299692854e+02
1.639028469063150339e+02
1.634213463652507983e+02
1.629326822804412132e+02
1.624369550167723162e+02
1.619342523935195004e+02
1.614246747755688318e+02
1.609083099821956750e+02
1.603852583782860961e+02
1.598555952375046729e+02
1.593194334703483150e+02
1.587768608960923018e+02
1.582279653340119978e+02
1.576728346033827393e+02
1.571115690690906490e+02
1.565442690960217647e+02
1.559710099578407210e+02
1.553918920194335840e+02
1.548070156456864765e+02
1.542164686558747348e+02
1.536203388692736667e+02
1.530187141051586366e+02
1.524117323652480422e+02
1.517995065600387079e+02
1.511822374193028509e+02
1.505600754903696554e+02
1.499332340486220119e+02
1.493018260045568582e+02
1.486660646335570846e+02
1.480261130285626621e+02
1.473821217369027181e+02
1.467342914883494700e+02
1.460827602846212585e+02
1.454277414011010876e+02
1.447693602938965682e+02
1.441078176927799177e+02
1.434432892363017800e+02
1.427759129261805526e+02
1.421058894921884530e+02
1.414333945728761535e+02
1.407585661699620232e+02
1.400816175588290093e+02
1.394026867411955379e+02
1.387219493556122814e+02
1.380395810406298835e+02
1.373557699804098320e+02
1.366706541766704390e+02
1.359844469047947371e+02
1.352972736208903086e+02
1.346093350547293710e+02
1.339207942992518383e+02
1.332318269930083829e+02
1.325425962289389190e+02
1.318532650999833606e+02
1.311640343359138967e+02
1.304750419384488964e+02
1.297864886373606055e+02
1.290985249799781514e+02
1.284113266048522064e+02
1.277250566049226848e+02
1.270399031643510170e+02
1.263560293760771316e+02
1.256736108786516866e+02
1.249928233106253685e+02
1.243138046737165610e+02
1.236367682433082393e+02
1.229618645667295311e+02
1.222892692825311087e+02
1.216191329380421422e+02
1.209516688086455929e+02
1.202870148960598300e+02
1.196253593844463126e+02
1.189668402755234098e+02
1.183115830253987468e+02
1.176596503621261434e+02
1.170111426505917080e+02
1.163661351644600046e+02
1.157247282686171275e+02
1.150870097823384270e+02
1.144530424336777088e+02
1.138229265875210814e+02
1.131967626087546250e+02
1.125746132254321736e+02
1.119565788024398216e+02
1.113427346134421185e+02
1.107331810233252014e+02
1.101279933057536340e+02
1.095272592800027383e+02
1.089310793109586371e+02
1.083395161266751217e+02
1.077526575464275425e+02
1.071706164807127521e+02
1.065934556575845704e+02
1.060212628963183334e+02
1.054541385618001499e+02
1.048921642004999484e+02
1.043354088132769562e+02
1.037839790378226326e+02
1.032379501478015698e+02
1.026974099624890897e+02
1.021624525739659077e+02
1.016331469830912368e+02
1.011095998275565364e+02
1.005918863810263986e+02
1.000800881899707662e+02
9.957429934647038294e+01
9.907460766980054245e+01
9.858110097923662352e+01
9.809385454844318986e+01
9.761295619669556345e+01
9.713850001607447382e+01
9.667057382585527137e+01
9.620925289970250560e+01
9.575463132969690605e+01
9.530679066230842977e+01
9.486583126242318542e+01
9.443180958528959934e+01
9.400485108701528247e+01
9.358499967723791713e+01
9.317238081206512845e+01
9.276705094674534280e+01
9.236911044616465460e+01
9.197862203837689776e+01
9.159556063216051314e+01
9.121986349946172368e+01
9.085149300344822620e+01
9.049040523448233841e+01
9.013652491889951079e+01
8.978982696547819842e+01
8.945024237335923090e+01
8.911773977851566997e+01
8.879225018008834525e+01
8.847373594124496776e+01
8.816214060673709696e+01
8.785740772131630649e+01
8.755950592095568652e+01
8.726837247760143157e+01
8.698395720881048021e+01
8.670621620494517856e+01
8.643508673795170694e+01
8.617053117099777637e+01
8.591249304883496052e+01
8.566092218902021216e+01
8.541577468191584899e+01
8.517699407227344466e+01
8.494452390484457283e+01
8.471833281560233786e+01
8.449835807649289166e+01
8.428454323226785050e+01
8.407685064609488279e+01
8.387522386272559061e+01
8.367961269971689831e+01
8.348996697462577288e+01
8.330623650500916710e+01
8.312837738122939868e+01
8.295633314803804126e+01
8.279005362299204762e+01
8.262948862364837055e+01
8.247458796756394861e+01
8.232530147229574879e+01
8.218157895540070967e+01
8.204337650724116315e+01
8.191063139976328955e+01
8.178329972332943498e+01
8.166133756830193136e+01
8.154468847943232390e+01
8.143330227427759382e+01
8.132712249758928635e+01
8.122611151253514095e+01
8.113021286386668862e+01
8.103937636914091058e+01
8.095354557310935206e+01
8.087267029332899426e+01
8.079665016491370011e+01
8.072537227736664533e+01
8.065872372019093461e+01
8.059660412850048772e+01
8.053888804618766528e+01
8.048548765397714533e+01
8.043627122295590937e+01
8.039114466104324208e+01
8.034998878493691166e+01
8.031270322975079523e+01
8.027916881218267520e+01
8.024927889454104957e+01
8.022292683913444478e+01
8.019999973546600813e+01
8.018039094584423765e+01
8.016398755977228063e+01
8.015067666675328439e+01
8.014035790190114028e+01
8.013291835471899560e+01
8.012824511470996924e+01
8.012622527137720851e+01
8.012675845983460476e+01
8.012972549677994039e+01
8.013502601732709252e+01
8.014254711097919426e+01
8.015217586723940713e+01
8.016379937561085001e+01
8.017731727120742846e+01
8.019261664353227559e+01
8.020958458208853870e+01
8.022812072199012334e+01
8.024809960712937595e+01
8.026942087262021630e+01
8.029197788077117082e+01
8.031565772108535839e+01
8.034034748306594054e+01
8.036594052902141527e+01
8.039232394845491569e+01
8.041939737648036157e+01
8.044703535699011354e+01
8.047514379790347050e+01
8.050360978872355133e+01
8.053231414614812422e+01
8.056115650529108052e+01
8.059001768285017420e+01
8.061880358674470415e+01
8.064738876086703101e+01
8.067567284033104613e+01
8.070354918744529016e+01
8.073089861890751706e+01
8.075767095227466541e+01
8.078379718668753640e+01
8.080921459409233876e+01
8.083386044643523860e+01
8.085767828846782379e+01
8.088059911933088131e+01
8.090257275658137814e+01
8.092353019936011549e+01
8.094340871961327366e+01
8.096215186209242631e+01
8.097969689874376797e+01
8.099598110151346475e+01
8.101094174234773959e+01
8.102451609319274439e+01
8.103665397160544615e+01
8.104727383111588779e+01
8.105633176208641544e+01
8.106376503646318099e+01
8.106950465338701406e+01
8.107348788480410917e+01
8.107565827546601156e+01
8.107595937012432330e+01
8.107432216791981716e+01
8.107067766799330855e+01
8.106498196070714357e+01
8.105716604520210922e+01
8.104716719342441422e+01
8.103492267732022469e+01
8.102036976883573516e+01
8.100345828552791261e+01
8.098411295373215069e+01
8.096227731820005147e+01
8.093789492368316019e+01
8.091090304212767137e+01
8.088123267267438621e+01
8.084882736007489257e+01
8.081362437627535655e+01
8.077556099322197269e+01
8.073458075566630043e+01
8.069061466274916938e+01
8.064361880483289724e+01
8.059350536264214782e+01
8.054023042653925302e+01
8.048373754127577229e+01
8.042394516038176278e+01
8.036080310141417726e+01
8.029425490912456098e+01
8.022423785545912267e+01
8.015067666675328439e+01
8.007353997898013631e+01
7.999283406494507176e+01
7.990859028867497216e+01
7.982082746858600331e+01
7.972957696870506084e+01
7.963485760744828212e+01
7.953671329445334948e+01
7.943515657533103536e+01
7.933022508691360031e+01
7.922193764761719592e+01
7.911031934866335291e+01
7.899540155407898112e+01
7.887720935508559705e+01
7.875577411571011055e+01
7.863112092717405233e+01
7.850327488069893889e+01
7.837225479470090761e+01
7.823810457881764080e+01
7.810083677865989671e+01
7.796048275825458518e+01
7.781707388162860184e+01
7.767063524000347741e+01
7.752118565179536347e+01
7.736875648103115566e+01
7.721337909173776382e+01
7.705508484794209778e+01
7.689388002244952247e+01
7.672981479770311353e+01
7.656290171931361499e+01
7.639317215130793670e+01
7.622065118490760938e+01
7.604536391133414952e+01
7.586734796741986031e+01
7.568662217158085070e+01
7.550320534223331492e+01
7.531714138901487843e+01
7.512844285753631368e+01
7.493714111182454474e+01
7.474326751590646722e+01
7.454684716100359765e+01
7.434789886553208760e+01
7.414646026632424025e+01
7.394255018179616457e+01
7.373620624878017793e+01
7.352744101288702439e+01
7.331629211094899290e+01
7.310277836138223506e+01
7.288693740101903984e+01
7.266878177547016548e+01
7.244834912156790097e+01
7.222567080333915612e+01
7.200079700322697818e+01
7.177380299489593085e+01
7.154473896078907558e+01
7.131367390176559695e+01
7.108066427307394974e+01
7.084577280276791100e+01
7.060906849170670796e+01
7.037061406794413188e+01
7.013046598672862331e+01
6.988868697611398773e+01
6.964534603695942394e+01
6.940049962451335830e+01
6.915421046682961048e+01
6.890654129196198596e+01
6.865756110076968355e+01
6.840731380289037133e+01
6.815588721759938551e+01
6.790333152733977329e+01
6.764970318735997523e+01
6.739507119851916173e+01
6.713949828887118088e+01
6.688304718646980973e+01
6.662577434656350306e+01
6.636775504281683880e+01
6.610903945767284995e+01
6.584969031918534199e+01
6.558977662821354215e+01
6.532935484000584836e+01
6.506850022822685276e+01
6.480725670251422343e+01
6.454569953653252412e+01
6.428389145833558871e+01
6.402188265036643600e+01
6.375974211348428611e+01
6.349753884854832364e+01
6.323533558361236118e+01
6.297318250111945304e+01
6.271114860192878382e+01
6.244929661409416610e+01
6.218769553847480580e+01
6.192639555751374303e+01
6.166546567207016949e+01
6.140496861019790487e+01
6.114496709995076174e+01
6.088551759657716644e+01
6.062668910093631069e+01
6.036854434108201417e+01
6.011113977226270322e+01
5.985454439533756954e+01
5.959881466555505369e+01
5.934400076535819579e+01
5.909015914999542929e+01
5.883732745629904315e+01
5.858556841232284995e+01
5.833491965489913866e+01
5.808543763927633563e+01
5.783716627509211605e+01
5.759015574478952004e+01
5.734445623081160903e+01
5.710011791560143024e+01
5.685719098160202378e+01
5.661571933845107196e+01
5.637575944139699402e+01
5.613734892727208603e+01
5.590055052413016057e+01
5.566540186880349950e+01
5.543196568934591539e+01
5.520027334978432521e+01
5.497038757817252730e+01
5.474235855695357600e+01
5.451621765015438115e+01
5.429203385863413445e+01
5.406985109203049689e+01
5.384971325998115077e+01
5.363167681773452244e+01
5.341577940212290088e+01
5.320207746839470531e+01
5.299062747179838340e+01
5.278146704916620990e+01
5.257464951934393582e+01
5.237022506477460126e+01
5.216824073149857810e+01
5.196874983836158890e+01
5.177179315859862641e+01
5.157742714745811696e+01
5.138569571457773577e+01
5.119665531520590207e+01
5.101035299538298062e+01
5.082682952834394996e+01
5.064614764214262266e+01
5.046834183720859812e+01
5.029346856879029559e+01
5.012158115573347317e+01
4.995272350767579184e+01
4.978694267065760926e+01
4.962429196352466221e+01
4.946481843231732256e+01
4.930857853228400955e+01
4.915560676385432259e+01
4.900594703666592977e+01
4.885953975906771518e+01
4.871632847581124537e+01
4.857624418603732863e+01
4.843921788888675906e+01
4.830518685630573827e+01
4.817408208743506748e+01
4.804583458141554786e+01
4.792038474659607061e+01
4.779765417290935403e+01
4.767759267791236510e+01
4.756012185153782212e+01
4.744517269292654049e+01
4.733269188323278343e+01
4.722260414879196588e+01
4.711484048874489616e+01
4.700934131144045836e+01
4.690603447961677119e+01
4.680485726522000789e+01
4.670574380379367341e+01
4.660862195807588648e+01
4.651342900001283454e+01
4.642010220155069788e+01
4.632857256183029193e+01
4.623876167078434207e+01
4.615062248237249065e+01
4.606407972293017394e+01
4.597906125519549647e+01
4.589551062392002478e+01
4.581335569184188472e+01
4.573253059450456703e+01
4.565296946745156959e+01
4.557460644622639023e+01
4.549736939356714771e+01
4.542120185422540146e+01
4.534602855453658066e+01
4.527178990284956939e+01
4.519841376190247928e+01
4.512583426723880109e+01
4.505399182720742601e+01
4.498281116814376901e+01
4.491222328918863838e+01
4.484217487149629733e+01
4.477258750499947837e+01
4.470340159804705849e+01
4.463455128618253553e+01
4.456596129574133158e+01
4.449757203507233072e+01
4.442931763971902370e+01
4.436112910882221883e+01
