# bin_1
0.000000000000000000e+00
3.397059667870877542e-01
4.436677334141206908e-01
5.686744518378126223e-01
7.162179359641237530e-01
8.874088562989695950e-01
1.082959754444085432e+00
1.303195870412900081e+00
1.548087925432390488e+00
1.817299229475393574e+00
2.110239349443904455e+00
2.426117734149994654e+00
2.763992589510493758e+00
3.122812361442554252e+00
3.501448978153818281e+00
3.898723291094266852e+00
4.313423887989640271e+00
4.744320717673648602e+00
5.190174911648282929e+00
5.649745960569882541e+00
6.121797121941532360e+00
6.605099671290051155e+00
7.098436397186767444e+00
7.600604587774465237e+00
8.110418655472562577e+00
8.626712484436939832e+00
9.148341549562855946e+00
9.674184836356896966e+00
1.020314658091245974e+01
1.073415784408692986e+01
1.126617793119552324e+01
1.179819566668922803e+01
1.232923053169224659e+01
1.285833367071038147e+01
1.338458877232604749e+01
1.390711282743938249e+01
1.442505676779381396e+01
1.493760598727524069e+01
1.544398074881971539e+01
1.594343648060477747e+01
1.643526396633218312e+01
1.691878943558264581e+01
1.543353161560056370e-04
1.406602692869768031e-04
1.265614462786556827e-04
1.124349110104776823e-04
9.863648848975947519e-05
8.546635131008604102e-05
7.315984723095533631e-05
6.188438850707055517e-05
5.174161709601766192e-05
4.277367119330521827e-05
3.497221157955265522e-05
2.828889086841631989e-05
2.264611456754270832e-05
1.794719286645688792e-05
1.408526323439703472e-05
1.095063409815191414e-05
8.436430729752121427e-06
6.442601272554162314e-06
4.878460199003676233e-06
3.664013182539276390e-06
2.730330928720430211e-06
2.019231407989367283e-06
1.482501404531878250e-06
1.080849025171674471e-06
7.827362882596516645e-07
5.632003227017291741e-07
4.027361708616794127e-07
2.862851661458375194e-07
2.023506072206415614e-07
1.422464653507232642e-07
9.947421004320892610e-08
6.921643535965243163e-08
4.793274797092363752e-08
3.304239233947543779e-08
2.267856046939653217e-08
1.550066307625300560e-08
1.055258928330911986e-08
7.156855193868622305e-09
4.836349695438738395e-09
3.257022059596771437e-09
2.186271126240151863e-09
1.462978700652104369e-09
9.760917656626723708e-10
6.494230037851941395e-10
4.309357812137138738e-10
2.852375240730462851e-10
1.883515672756068680e-10
1.240959310140152314e-10
8.158810726579990965e-11
5.353410980746429272e-11
3.506067622174356264e-11
2.292164371626534895e-11
1.496080868062620625e-11
9.749775973838322756e-12
6.344673358684033462e-12
4.123274210431093321e-12
2.676302721509707542e-12
1.735116420399904764e-12
1.123728153408707747e-12
7.270589137800443397e-13
4.699926384206469807e-13
3.035711993711360140e-13
1.959349252532367399e-13
1.263797391463336883e-13
8.146831749312648032e-14
5.248993160258902755e-14
3.380402652583517198e-14
2.176176874858142815e-14
1.400491373663116234e-14
9.010592836234714668e-15
5.796131448480471976e-15
3.727858046297588775e-15
2.397398652938011184e-15
1.541712952973732293e-15
9.914503347649670844e-16
6.376224465690399513e-16
4.101112372955774902e-16
2.638181599790124556e-16
1.697428312378918047e-16
1.092395829017859789e-16
7.032146212575375889e-17
4.528264658141831179e-17
2.916942847686209388e-17
1.879714103941227962e-17
1.211820820063384740e-17
7.815956816799228229e-18
5.043556373991785102e-18
3.256236351698136831e-18
2.103449490147333001e-18
1.359557878926397833e-18
8.792747471416326274e-19
5.690155868906806721e-19
3.684743985515103057e-19
2.387726411481571331e-19
1.548338719465317583e-19
1.004757423685431083e-19
6.524986103591208547e-20
4.240626052937439450e-20
2.758169270932342317e-20
1.795397372452002942e-20
1.169652414043634594e-20
7.626356935793031796e-21
4.976782781362900951e-21
3.250561348491228400e-21
2.124969699706103130e-21
1.390394655172468675e-21
9.105848255220926315e-22
5.969052859166908319e-22
3.916504233801893245e-22
2.572202422462248465e-22
1.690947069908285414e-22
1.112699607103716369e-22
7.329146424479236028e-23
4.832375489306075714e-23
3.189361967287354204e-23
2.107107323584680609e-23
1.393518860849524249e-23
9.225413494619523926e-24
6.113766992585577649e-24
4.055879571648153667e-24
2.693501633854152962e-24
1.790639601121339012e-24
1.191682157024550871e-24
7.939193719368717993e-25
5.294906766188921868e-25
3.535153593180668101e-25
2.362807062759879946e-25
1.580956959676494691e-25
1.058974060265517871e-25
7.101100037627646634e-26
4.766969692579075884e-26
3.203589762974854377e-26
2.155312894422976919e-26
1.451656099146741243e-26
9.788093226069778407e-27
6.607151027342619691e-27
4.464911918560647123e-27
3.020610473866602410e-27
2.045786290697539158e-27
1.387107014276823133e-27
9.415517558696401931e-28
6.398279800978217727e-28
4.352785341253838551e-28
2.964533578527428628e-28
2.021299320189302483e-28
1.379716868715494720e-28
9.428319448420499617e-29
6.450054523153826530e-29
4.417504584351864126e-29
3.028829565772060145e-29
2.079009537429165360e-29
1.428635702516994163e-29
9.828095841293780581e-30
6.768611231391551636e-30
4.666716767939415372e-30
3.221100923013210923e-30
2.225755806552703604e-30
1.539679123169449700e-30
1.066256354693516149e-30
7.392216827126642842e-31
5.130560193166884684e-31
3.564765392219185594e-31
2.479546191623140747e-31
1.726583188866704461e-31
1.203582320231587327e-31
8.399162313372078611e-32
5.867686368258650303e-32
4.103622312649411697e-32
2.873004060748983870e-32
2.013595486087010505e-32
1.412778525663494870e-32
9.922943404951282357e-33
6.977023671855916304e-33
4.910907843107072253e-33
3.460301221518044203e-33
2.440760496486964748e-33
1.723431967277556209e-33
1.218202260059253062e-33
8.619845340700450083e-34
6.105663713469050880e-34
4.329304378095908214e-34
3.072937123713278905e-34
2.183423620899527516e-34
1.552993212842112105e-34
1.105724073384959277e-34
7.880758912724478274e-35
5.622530106762729120e-35
4.015470098106109863e-35
2.870649944602550264e-35
2.054289628935526139e-35
1.471563674160613281e-35
1.055190158896188533e-35
7.573820785018629015e-36
5.441645627993596964e-36
3.913584712429373831e-36
2.817388747986425337e-36
2.030227294265985368e-36
1.464423487031427938e-36
1.057331394132404717e-36
7.641458554470259624e-37
5.527902290167436231e-37
4.002779608899016655e-37
2.901205436129584962e-37
2.104791218861853376e-37
1.528451105506226124e-37
1.110975060949698524e-37
8.082869087395618335e-38
5.886179402813517902e-38
4.290485085772175733e-38
3.130274950645906739e-38
2.285914569291114833e-38
1.670848825104404427e-38
1.222396794757153182e-38
8.951243264430193506e-39
6.560680058499322115e-39
4.812901010135149652e-39
3.533912558673975318e-39
2.597130057545467975e-39
1.910376014870897565e-39
1.406466865093471503e-39
1.036391578120412722e-39
7.643639575347106821e-40
5.642307036390527898e-40
4.168613752145800729e-40
3.082501265581339962e-40
2.281338744221656397e-40
1.689854988539458869e-40
1.252796395579753855e-40
9.295680670394700987e-41
6.903189459665721831e-41
5.130793549533593728e-41
3.816661957176845763e-41
2.841486013079837524e-41
2.117231199527199797e-41
1.578884105844791042e-41
1.178391765286183524e-41
8.802071676300247219e-42
6.580124938844932750e-42
4.923066496932207661e-42
3.686276244961288314e-42
2.762415243032440857e-42
2.071749555097706936e-42
1.555002385329446391e-42
1.168069508650016326e-42
8.781090474306662042e-43
6.606457920609321589e-43
4.974250772103776953e-43
3.748208928495700844e-43
2.826541415674669770e-43
2.133146606650384445e-43
1.611084025825597408e-43
1.217716432346788104e-43
9.210919525381910128e-44
6.972475863149155087e-44
5.281978525626160934e-44
4.004333115748317589e-44
3.037988348679244139e-44
2.306549262180575128e-44
1.752501847128078986e-44
1.332539372949391732e-44
1.013952526527296006e-44
7.720929935457218056e-45
5.883482117179161977e-45
4.486529478500632532e-45
3.423704756472469676e-45
2.614509457487077812e-45
1.997978003194394859e-45
1.527904510253109727e-45
1.169244148821660567e-45
8.953980478786596037e-46
6.861633175117403583e-46
5.261841268916992876e-46
4.037805213709995073e-46
3.100622196342986546e-46
2.382575661132852968e-46
1.832050394118714084e-46
1.409676647679845121e-46
1.085404172858741139e-46
8.362803327424103780e-47
6.447616896855932618e-47
4.974300843953624927e-47
3.840156251219151506e-47
2.966527090208029837e-47
2.293131043169842558e-47
1.773736586059809430e-47
1.372864390783435103e-47
1.063268627272835618e-47
8.240124735257601688e-48
6.389966617660795766e-48
4.958336618312751545e-48
3.849857406910827862e-48
2.991046125398772087e-48
2.325251984068964212e-48
1.808772756242381687e-48
1.407873695182783661e-48
1.096497689832774536e-48
8.545052426560551318e-49
6.663208106024234667e-49
5.198910202406858865e-49
4.058823931258982213e-49
3.170631258838339824e-49
2.478263997072683892e-49
1.938225883749999855e-49
1.516753101735486064e-49
1.187620740707628882e-49
9.304472113019310352e-50
7.293827661149375229e-50
5.720944937835444555e-50
4.489802870347600017e-50
3.525597618688414296e-50
2.770020081108017748e-50
2.177592121287466699e-50
1.712822468218914536e-50
1.347997596609023719e-50
1.061464805849444255e-50
8.362970489799115441e-51
6.592540231585388733e-51
5.199733130119058083e-51
4.103402794937437042e-51
3.239969108491471027e-51
2.559587697194540308e-51
2.023160749824653927e-51
1.600003061126690317e-51
1.266018644797127232e-51
1.002275423067534121e-51
7.938904616457272795e-52
6.291576024985060045e-52
4.988644079584951342e-52
3.957570386199543011e-52
3.141207956993744044e-52
2.494511476739530647e-52
1.981955817831073478e-52
1.575509227815260485e-52
1.253041151909367467e-52
9.970708155934092916e-53
7.937831125060079361e-53
6.322542897643054838e-53
5.038423832424006585e-53
4.017070968504895958e-53
3.204314398890068203e-53
2.557234003445960110e-53
2.041806020583727969e-53
1.631045526428696612e-53
1.303539573049280304e-53
1.042288233962620432e-53
8.337884591850486181e-54
6.673095032452550339e-54
5.343195784309314416e-54
4.280319439196230706e-54
3.430453716233110535e-54
2.750592248199468294e-54
2.206475540420307463e-54
1.770798977170876812e-54
1.421790620811571597e-54
1.142081944991893704e-54
9.178107316935946217e-55
7.379080587944019191e-55
5.935313301821530205e-55
4.776132202979483105e-55
3.845137804386843992e-55
3.096969337309817325e-55
2.495458588244067048e-55
2.011644977899164787e-55
1.622328749114092064e-55
1.308916679101031921e-55
1.056500747246766647e-55
8.531224065179848569e-56
6.891848001047737946e-56
5.569829600982933699e-56
4.503281366106841465e-56
3.642472619663332894e-56
2.947424150974413045e-56
2.385982216585341329e-56
1.932275684758793637e-56
1.565479558230900308e-56
1.268823599764922264e-56
1.028797127139832425e-56
8.345108828333159038e-57
6.771847301762194952e-57
5.497361883362998109e-57
4.464498159310938297e-57
3.627114440009219699e-57
2.947944476310587578e-57
2.396877941374555931e-57
1.949576437544248454e-57
1.586359091938312462e-57
1.291304853705390959e-57
1.051529054451972512e-57
8.566001631738797491e-58
6.980693745297978648e-58
5.690910469577530293e-58
4.641163204346385093e-58
3.786457047541458104e-58
3.090292075964333832e-58
2.523048029819727270e-58
2.060678334087719548e-58
1.683653798880439429e-58
1.376107927287300270e-58
1.125145079626810099e-58
9.202802437049019354e-59
7.529851993909697702e-59
6.163207294960040446e-59
5.046384477964585147e-59
4.133389739094568225e-59
3.386757319947905370e-59
2.775957051716074084e-59
2.276101359143909131e-59
1.866895015859222921e-59
1.531781756449226680e-59
1.257250588054322282e-59
1.032271706673050795e-59
8.478376341464881519e-60
6.965898113782941371e-60
5.725146216904505536e-60
4.706958445717874229e-60
3.871129909902628476e-60
3.184769570738487965e-60
2.620960422578359703e-60
2.157666827649756949e-60
1.776843095507332670e-60
1.463705984978947020e-60
1.206140775939796128e-60
9.942162173033553431e-61
8.197882543361019631e-61
6.761761735572683817e-61
5.578978396737000509e-61
4.604531679070650675e-61
3.801469834165413165e-61
3.139440538013458206e-61
2.593504110334658801e-61
2.143161625207923116e-61
1.771558735134654156e-61
1.464833222254661048e-61
1.211580152928882626e-61
1.002413292583411386e-61
8.296053375750142791e-62
6.867927032625815104e-62
5.687332053349750819e-62
4.711070928520665785e-62
3.903536243775091837e-62
3.235367946417725810e-62
2.682349766996984643e-62
2.224501910578950431e-62
1.845334874712668611e-62
1.531235586144752915e-62
1.270962233726349200e-62
1.055228420687815131e-62
8.763607369669680464e-63
7.280167014910418120e-63
6.049523595129612665e-63
5.028307346340899257e-63
4.180639053031920821e-63
3.476827637130529643e-63
2.892295721255914736e-63
2.406692994439835447e-63
2.003164334552635425e-63
1.667745495193628765e-63
1.388863974585450938e-63
1.156926637372182736e-63
9.640159645041663768e-64
8.034849292627105316e-64
6.698626879678769910e-64
5.586088688190034572e-64
4.659542712125436937e-64
3.887690183939982941e-64
3.244534009750719578e-64
2.708474804659630017e-64
2.261562074186499050e-64
1.888873739120725145e-64
1.578001861895694996e-64
1.318626277592251734e-64
1.102161005606867580e-64
9.214609371243158186e-65
7.705784561078385935e-65
6.445614376609261211e-65
5.392855432725074438e-65
4.513149519571564810e-65
3.777866743952553187e-65
3.163144307546990710e-65
2.649087623399023008e-65
2.219106176442282187e-65
1.859361254603878628e-65
1.558306584984421803e-65
1.306306145568901467e-65
1.095316103203147249e-65
9.186200491936284468e-66
7.706085441992365763e-66
6.465955096272497423e-66
5.426652677105719599e-66
4.555450816192784539e-66
3.824989173966507357e-66
3.212388718493894499e-66
2.698513101250953742e-66
2.267352545615349089e-66
1.905509798717748298e-66
1.601771132234275712e-66
1.346748232023560921e-66
1.132579188958808801e-66
9.526787757580147019e-67
8.015298349261954245e-67
6.745089673861514706e-67
5.677408466589201317e-67
4.779764283066907857e-67
4.024911109043471807e-67
3.389995597556474469e-67
2.855844500683197677e-67
2.406368407578632363e-67
2.028062687493951272e-67
1.709589693000616879e-67
1.441428910304469976e-67
1.215583938156447016e-67
1.025337007467468126e-67
8.650432810783758532e-68
7.299584477634758347e-68
6.160941885353497034e-68
5.200969816893271134e-68
4.391464549465107504e-68
3.708701128142412001e-68
3.132717851202804822e-68
2.646715754562778118e-68
2.236554500441949235e-68
1.890329100353086916e-68
1.598014432395691487e-68
1.351166629141013296e-68
1.142672183167702296e-68
9.665370992892040805e-69
8.177096630995144166e-69
6.919314341997624164e-69
5.856119424067083689e-69
4.957232939706369898e-69
4.197115054128920039e-69
3.554218942939226547e-69
3.010362851572566176e-69
2.550201485262714748e-69
2.160780924257791342e-69
1.831163788794281624e-69
1.552113500812684482e-69
1.315828270517712756e-69
1.115716930886650680e-69
9.462099983345968697e-70
8.026003916878158665e-70
6.809091268209721842e-70
5.777720479608961857e-70
4.903442815130676890e-70
4.162196234210651483e-70
3.533625125209167957e-70
3.000506135232262878e-70
2.548263453979597277e-70
2.164559534951119188e-70
1.838949446289984089e-70
1.562588902357508067e-70
1.327987591643043246e-70
1.128800733671993515e-70
9.596529065605017051e-71
8.159891208277774460e-71
6.939489018092973434e-71
5.902598058473684028e-71
5.021473540050191460e-71
4.272588378406578926e-71
3.636162296177653083e-71
3.095043420021806400e-71
2.634882046631638449e-71
2.243500758173361435e-71
1.910563775837590435e-71
1.627296919018765413e-71
1.386250381952146935e-71
1.181097744908744664e-71
1.006465654760177180e-71
8.577894692133297663e-72
7.311908850272442176e-72
6.233741838986741741e-72
5.315382480169938735e-72
4.533019353530758254e-72
3.866407750592032966e-72
3.298332564513878100e-72
2.814152498143113903e-72
2.401413212102783578e-72
2.049518929196909462e-72
1.749453614328319917e-72
1.493544205635594483e-72
1.275259520726109423e-72
1.089039433899337879e-72
9.301497432830036168e-73
7.945588438123376502e-73
6.788329123646649606e-73
5.800468115235265517e-73
4.957083422452679356e-73
4.236938348632933694e-73
3.621933722979494852e-73
3.096641974316092700e-73
2.647910754481783377e-73
2.264525675284228279e-73
1.936923297126599922e-73
1.656946842915590851e-73
1.417638244027648794e-73
1.213061086767045976e-73
1.038149843994498270e-73
8.885814695424055004e-74
7.606660213875589400e-74
6.512534791931245757e-74
5.576543462043732016e-74
4.775719859866663128e-74
4.090449507914916841e-74
3.503978186214102313e-74
3.001992772830092809e-74
2.572263817665908883e-74
2.204340711670546315e-74
1.889291673090061431e-74
1.619481928568511756e-74
1.388384450362017916e-74
1.190418447578668975e-74
1.020811521245652634e-74
8.754819988146188011e-75
7.509384793514595871e-75
6.441940595930353123e-75
5.526930847721868871e-75
4.742485863393577328e-75
4.069888397366941721e-75
3.493117062370565096e-75
2.998456195357713762e-75
2.574162453579265836e-75
2.210179851516011267e-75
1.897896166517895921e-75
1.629934678554749064e-75
1.399976094058730544e-75
1.202606258119576009e-75
1.033185902552981441e-75
8.877392260331518468e-76
7.628585705309791359e-76
6.556228576422675445e-76
5.635277891528556613e-76
4.844261070145775041e-76
4.164764561409147249e-76
3.580996053500858320e-76
3.079409627207343846e-76
2.648384761339823606e-76
2.277951417340993709e-76
1.959554557556578539e-76
1.685852414574104556e-76
1.450543651766130286e-76
1.248219258226251695e-76
1.074235622153759770e-76
9.246057403418462598e-77
7.959059604961670509e-77
6.851960285161819012e-77
5.899505338896034511e-77
5.080001208961315414e-77
4.374810681500635723e-77
3.767920399023248793e-77
3.245569844023099856e-77
2.795933016954527234e-77
2.408845291015735854e-77
2.075569003528078039e-77
1.788592265937189806e-77
1.541456264030479276e-77
1.328606996044227683e-77
1.145267975300110392e-77
9.873309198874159779e-78
8.512618766684547183e-78
7.340624740572330941e-78
6.330635456006755410e-78
5.460165682290715516e-78
4.709863912695726109e-78
4.063073789699954795e-78
3.505457171407315443e-78
3.024670138212231981e-78
2.610084472276042712e-78
2.252548200307833252e-78
1.944179697485043479e-78
1.678190628702772403e-78
1.448733671099284377e-78
1.250771534752898361e-78
1.079964290117455435e-78
9.325724327137375851e-79
8.053734777876613863e-79
6.955901885495997751e-79
6.008288085404993614e-79
5.190258978641131956e-79
4.484025698440145300e-79
3.874250937001021961e-79
3.347709740302488768e-79
2.892997426108302451e-79
2.500278051837599667e-79
2.161067779742443096e-79
1.868048278037640948e-79
1.614905976642634071e-79
1.396193580681271754e-79
1.207210747328220750e-79
1.043901263562597084e-79
9.027644337942102963e-80
7.807787057266061251e-80
6.753358374903331275e-80
5.841841453408926944e-80
5.053795744389406064e-80
4.372435100702765657e-80
3.783263970904732231e-80
3.273763648215023388e-80
2.833121660251518567e-80
2.451998344509769369e-80
2.122325479857889618e-80
1.837132554738282720e-80
1.590396864426840069e-80
1.376914156358187572e-80
1.192186996047605212e-80
1.032328416728138967e-80
8.939787522326272704e-81
7.742338424472606634e-81
6.705830503080294717e-81
5.808557444127088012e-81
5.031750866586717786e-81
4.359181240382529777e-81
3.776813213757464887e-81
3.272507904384135682e-81
2.835765731319564281e-81
2.457504246622160589e-81
2.129866185706115840e-81
1.846053611009840290e-81
1.600184588875558591e-81
1.387169327074715030e-81
1.202603120941114308e-81
1.042673818826642090e-81
9.040818305384342733e-82
7.839709724273974712e-82
6.798686757733099170e-82
5.896342861658636383e-82
5.114143550927117936e-82
4.436039747088941259e-82
3.848133360361066723e-82
3.338388024410998969e-82
2.896378865935710373e-82
2.513076022967522578e-82
2.180657344252419603e-82
1.892346322432508265e-82
1.642271849617181921e-82
1.425346846748688818e-82
1.237163217985952619e-82
1.073900926736965656e-82
9.322492883967777307e-83
8.093388327179270935e-83
7.026823115698395494e-83
6.101236204295042720e-83
5.297935683897329543e-83
4.600715753498281025e-83
3.995524994252455662e-83
3.470179051401817263e-83
3.014111759341187330e-83
2.618159549010614959e-83
2.274374671976412665e-83
1.975863376748182352e-83
1.716645692877837426e-83
1.491533928152976005e-83
1.296027373285211866e-83
1.126221045100793069e-83
9.787265904702075705e-84
8.506037252153115027e-84
7.393008002913903060e-84
6.426032762643157191e-84
5.585890504305431025e-84
4.855897223072818867e-84
4.221849711205359433e-84
3.670822581608663875e-84
3.191914318825949570e-84
2.775659084061823284e-84
2.413837078573756039e-84
2.099310032369382456e-84
1.825878478939610070e-84
1.588157921970203407e-84
1.381471385639629548e-84
1.201756174216905453e-84
1.045482956130358962e-84
9.095855384816098144e-85
7.913999153001816217e-85
6.886113611604124416e-85
5.992085049959450124e-85
5.214434604039543811e-85
4.537972113445115368e-85
3.949495584265656008e-85
3.437530231121881589e-85
2.992101870539717927e-85
2.604540130426282246e-85
2.267307540985763052e-85
1.973851093216709998e-85
1.718473302780067413e-85
1.496220208741901637e-85
1.302784076458159814e-85
1.134418868576528471e-85
9.878668037943729584e-86
8.602945448067070170e-86
7.492377493115764231e-86
6.525528849098899635e-86
5.683753536202255627e-86
4.950830974591465034e-86
4.312649656539373955e-86
3.756932187567121271e-86
3.272996271298022532e-86
2.851546926247922474e-86
2.484495842188988060e-86
2.164804321472974297e-86
1.886346717579293333e-86
1.643791688534593786e-86
1.432498934860579241e-86
1.248429397384016181e-86
1.088067155714336432e-86
9.483514987551856972e-87
8.266178388757719730e-87
7.205463153184201699e-87
6.281170835250523105e-87
5.475714183387351808e-87
4.773778730865959565e-87
4.162028356410358227e-87
3.628849086595493547e-87
3.164126160224651192e-87
2.759050025077866346e-87
2.405947502497817407e-87
2.098134846396831407e-87
1.829789850146390102e-87
1.595840525870156205e-87
1.391868203215552843e-87
1.214023175099480183e-87
1.058951261716059877e-87
9.237298760629584899e-88
8.058123585534943382e-88
7.029795085485190229e-88
6.132973800140648543e-88
5.350805297193571574e-88
4.668600118048622700e-88
4.073555042392464075e-88
3.554510324371773030e-88
3.101738246845125479e-88
2.706758943695415365e-88
2.362179965227698571e-88
2.061556518485336875e-88
1.799269711773859483e-88
1.570420478519433779e-88
1.370737156533180026e-88
1.196494960641939653e-88
1.044445814562587139e-88
9.117572062619554381e-89
7.959589036951315033e-89
6.948965180945242445e-89
6.066910327999043383e-89
5.297035294963428028e-89
4.625044428674183992e-89
4.038467609838197643e-89
3.526426638975227219e-89
3.079431583464962379e-89
2.689203234525503338e-89
2.348518319119883366e-89
2.051074543885754701e-89
1.791372924490637506e-89
1.564615181568318968e-89
1.366614269861658732e-89
1.193716355850750511e-89
1.042732775749644124e-89
9.108806944423433079e-90
7.957313503106293610e-90
6.951649141210942578e-90
6.073311149156038034e-90
5.306148945699009760e-90
4.636413921650835904e-90
4.051361732643141869e-90
3.540265278707550998e-90
3.093758872295343190e-90
2.703665119765208660e-90
2.362843861058846816e-90
2.065060351157471519e-90
1.804870227287180161e-90
1.577519119993107456e-90
1.378855040082735086e-90
1.205251912231146003e-90
1.053542834230364797e-90
9.209618224030804293e-91
8.050929619914543284e-91
7.038260193666672038e-91
6.153176932791033019e-91
5.379577873479564191e-91
4.703396775439777558e-91
4.112345282740308779e-91
3.595687803247506841e-91
3.144044946768407212e-91
2.749221891962360625e-91
2.404058514379953158e-91
2.102298511293421529e-91
1.838475110830228272e-91
1.607811259890477686e-91
1.406132453172877027e-91
1.229790599318641560e-91
1.075597524109248387e-91
9.407668885907482353e-92
8.228634552791936545e-92
7.197587711145694470e-92
6.295924540973514267e-92
5.507383737570531930e-92
4.817751056954112382e-92
4.214601190764973899e-92
3.687072245766119553e-92
3.225668702200752337e-92
2.822089248295362084e-92
2.469076344796983495e-92
2.160284772048306792e-92
1.890166760117664733e-92
1.653871606363885803e-92
1.447157950108655212e-92
1.266317105749630963e-92
1.108106057927221825e-92
9.696888989938202063e-93
8.485856432919993070e-93
7.426274874567988456e-93
6.499177036056251015e-93
5.687974550322599300e-93
4.978159137628569106e-93
4.357041377206192213e-93
3.813522337126943649e-93
3.337893922613451584e-93
2.921664325462892997e-93
2.557405413658087854e-93
2.238619298942652513e-93
1.959621668488910813e-93
1.715439771104688109e-93
1.501723214332207147e-93
1.314665961112758225e-93
1.150938117690927752e-93
1.007626281813958527e-93
8.821813752870613222e-94
7.723730203920248070e-94
6.762496380536002603e-94
5.921035490822595608e-94
5.184404502336753045e-94
4.539527158428731247e-94
3.974960448532283531e-94
3.480690334259013837e-94
3.047953060802261577e-94
2.669078844354889411e-94
2.337355129435515888e-94
2.046906962448413253e-94
1.792592335911794897e-94
1.569910627148586651e-94
1.374922490717253915e-94
1.204179769752171373e-94
1.054664171388061831e-94
9.237336088391398080e-95
8.090752503230522913e-95
7.086644353538172190e-95
6.207287241572624487e-95
5.437164379778656559e-95
4.762691285127466652e-95
4.171974850812024678e-95
3.654602496787608130e-95
3.201457638896633337e-95
2.804558187054130542e-95
2.456915194690169081e-95
2.152409141772178305e-95
1.885681648715400137e-95
1.652040694010756358e-95
1.447377649419228695e-95
1.268094657400513835e-95
1.111041059881033239e-95
9.734577488056313872e-96
