# bin_6
0.000000000000000000e+00
1.868180250416964015e-75
4.577529544808918879e-72
4.892269998099644475e-69
3.232073570849456890e-66
1.483326427456194163e-63
5.008646060999421580e-61
1.288481701132626530e-58
2.587206604085171529e-56
4.130283840545418266e-54
5.321093929115575409e-52
5.602333782810562798e-50
4.873667722448551372e-48
3.537632210294453119e-46
2.161655765638705718e-44
1.120986025802318826e-42
4.970584622236420730e-41
1.897727339909216010e-39
6.279237151812942249e-38
1.811674666825879166e-36
4.584077965391218314e-35
1.022775728855274814e-33
2.022536186158968547e-32
3.562163598228214308e-31
5.613579143610725373e-30
7.950263929889355618e-29
1.016140509110941340e-27
1.176752356785858003e-26
1.239433923567495235e-25
1.191628604099601680e-24
1.049394686140370466e-23
8.492810628175245583e-23
6.336505162431626539e-22
4.371650841932226129e-21
2.797007831143112929e-20
1.664164817490991513e-19
9.232191832321804574e-19
4.787652586589572672e-18
2.326525441357658429e-17
1.061879492074584598e-16
4.562456889494704373e-16
1.849325201140401871e-15
7.086250955026755942e-15
2.571999767901075290e-14
8.859419473416382082e-14
2.901457946330605665e-13
9.050449394576061946e-13
2.693418796554678609e-12
7.659963993838846479e-12
2.085073384969557467e-11
5.440578225881390924e-11
1.362796370561763789e-10
3.281625424733235657e-10
7.606886833890650550e-10
1.699618218821421380e-09
3.664953947031656026e-09
7.636338160201561365e-09
1.539250622150050764e-08
3.004908067932837684e-08
5.687528017361187112e-08
1.044822774387148067e-07
1.864784374776705004e-07
3.236728254699305602e-07
5.468714436699688287e-07
9.002454445512337638e-07
1.445155426904557108e-06
2.264194690432923059e-06
3.465077674084096166e-06
5.183865444816645687e-06
7.586911444023260111e-06
1.087085384561463224e-05
1.526000028223448791e-05
2.100056411650536188e-05
2.835142522034761781e-05
3.757139394079943181e-05
4.890333023417768637e-05
6.255587222839243105e-05
7.868391119861458673e-05
9.736926117774740721e-05
1.186031634421485576e-04
1.422723028447145117e-04
1.681498760013153018e-04
1.958929434426025251e-04
2.250468434123719383e-04
2.550568873264184833e-04
2.852869527955743099e-04
3.150440025924739255e-04
3.436070482865920153e-04
3.702586974886762903e-04
3.943172104078297084e-04
2.600597882273894612e+01
2.585014537843072091e+01
2.568541222484045505e+01
2.551211272983946543e+01
2.533058051218371887e+01
2.514114895044800235e+01
2.494415070627844955e+01
2.473991726251894363e+01
2.452877847709832793e+01
2.431106215378680702e+01
2.408709363103427847e+01
2.385719538915657267e+01
3.499935967488519879e-04
3.255375069884581976e-04
3.004027956803011754e-04
2.750781112021562051e-04
2.500012744562860067e-04
2.255513871825591218e-04
2.020444327724659405e-04
1.797320465288722736e-04
1.588030091330950005e-04
1.393869439344335977e-04
1.215596712576700738e-04
1.053496842367885092e-04
9.074525220825035022e-05
7.770172043095670581e-05
6.614865020459549140e-05
5.599652368081862970e-05
4.714281652139334900e-05
3.947731431769387663e-05
3.288661215325997715e-05
2.725778908317054292e-05
2.248129003293614808e-05
1.845307703370697986e-05
1.507613082721942693e-05
1.226139413037353023e-05
9.928250887858896195e-06
8.004633336943514443e-06
6.426842242710798447e-06
5.139156638281786159e-06
4.093299002178514555e-06
3.247810962408846934e-06
2.567384037622851474e-06
2.022180099664743630e-06
1.587167475404510844e-06
1.241491055901692986e-06
9.678884896176305293e-07
7.521594620353700715e-07
5.826911094054202347e-07
4.500396492477272485e-07
3.465661895485037605e-07
2.661232554137625769e-07
2.037877068611026843e-07
1.556352882806262931e-07
1.185519390574364096e-07
9.007711353557245355e-08
6.827463161513812248e-08
5.162694932144064229e-08
3.894915617905228665e-08
2.931943962955639466e-08
2.202318239116356368e-08
1.650826082880573607e-08
1.234948149451624573e-08
9.220424049062666579e-09
6.871250183753121721e-09
5.111290651157293751e-09
3.795438329323509032e-09
2.813557532281026133e-09
2.082272133440141456e-09
1.538621204646131616e-09
1.135174413133516414e-09
8.362837479788108365e-10
6.152163398775774792e-10
4.519679169471653866e-10
3.316001734668140412e-10
2.429800454708824034e-10
1.778262989476365050e-10
1.299903718488274600e-10
9.491525027476073725e-11
6.922926778012725746e-11
5.044187847343730261e-11
3.671630070030064519e-11
2.669996353077348770e-11
1.939831433602307108e-11
1.408107954911308887e-11
1.021276146414167748e-11
7.401196486474941871e-12
5.359546232079667974e-12
3.878259755548954471e-12
2.804423591284591551e-12
2.026575863813490584e-12
1.463554781381925909e-12
1.056321051421905991e-12
7.619690802809592334e-13
5.493466905856972936e-13
3.958552287552013765e-13
2.851146974548267190e-13
2.052619707727851186e-13
1.477117585719194940e-13
1.062554084013728071e-13
7.640606741615818820e-14
5.492329890878684108e-14
3.946828061754693757e-14
2.835392675387591839e-14
2.036394683495935284e-14
1.462192307342031254e-14
1.049664824355476837e-14
7.533728483403863539e-15
5.406195883560149105e-15
3.878869510040775379e-15
2.782652638359280825e-15
1.996023729216328379e-15
1.431627304073494153e-15
1.026738888856315374e-15
7.363152668680532572e-16
5.280184981289140550e-16
3.786374729420166004e-16
2.715154590381906610e-16
1.947014758517303525e-16
1.396222565448704396e-16
1.001284797109334727e-16
7.180998033159797092e-17
5.150420554805925850e-17
3.694346196883586887e-17
2.650181704423243361e-17
1.901353476771781531e-17
1.364284851052401128e-17
9.790568486200212837e-18
7.027113195593906028e-18
5.044493383528326293e-18
3.621887609295254674e-18
2.600963670083631949e-18
1.868187525071919472e-18
1.342141616130309971e-18
9.644342153606062051e-19
6.931828966494989519e-19
4.983431311722351305e-19
3.583594397793296337e-19
2.577645340997012493e-19
1.854579726136251092e-19
1.334719062657083371e-19
9.608599587906038397e-20
6.919265017047736690e-20
4.984173192021088713e-20
3.591394611299310592e-20
2.588650508080163574e-20
1.866497269124095650e-20
1.346257691583245332e-20
9.713575029839171253e-21
7.011051127624603396e-21
5.062246444151092690e-21
3.656473601225893404e-21
2.642064510003977631e-21
1.909804595787890443e-21
1.381025303148299678e-21
9.990427812852049232e-22
7.230007883453173736e-22
5.234414372903201661e-22
3.791180033684159834e-22
2.747008225223156894e-22
1.991255304894482834e-22
1.444034233954726327e-22
1.047643795225066035e-22
7.603917610466336653e-23
5.521418750783109047e-23
4.011024881621012676e-23
2.915098358937678235e-23
2.119561370804510945e-23
1.541826071971686791e-23
1.122077887871515399e-23
8.169781079707537256e-24
5.951125959742541295e-24
4.337012085547475163e-24
3.162177867517138395e-24
2.306680712109883500e-24
1.683431718305803951e-24
1.229169046226080768e-24
8.979187087328573517e-25
6.562553902647833851e-25
4.798663762246109252e-25
3.510592353039498886e-25
2.569532753483193419e-25
1.881666150544275626e-25
1.378626397833090103e-25
1.010571659212190928e-25
7.411481178138257646e-26
5.438274209417103240e-26
3.992419588437319599e-26
2.932452516004109184e-26
2.154994910789092611e-26
1.584464956895162846e-26
1.165576553152217461e-26
8.578697472565376136e-27
6.317203508384107660e-27
4.654273443226437191e-27
3.430859627842835393e-27
2.530337876617683068e-27
1.867149322209484641e-27
1.378494317213292390e-27
1.018255349715921101e-27
7.525486524270716108e-28
5.564664287089576223e-28
4.116898651555346931e-28
3.047393200280406730e-28
2.256909731017685047e-28
1.672351257963720613e-28
1.239848574828935753e-28
9.196822827325936114e-29
6.825511303222221397e-29
5.068283567038610377e-29
3.765434449904535241e-29
2.799020957511916087e-29
2.081737419846814157e-29
1.549082511316570757e-29
1.153325780586557690e-29
8.591288843962861878e-30
6.403147671424148732e-30
4.774826317362473045e-30
3.562463906816528525e-30
2.659329502317693754e-30
1.986198041603036179e-30
1.484231293584555506e-30
1.109709125292104783e-30
8.301281762995978006e-31
6.213115790083587689e-31
4.652666136326906296e-31
3.485959384421265035e-31
2.613187503049734367e-31
1.959956586114478917e-31
1.470786918779403431e-31
1.104282726501530058e-31
8.295408646691643405e-32
6.234792968778762998e-32
4.688487714950879205e-32
3.527522211104814661e-32
2.655416715870620444e-32
1.999959856920936344e-32
1.507076299313109325e-32
1.136250951894787542e-32
8.571128754355834145e-33
6.468836691353606100e-33
4.884705950160288152e-33
3.690408001431153527e-33
2.789547126719969740e-33
2.109677232304220914e-33
1.596323643068417137e-33
1.208504042341751914e-33
9.153709094116484009e-34
6.936933653907346537e-34
5.259676105482107871e-34
3.989983213758110324e-34
3.028330836539324461e-34
2.299615986566999469e-34
1.747135667060582736e-34
1.328057271855078992e-34
1.010009338373082182e-34
7.685142507184659361e-35
5.850539904901923929e-35
4.456121044973515854e-35
3.395740915829093113e-35
2.588976846796257754e-35
1.974864699922456648e-35
1.507167755086204326e-35
1.150801469443845912e-35
8.791303693443876318e-36
6.719233128378010816e-36
5.138060014952943134e-36
3.930892373989231140e-36
3.008812516631821760e-36
2.304149034345906979e-36
1.765374862312969127e-36
1.353236511399426866e-36
1.037815928214130298e-36
7.962991814104570189e-37
6.112811046147733482e-37
4.694765315378296488e-37
3.607401342625595276e-37
2.773206052585288292e-37
2.132928793278485001e-37
1.641256849730725337e-37
1.263520104424548432e-37
9.731787166698189230e-38
7.499068435993249672e-38
5.781302921993512760e-38
4.459100403545138567e-38
3.440894162066317584e-38
2.656423621330921970e-38
2.051751333372353815e-38
1.585451281394691824e-38
1.225691788487836210e-38
9.480020146700314820e-39
7.335610459207602414e-39
5.678866845042759127e-39
4.398300921575112210e-39
3.408045827881382342e-39
2.641937551704429893e-39
2.048970500129874292e-39
1.589806613963963749e-39
1.234092541032179133e-39
9.583968708414093183e-40
7.446233911772889413e-40
5.787899558192947341e-40
4.500882908675350459e-40
3.501597756108219990e-40
2.725373320447046934e-40
2.122151288435944465e-40
1.653166785571914935e-40
1.288387135472677458e-40
1.004534502479082511e-40
7.835586254584532128e-41
6.114566642209066108e-41
4.773746613446812458e-41
3.728545457064723007e-41
2.913434831226059712e-41
2.277489321033338117e-41
1.781114971135390894e-41
1.393514560230551421e-41
1.090722840417346599e-41
8.540829118603203533e-42
6.690641724545699361e-42
5.243448677495714232e-42
4.110997022355582473e-42
3.224464393236330054e-42
2.530158222900254218e-42
1.986171915531947568e-42
1.559783937418373474e-42
1.225433903830181794e-42
9.631469889933166085e-43
7.573068296007453536e-43
5.956994370402507881e-43
4.687679511387512107e-43
3.690314954934511858e-43
2.906318097914843688e-43
2.289794169788677663e-43
1.804773579246962973e-43
1.423053996948192069e-43
1.122514102519998888e-43
8.857953592057385978e-44
6.992710700650105169e-44
5.522397780892975285e-44
4.362939330730552758e-44
3.448255403014576574e-44
2.726389127873988232e-44
2.156471999281801012e-44
1.706344727235920559e-44
1.350691289639814944e-44
1.069574897066363003e-44
8.472888426800896807e-45
6.714541529972810227e-45
5.323107536612979033e-45
4.221604296186876225e-45
3.349289010786981975e-45
2.658214087677937197e-45
2.110517356231247786e-45
1.676289236241114153e-45
1.331893364227883275e-45
1.058643756700092827e-45
8.417624141934531674e-46
6.695575968395595895e-46
5.327758077808406917e-46
4.240905683607402146e-46
3.376989557507389917e-46
2.690030666663591413e-46
2.143584357104310828e-46
1.708752599579992352e-46
1.362612869272618145e-46
1.086975868005066937e-46
8.674028943734701972e-47
6.924283039975617187e-47
5.529440264896864930e-47
4.417121830387524706e-47
3.529790010231302763e-47
2.821688600675448492e-47
2.256417498082622366e-47
1.805009267204300375e-47
1.444403249500078868e-47
1.156234609220445725e-47
9.258729691728135445e-48
7.416589192459810817e-48
5.942974536189591768e-48
4.763759096069344884e-48
3.819807171343335792e-48
3.063925972365420478e-48
2.458440660450641344e-48
1.973264403703473640e-48
1.584361861397604988e-48
1.272525467606274080e-48
1.022400496385690674e-48
8.217080620306792657e-49
6.606256550012583302e-49
5.312931034255122364e-49
4.274184296174931486e-49
3.439632953144232230e-49
2.768918789532920558e-49
2.229703254872445845e-49
1.796065300136214830e-49
1.447221003356808537e-49
1.166500010842225002e-49
9.405270086635561757e-50
7.585669364478490269e-50
6.120010137821297988e-50
4.939073068881242021e-50
3.987248676039702645e-50
3.219847045149425321e-50
2.600942169450451614e-50
2.101644110594487266e-50
1.698713623672454802e-50
1.373451009028285049e-50
1.110804621814781686e-50
8.986553862879968411e-51
7.272423827737849566e-51
5.887241735521641086e-51
4.767317909130735159e-51
3.861583399395064236e-51
3.128853921347604500e-51
2.535906432527232847e-51
2.055931968491401572e-51
1.667290743909636372e-51
1.352510154670189658e-51
1.097478036813914597e-51
8.907929324297740509e-52
7.232406449452651351e-52
5.873724075067231416e-52
4.771648350580827945e-52
3.877457206408420253e-52
3.151728592887387564e-52
2.562555907235993981e-52
2.084107666240306901e-52
1.695464670623180041e-52
1.379680919286299460e-52
1.123024994198579315e-52
9.143670518024424597e-53
7.446833271885739060e-53
6.066555060678526950e-53
4.943467060678886844e-53
4.029393412667986028e-53
3.285229893209587192e-53
2.679226733230239807e-53
2.185598185415540512e-53
1.783396341650106686e-53
1.455598718300991638e-53
1.188368821331789038e-53
9.704567262028189372e-54
7.927130223036371483e-54
6.476945705433352545e-54
5.293446410148060367e-54
4.327333249070524887e-54
3.538468037829995224e-54
2.894162330584394396e-54
2.367787542366366316e-54
1.937645721968642668e-54
1.586051841498095075e-54
1.298587778457985585e-54
1.063495702895233990e-54
8.711846852003234915e-55
7.138292836582062383e-55
5.850428762622916869e-55
4.796117475395174890e-55
3.932785728248469307e-55
3.225660764990680579e-55
2.646333717388690945e-55
2.171588938269256473e-55
1.782449789440761815e-55
1.463400657266833968e-55
1.201752482955708983e-55
9.871251980891427366e-56
8.110254148157805503e-56
6.665017502003920142e-56
5.478634403130862510e-56
4.504505635336966890e-56
3.704463592179336010e-56
3.047238906003654987e-56
2.507207352842943449e-56
2.063365543263361358e-56
1.698493416435488466e-56
1.398469297608515036e-56
1.151709586828345492e-56
9.487102865417893236e-57
7.816717649914155486e-57
6.441915676942645549e-57
5.310128744966539445e-57
4.378184715610551919e-57
3.610619612634770337e-57
2.978294457364385821e-57
2.457261546859508559e-57
2.027834964297111083e-57
1.673828346295642510e-57
1.381929659587964263e-57
1.141188236906865052e-57
9.425938152650766128e-58
7.787309933162388569e-58
6.434955284911495398e-58
5.318613517411067268e-58
4.396891880352625563e-58
3.635693159099295234e-58
3.006923460111390630e-58
2.487430011418276938e-58
2.058127832759588054e-58
1.703281526541579238e-58
1.409914501065298285e-58
1.167322904175285035e-58
9.666756168651220896e-59
8.006849946455769812e-59
6.633357822935979346e-59
5.496618734852514829e-59
4.555624296029668983e-59
3.776503843938257182e-59
3.131276026767959819e-59
2.596819806951276984e-59
2.154026129256146531e-59
1.787098379031370745e-59
1.483046297113306281e-59
1.230973370394104100e-59
1.021950742252012663e-59
8.485907273338697009e-60
7.047795129061195691e-60
5.854564440345185250e-60
4.864317349011976746e-60
4.042358840351379890e-60
3.359952528881910897e-60
2.793292401252013362e-60
2.322652852604702673e-60
1.931685952991938637e-60
1.606840318491545040e-60
1.336880443153563310e-60
1.112489041886215328e-60
9.259379999108477667e-61
7.708160358612821554e-61
6.418032570746388453e-61
5.344844945695016284e-61
4.451947153767065721e-61
3.708909737663119731e-61
3.090463237197004559e-61
2.575619083306698425e-61
2.146940970116706135e-61
1.789940826010421603e-61
1.492577976327610199e-61
1.244843785652485369e-61
1.038417122101150272e-61
8.663785112426268423e-62
7.229729354139252430e-62
6.034129612372933506e-62
5.037153068440870758e-62
4.205651424416990220e-62
3.512033961752607831e-62
2.933331470427395826e-62
2.450418570803447009e-62
2.047367502345505086e-62
1.710911051852770559e-62
1.429996103333418057e-62
1.195412448149520524e-62
9.994841100164555164e-63
8.358126078513665283e-63
6.990633772543144243e-63
5.847880622107928241e-63
4.892766250892926530e-63
4.094342487541943328e-63
3.426788557099724033e-63
2.868557755063103121e-63
2.401666779123945450e-63
2.011103761017547316e-63
1.684335082587835028e-63
1.410894416915492753e-63
1.182040223759031549e-63
9.904702452787164368e-64
8.300834732164984475e-64
6.957816588460882203e-64
5.833037672310523368e-64
4.890878833628494979e-64
4.101559975576913528e-64
3.440178625637605682e-64
2.885907513194183387e-64
2.421324739139641699e-64
2.031854530657222544e-64
1.705300243173522684e-64
1.431454325958037397e-64
1.201772511271634721e-64
1.009101605244752098e-64
8.474520231701281334e-65
7.118076819793762771e-65
5.979670876757766010e-65
5.024104764631177026e-65
4.221887193720368590e-65
3.548304097464544741e-65
2.982641446393527094e-65
2.507535046508848824e-65
2.108426483917313330e-65
1.773107812015756215e-65
1.491340443457060711e-65
1.254536101056487501e-65
1.055489678457280293e-65
8.881555283749691493e-66
7.474600882426784996e-66
6.291449156530132866e-66
5.296351771105651268e-66
4.459294449422060302e-66
3.755073351631535224e-66
3.162520856887081862e-66
2.663856478858694127e-66
2.244142604020375111e-66
1.890828052790616255e-66
1.593365232357340884e-66
1.342888965891786958e-66
1.131947020256313601e-66
9.542739753514778236e-67
8.046014348093889721e-67
6.784987131561946460e-67
5.722390850459294074e-67
4.826874779545555353e-67
4.072061561067159625e-67
3.435755015161058446e-67
2.899440088091085572e-67
2.447176050111305094e-67
2.065737713821524036e-67
1.743989237256513505e-67
1.472552703837942038e-67
1.243529488240653067e-67
1.050265966318272357e-67
8.871564828743116310e-68
7.494776281244993917e-68
6.332488275326491461e-68
5.351150499836358202e-68
4.522481107960907082e-68
3.822636096741734569e-68
3.231510167761106565e-68
2.732148172295974116e-68
2.310249578949827498e-68
1.953751202111548279e-68
1.652475781599823022e-68
1.397835979577300496e-68
1.182585020711813293e-68
1.000606596319388020e-68
8.467378253616938328e-69
7.166200503789462141e-69
6.065730746311425588e-69
5.134891430442757987e-69
4.347435550758254182e-69
3.681192900413291194e-69
3.117434396363199926e-69
2.640335908252560534e-69
2.236525954350083387e-69
1.894704094821811099e-69
1.605318928851953249e-69
1.360296349687432772e-69
1.152810182889545121e-69
9.770885717592272304e-70
8.282505169848927505e-70
7.021678560370635730e-70
5.953487077890990079e-70
5.048390312067584724e-70
4.281394721569766093e-70
3.631351149666087039e-70
3.080361283533065994e-70
2.613276097460147555e-70
2.217271970491884205e-70
1.881492403631080261e-70
1.596745146011563973e-70
1.355246128550213326e-70
1.150402943946427793e-70
9.766317425744967154e-71
8.292023677652132587e-71
7.041073589048137089e-71
5.979511300742627160e-71
5.078562052877192952e-71
4.313838753603739726e-71
3.664670500247318790e-71
3.113534239033485375e-71
2.645573662803294500e-71
2.248191906601137751e-71
1.910706679357670965e-71
1.624058225613865211e-71
1.380561994638095566e-71
1.173699147767155740e-71
9.979390941188643547e-72
8.485891401816247646e-72
7.216670956392100170e-72
6.137933176601194387e-72
5.220992169056099865e-72
4.441497060229046554e-72
3.778774583250530852e-72
3.215271716470746904e-72
2.736083092354493762e-72
2.328550237722162185e-72
1.981921688432652413e-72
1.687064698929825485e-72
1.436220686722140351e-72
1.222797753521607152e-72
1.041194642057677944e-72
8.866513488814294934e-73
7.551223427916955920e-73
6.431689561526742702e-73
5.478680394843883953e-73
4.667344128240730535e-73
3.976550227436651024e-73
3.388330319648602737e-73
2.887403380193502515e-73
2.460772457996649585e-73
2.097382124254537791e-73
1.787827469393890895e-73
1.524106864546370496e-73
1.299411883172526868e-73
1.107948778565117217e-73
9.447867610724881051e-74
8.057290382089026234e-74
6.872031909716620607e-74
5.861679772951136565e-74
5.000340927286520704e-74
4.265967910538841602e-74
3.639785837786242750e-74
3.105805058201468417e-74
2.650406624918369857e-74
2.262139506907624399e-74
1.930927309270210592e-74
1.648359627488471730e-74
1.407269765257205965e-74
1.201550226936863960e-74
1.025995671210507636e-74
8.761692253194996026e-75
7.482886736069877100e-75
6.391295561055854696e-75
5.459426564883713068e-75
4.663837356837752430e-75
3.984536878697481018e-75
3.404475679261857207e-75
2.909111709670085183e-75
2.486040414345967875e-75
2.124679566294923034e-75
1.816000718956301352e-75
1.552300357442947600e-75
1.327004861715661637e-75
1.134504270167208921e-75
9.700105772767795037e-76
8.294369330124170750e-76
7.092946511544623835e-76
6.066053928164778943e-76
5.188262821749633289e-76
4.437860440001084537e-76
3.796305356865840733e-76
3.247762875034383908e-76
2.778708699899546768e-76
2.377590821591305907e-76
2.034541029719319969e-76
1.741128752748363541e-76
1.490150993346234893e-76
1.275453050529989732e-76
1.091775502753968990e-76
9.346235934710894741e-77
8.001557293637419068e-77
6.850882860335820600e-77
5.866143289303229825e-77
5.023342092986544087e-77
4.301962949676318149e-77
3.684463515900024644e-77
3.155843080085025671e-77
2.703273253623658812e-77
2.315782480974539122e-77
1.983986502555575092e-77
1.699858057373383539e-77
1.456530095950774404e-77
1.248127613174409982e-77
1.069623926495209519e-77
9.167178356322492461e-78
7.857286210387278515e-78
6.735062830697325867e-78
5.773548032898185376e-78
4.949665332602665965e-78
4.243660926162538275e-78
3.638623942536880500e-78
3.120076159314096319e-78
2.675621096215880784e-78
2.294643868312104086e-78
1.968054435529779273e-78
1.688067956282697201e-78
1.448016867994129417e-78
1.242190098797403604e-78
1.065695482300667885e-78
9.143420176442219207e-79
7.845391043689379008e-79
6.732102979852769270e-79
5.777194879343711423e-79
4.958077037013311828e-79
4.255390147217450236e-79
3.652542118536323727e-79
3.135311480694575080e-79
2.691507783509218231e-79
2.310680775527154029e-79
1.983871336659417244e-79
1.703398153814754979e-79
1.462674996272910771e-79
1.256054189661981423e-79
1.078692522147740349e-79
9.264363593866760975e-80
7.957232092579352542e-80
6.834973747390934217e-80
5.871376732603500456e-80
5.043954917647179755e-80
4.333416956252852459e-80
3.723211225956061500e-80
3.199135752868907666e-80
2.749003817154789176e-80
2.362357270406343535e-80
2.030220739607605554e-80
1.744890871322105569e-80
1.499755607920222390e-80
1.289139205339225249e-80
1.108169316437664475e-80
9.526629903040327429e-81
8.190288886291838558e-81
7.041834063241323004e-81
6.054787142623893068e-81
5.206410253168154789e-81
4.477513746668120786e-81
3.850895029705655934e-81
3.312169337245809108e-81
2.848979811295236522e-81
2.450710928175848501e-81
2.108242521567293926e-81
1.813738636264426719e-81
1.560466268367075496e-81
1.342639751232175441e-81
1.155287149744465287e-81
9.941355426683526455e-82
8.555125163138461644e-82
7.362615730388243176e-82
6.336694842295408095e-82
5.454038970955230083e-82
4.694597445060718910e-82
4.041132128633806023e-82
3.478821995167717743e-82
2.994923426468984780e-82
2.578478364588072700e-82
2.220063559861756059e-82
1.911575114492433859e-82
1.646043341790365298e-82
1.417473665504569863e-82
1.220709888117540713e-82
1.051316675762383694e-82
9.054785527250729469e-83
7.799130807305800749e-83
6.717962263567682806e-83
5.786982016284314772e-83
4.985283047146866702e-83
4.294874953288246482e-83
3.700276177583070184e-83
3.188163375883528412e-83
2.747069896985216915e-83
2.367126480603083407e-83
2.039838248797315990e-83
1.757892899596694292e-83
1.514995727401049922e-83
1.305727709699372916e-83
1.125423427962632251e-83
9.700660444915647081e-84
8.361969470342500247e-84
7.208380081304293326e-84
6.214246941496959607e-84
5.357485065022484048e-84
4.619074502243727037e-84
3.982634079799480741e-84
3.434054546774312253e-84
2.961182829973172538e-84
2.553550262619707650e-84
2.202138649231817641e-84
1.899178887858295794e-84
1.637977608948973652e-84
1.412767924788592443e-84
1.218580929186028058e-84
1.051135056447865058e-84
9.067408123012123788e-85
7.822187365975071918e-85
6.748287562251960361e-85
5.822093435128622417e-85
5.023251163503861956e-85
4.334217063333554122e-85
3.739868847628192325e-85
3.227170770289165215e-85
2.784885169622101451e-85
2.403323969050026040e-85
2.074134588916086928e-85
1.790115494663070104e-85
1.545057270559217784e-85
1.333605679513057267e-85
1.151143661318087635e-85
9.936896449892846035e-86
8.578099152466387731e-86
7.405430869022307190e-86
6.393350109666767478e-86
5.519826688037780858e-86
4.765858108555869694e-86
4.115052688342709682e-86
3.553270187105826544e-86
3.068311996477327686e-86
2.649654041082634922e-86
2.288216491632191841e-86
1.976165206841070600e-86
1.706740524267971224e-86
1.474109625951334905e-86
1.273239226550412281e-86
1.099785781243590417e-86
9.500007979133923370e-87
8.206491718105472940e-87
7.089387483713735203e-87
6.124595675652349450e-87
5.291314565945743826e-87
4.571588216983476399e-87
3.949916483146215694e-87
3.412918554617451898e-87
2.949042679272594446e-87
2.548315713280913123e-87
2.202127025690900603e-87
